xof 0302txt 0064
template Header {
 <3D82AB43-62DA-11cf-AB39-0020AF71E433>
 WORD major;
 WORD minor;
 DWORD flags;
}

template Vector {
 <3D82AB5E-62DA-11cf-AB39-0020AF71E433>
 FLOAT x;
 FLOAT y;
 FLOAT z;
}

template Coords2d {
 <F6F23F44-7686-11cf-8F52-0040333594A3>
 FLOAT u;
 FLOAT v;
}

template Matrix4x4 {
 <F6F23F45-7686-11cf-8F52-0040333594A3>
 array FLOAT matrix[16];
}

template ColorRGBA {
 <35FF44E0-6C7C-11cf-8F52-0040333594A3>
 FLOAT red;
 FLOAT green;
 FLOAT blue;
 FLOAT alpha;
}

template ColorRGB {
 <D3E16E81-7835-11cf-8F52-0040333594A3>
 FLOAT red;
 FLOAT green;
 FLOAT blue;
}

template IndexedColor {
 <1630B820-7842-11cf-8F52-0040333594A3>
 DWORD index;
 ColorRGBA indexColor;
}

template Boolean {
 <4885AE61-78E8-11cf-8F52-0040333594A3>
 WORD truefalse;
}

template Boolean2d {
 <4885AE63-78E8-11cf-8F52-0040333594A3>
 Boolean u;
 Boolean v;
}

template MaterialWrap {
 <4885AE60-78E8-11cf-8F52-0040333594A3>
 Boolean u;
 Boolean v;
}

template TextureFilename {
 <A42790E1-7810-11cf-8F52-0040333594A3>
 STRING filename;
}

template Material {
 <3D82AB4D-62DA-11cf-AB39-0020AF71E433>
 ColorRGBA faceColor;
 FLOAT power;
 ColorRGB specularColor;
 ColorRGB emissiveColor;
 [...]
}

template MeshFace {
 <3D82AB5F-62DA-11cf-AB39-0020AF71E433>
 DWORD nFaceVertexIndices;
 array DWORD faceVertexIndices[nFaceVertexIndices];
}

template MeshFaceWraps {
 <4885AE62-78E8-11cf-8F52-0040333594A3>
 DWORD nFaceWrapValues;
 Boolean2d faceWrapValues;
}

template MeshTextureCoords {
 <F6F23F40-7686-11cf-8F52-0040333594A3>
 DWORD nTextureCoords;
 array Coords2d textureCoords[nTextureCoords];
}

template MeshMaterialList {
 <F6F23F42-7686-11cf-8F52-0040333594A3>
 DWORD nMaterials;
 DWORD nFaceIndexes;
 array DWORD faceIndexes[nFaceIndexes];
 [Material]
}

template MeshNormals {
 <F6F23F43-7686-11cf-8F52-0040333594A3>
 DWORD nNormals;
 array Vector normals[nNormals];
 DWORD nFaceNormals;
 array MeshFace faceNormals[nFaceNormals];
}

template MeshVertexColors {
 <1630B821-7842-11cf-8F52-0040333594A3>
 DWORD nVertexColors;
 array IndexedColor vertexColors[nVertexColors];
}

template Mesh {
 <3D82AB44-62DA-11cf-AB39-0020AF71E433>
 DWORD nVertices;
 array Vector vertices[nVertices];
 DWORD nFaces;
 array MeshFace faces[nFaces];
 [...]
}

Header{
1;
0;
1;
}

Mesh {
 185;
 0.07035;0.07761;-0.10148;,
 0.07035;0.34528;-0.07819;,
 0.07771;0.35555;-0.09034;,
 0.07771;0.07699;-0.11457;,
 -0.29176;0.07761;-0.10148;,
 -0.29913;0.07699;-0.11457;,
 -0.29176;0.34528;-0.07819;,
 -0.29913;0.35555;-0.09034;,
 0.07035;0.34528;-0.07819;,
 0.07035;0.07761;-0.10148;,
 -0.29176;0.07761;-0.10148;,
 -0.29176;0.34528;-0.07819;,
 0.08690;0.00260;-0.30710;,
 0.30711;0.00260;-0.30711;,
 0.30711;0.00260;-0.11431;,
 0.08690;0.00260;-0.11431;,
 -0.30831;0.00260;-0.11431;,
 -0.30831;0.00260;-0.30710;,
 0.30711;0.00260;-0.11448;,
 0.30711;0.00260;0.30831;,
 0.08690;0.00260;0.30831;,
 0.08690;0.00260;-0.11448;,
 0.08690;0.00260;-0.11431;,
 0.30711;0.00260;-0.11431;,
 0.30711;0.00260;-0.11448;,
 0.08690;0.00260;-0.11448;,
 -0.30831;0.00260;-0.11448;,
 -0.30831;0.00260;-0.11431;,
 -0.30831;0.00260;0.30831;,
 -0.30831;0.00260;-0.11448;,
 0.08690;0.04747;-0.30710;,
 0.30711;0.04747;-0.30711;,
 0.30711;0.00260;-0.30711;,
 0.08690;0.00260;-0.30710;,
 0.08690;0.06103;-0.11431;,
 0.30711;0.06103;-0.11431;,
 0.30711;0.04747;-0.30711;,
 0.08690;0.04747;-0.30710;,
 -0.30831;0.04747;-0.30710;,
 -0.30831;0.00260;-0.30710;,
 -0.30831;0.04747;-0.30710;,
 -0.30831;0.06103;-0.11431;,
 0.30711;0.09075;0.30831;,
 0.08690;0.09075;0.30831;,
 0.08690;0.00260;0.30831;,
 0.30711;0.00260;0.30831;,
 0.08690;0.09075;0.30831;,
 -0.30831;0.09075;0.30831;,
 -0.30831;0.00260;0.30831;,
 0.08690;0.00260;0.30831;,
 0.08690;0.06642;-0.11445;,
 0.08690;0.36593;-0.08839;,
 0.08690;0.06101;-0.11448;,
 0.08690;0.06103;-0.11431;,
 -0.30831;0.06642;-0.11445;,
 -0.30831;0.06103;-0.11431;,
 -0.30831;0.36593;-0.08839;,
 -0.30831;0.06101;-0.11448;,
 -0.30831;0.32028;0.30831;,
 -0.30831;0.36593;-0.08839;,
 -0.30831;0.06101;-0.11448;,
 -0.30831;0.09075;0.30831;,
 0.08690;0.32028;0.30831;,
 -0.30831;0.32028;0.30831;,
 -0.30831;0.09075;0.30831;,
 0.08690;0.09075;0.30831;,
 0.08690;0.36593;-0.08839;,
 0.08690;0.32028;0.30831;,
 0.08690;0.09075;0.30831;,
 0.08690;0.06101;-0.11448;,
 0.08690;0.12971;0.30831;,
 0.08690;0.12971;-0.11448;,
 0.08690;0.09075;0.30831;,
 0.30711;0.12971;0.30831;,
 0.08690;0.12971;0.30831;,
 0.08690;0.09075;0.30831;,
 0.30711;0.09075;0.30831;,
 0.08690;0.12971;-0.11448;,
 0.08690;0.12971;0.30831;,
 0.30711;0.12971;0.30831;,
 0.30711;0.12971;-0.11448;,
 0.30711;0.06329;-0.11431;,
 0.30711;0.06101;-0.11448;,
 0.30711;0.06103;-0.11431;,
 0.08690;0.06329;-0.11431;,
 0.08690;0.06103;-0.11431;,
 0.08690;0.06101;-0.11448;,
 0.08690;0.12971;-0.11448;,
 0.30711;0.12971;-0.11448;,
 0.30711;0.06329;-0.11431;,
 0.08690;0.06329;-0.11431;,
 0.08690;0.36593;-0.08839;,
 0.08690;0.06642;-0.11445;,
 0.07771;0.07701;-0.11487;,
 0.07771;0.35557;-0.09064;,
 -0.30831;0.06642;-0.11445;,
 -0.29913;0.07701;-0.11487;,
 -0.30831;0.36593;-0.08839;,
 -0.29913;0.35557;-0.09064;,
 0.31198;0.06103;-0.11431;,
 0.31123;0.04740;-0.30595;,
 0.31123;0.00271;-0.30601;,
 0.31136;0.00271;-0.11495;,
 0.30711;0.00260;-0.11431;,
 0.30711;0.00260;-0.30711;,
 0.31123;0.04740;-0.30595;,
 0.30711;0.00260;-0.30711;,
 0.30711;0.04747;-0.30711;,
 -0.31194;0.04638;-0.30594;,
 -0.31194;0.05993;-0.11332;,
 -0.31194;0.00371;-0.30599;,
 -0.31194;0.04638;-0.30594;,
 -0.31194;0.00370;-0.11337;,
 -0.31194;0.00371;-0.30599;,
 -0.30831;0.00260;-0.30710;,
 -0.30831;0.00260;-0.11431;,
 -0.31194;0.05993;-0.11332;,
 -0.31194;0.04638;-0.30594;,
 0.31074;0.00271;0.30720;,
 0.31051;0.09075;0.30695;,
 0.31136;0.00271;-0.11495;,
 0.31074;0.00271;0.30720;,
 0.30711;0.00260;0.30831;,
 0.30711;0.00260;-0.11448;,
 -0.31194;0.05993;-0.11332;,
 -0.31194;0.08963;0.30726;,
 -0.30831;0.09075;0.30831;,
 -0.30831;0.06101;-0.11448;,
 -0.31194;0.00370;0.30721;,
 -0.31194;0.00370;-0.11337;,
 -0.30831;0.00260;-0.11448;,
 -0.30831;0.00260;0.30831;,
 -0.31194;0.08963;0.30726;,
 -0.31194;0.00370;0.30721;,
 -0.30831;0.00260;0.30831;,
 -0.30831;0.09075;0.30831;,
 0.31072;0.12861;0.30721;,
 0.31072;0.12860;-0.11337;,
 0.31051;0.09075;0.30695;,
 0.31072;0.12861;0.30721;,
 0.30711;0.12971;0.30831;,
 0.30711;0.09075;0.30831;,
 0.31072;0.12860;-0.11337;,
 0.31198;0.06103;-0.11431;,
 0.30711;0.06101;-0.11448;,
 0.31072;0.12860;-0.11337;,
 0.31072;0.12861;0.30721;,
 0.31051;0.09075;0.30695;,
 0.31198;0.06103;-0.11431;,
 -0.30537;0.37006;-0.08434;,
 0.08396;0.37006;-0.08434;,
 0.08690;0.36593;-0.08839;,
 -0.30831;0.36593;-0.08839;,
 -0.30538;0.32545;0.30570;,
 -0.30831;0.32028;0.30831;,
 0.08396;0.32545;0.30570;,
 0.08690;0.32028;0.30831;,
 -0.26259;0.32917;-0.08397;,
 -0.29913;0.35557;-0.09064;,
 0.07771;0.35557;-0.09064;,
 -0.29913;0.07701;-0.11487;,
 0.03820;0.32647;-0.08416;,
 0.07771;0.07701;-0.11487;,
 0.03939;0.10658;-0.10346;,
 -0.26061;0.10823;-0.10321;,
 0.31522;0.06036;-0.11431;,
 0.31521;0.04636;-0.30596;,
 0.31521;0.00368;-0.30603;,
 0.31521;0.00386;-0.11495;,
 0.31521;0.04636;-0.30596;,
 0.31521;0.00368;-0.30603;,
 0.31123;0.00271;-0.30601;,
 0.31123;0.04740;-0.30595;,
 0.31521;0.04636;-0.30596;,
 0.31522;0.06036;-0.11431;,
 0.31521;0.08929;0.30696;,
 0.31522;0.06036;-0.11431;,
 0.31198;0.06103;-0.11431;,
 0.31051;0.09075;0.30695;,
 0.31521;0.00370;0.30721;,
 0.31521;0.00386;-0.11495;,
 0.07035;0.34498;-0.07470;,
 0.07035;0.07731;-0.09799;,
 -0.29176;0.07731;-0.09799;,
 -0.29176;0.34498;-0.07470;;
 
 73;
 4;0,1,2,3;,
 4;4,0,3,5;,
 4;6,4,5,7;,
 4;1,6,7,2;,
 4;8,9,10,11;,
 4;12,13,14,15;,
 4;16,17,12,15;,
 4;18,19,20,21;,
 4;22,23,24,25;,
 4;26,27,22,25;,
 4;20,28,29,21;,
 4;30,31,32,33;,
 4;34,35,36,37;,
 4;38,30,33,39;,
 4;34,37,40,41;,
 4;42,43,44,45;,
 4;46,47,48,49;,
 4;50,51,52,53;,
 4;54,50,53,55;,
 4;56,54,55,57;,
 4;58,59,60,61;,
 4;62,63,64,65;,
 4;66,67,68,69;,
 4;70,71,52,72;,
 4;73,74,75,76;,
 4;77,78,79,80;,
 4;81,80,82,83;,
 4;84,81,83,85;,
 4;77,84,85,86;,
 4;87,88,89,90;,
 4;91,92,93,94;,
 4;92,95,96,93;,
 4;95,97,98,96;,
 4;97,91,94,98;,
 4;99,100,36,35;,
 4;101,102,103,104;,
 4;105,101,106,107;,
 4;108,109,41,40;,
 4;110,111,38,39;,
 4;112,113,114,115;,
 4;116,117,113,112;,
 4;118,119,42,45;,
 4;120,121,122,123;,
 4;124,125,126,127;,
 4;128,129,130,131;,
 4;132,133,134,135;,
 4;125,124,129,128;,
 4;136,137,80,79;,
 4;138,139,140,141;,
 4;142,143,144,88;,
 4;145,146,147,148;,
 4;149,150,151,152;,
 4;153,149,152,154;,
 4;155,153,154,156;,
 4;150,155,156,151;,
 4;150,149,153,155;,
 3;157,158,159;,
 3;157,160,158;,
 3;161,159,162;,
 3;161,157,159;,
 3;163,162,160;,
 3;163,161,162;,
 3;164,163,160;,
 3;164,160,157;,
 4;165,166,100,99;,
 4;167,168,102,101;,
 4;169,170,171,172;,
 4;173,174,168,167;,
 4;175,176,177,178;,
 4;179,175,178,121;,
 4;180,179,121,120;,
 4;176,175,179,180;,
 4;181,182,183,184;;
 
 MeshMaterialList {
  3;
  73;
  2,
  2,
  2,
  2,
  0,
  2,
  2,
  2,
  2,
  2,
  2,
  2,
  2,
  2,
  2,
  2,
  2,
  2,
  2,
  2,
  2,
  2,
  2,
  2,
  2,
  2,
  2,
  2,
  2,
  2,
  2,
  2,
  2,
  2,
  2,
  2,
  2,
  2,
  2,
  2,
  2,
  2,
  2,
  2,
  2,
  2,
  2,
  2,
  2,
  2,
  2,
  2,
  2,
  2,
  2,
  2,
  2,
  2,
  2,
  2,
  2,
  2,
  2,
  2,
  2,
  2,
  2,
  2,
  2,
  2,
  2,
  2,
  1;;
  Material {
   0.800000;0.800000;0.800000;1.000000;;
   23.000000;
   0.240000;0.240000;0.240000;;
   0.260000;0.260000;0.260000;;
   TextureFilename {
    "screen.bmp";
   }
  }
  Material {
   0.800000;0.800000;0.800000;1.000000;;
   23.000000;
   0.240000;0.240000;0.240000;;
   0.260000;0.260000;0.260000;;
   TextureFilename {
    "screen _.bmp";
   }
  }
  Material {
   0.800000;0.800000;0.800000;1.000000;;
   23.000000;
   0.200000;0.200000;0.200000;;
   0.220000;0.220000;0.220000;;
   TextureFilename {
    "MZ-80_t.png";
   }
  }
 }
 MeshNormals {
  94;
  -0.869908;0.042747;-0.491359;,
  0.000000;0.998845;-0.048054;,
  0.869907;0.042747;-0.491359;,
  0.000000;-0.381261;-0.924468;,
  0.000000;-0.763744;-0.645519;,
  0.000000;0.086666;-0.996237;,
  -0.146777;-0.989170;0.000000;,
  0.013405;-0.999910;0.000009;,
  -0.147621;-0.989044;-0.000017;,
  0.012552;-0.999921;-0.000004;,
  0.000000;-1.000000;-0.000000;,
  0.000000;1.000000;0.000000;,
  -0.095677;-0.000094;0.995412;,
  0.168387;-0.000613;0.985721;,
  -0.151633;0.000282;-0.988437;,
  0.133585;0.000326;-0.991037;,
  -0.154399;0.985573;-0.069334;,
  0.008577;0.997486;-0.070340;,
  -0.000000;0.997536;-0.070160;,
  0.000000;0.000000;1.000000;,
  -0.000011;0.000000;-1.000000;,
  -0.005593;-0.003692;0.999978;,
  -1.000000;0.000000;0.000000;,
  0.005603;0.003692;-0.999977;,
  -0.961339;0.273575;0.031380;,
  -0.034689;0.005882;-0.999381;,
  0.000000;0.231632;0.972803;,
  -0.036269;0.262621;-0.964217;,
  0.168266;-0.002141;0.985739;,
  0.000000;-0.001242;-0.999999;,
  0.147035;0.989131;-0.000003;,
  -0.016437;-0.015662;-0.999742;,
  -0.061549;0.117276;-0.991190;,
  0.054198;0.157600;-0.986015;,
  0.023942;0.035112;-0.999097;,
  -0.290375;-0.956913;0.000000;,
  0.167491;0.002376;0.985871;,
  -0.299759;0.000558;-0.954015;,
  0.144440;-0.989514;0.000169;,
  -0.291191;-0.956665;-0.000017;,
  0.142175;-0.989841;0.000084;,
  -0.290400;0.954539;-0.067262;,
  0.223492;0.000156;0.974706;,
  -0.305094;0.949973;-0.066846;,
  0.122405;0.989947;-0.070862;,
  -0.297756;0.952284;-0.067056;,
  0.164645;0.983893;-0.069613;,
  0.290874;0.956761;-0.000006;,
  -0.485057;0.868806;0.099479;,
  0.000000;0.820455;0.571711;,
  0.000000;0.942542;-0.334087;,
  0.116947;-0.073406;-0.990422;,
  -0.151710;-0.015342;-0.988306;,
  -0.075387;0.267995;-0.960466;,
  0.114217;0.220988;-0.968565;,
  -0.002066;0.002878;0.999994;,
  0.261706;-0.965147;0.000344;,
  0.256463;-0.966554;0.000161;,
  0.247760;0.966519;-0.066751;,
  0.226294;0.971510;-0.070419;,
  0.237042;0.969075;-0.068589;,
  0.168509;0.000916;0.985700;,
  -0.143683;-0.000141;0.989624;,
  0.048109;0.006613;-0.998820;,
  0.000000;-0.013434;-0.999910;,
  0.002802;-0.011588;-0.999929;,
  -1.000000;0.000008;-0.000007;,
  0.961235;0.273932;0.031434;,
  1.000000;-0.000008;0.000007;,
  1.000000;-0.000004;0.000003;,
  0.000000;0.000000;-1.000000;,
  1.000000;0.000000;0.000000;,
  0.000000;-0.002484;-0.999997;,
  0.082317;0.002411;-0.996603;,
  0.050255;0.348809;-0.935845;,
  0.131758;0.001079;-0.991281;,
  -0.292007;-0.956416;-0.000033;,
  -1.000000;-0.000045;0.000011;,
  -1.000000;-0.000045;0.000016;,
  0.139912;-0.990164;-0.000002;,
  -0.284385;-0.000278;0.958710;,
  -1.000000;-0.000045;0.000006;,
  0.331732;-0.004222;0.943364;,
  0.164073;0.007290;-0.986421;,
  0.999978;0.006496;0.001085;,
  -0.848348;0.525989;0.060340;,
  0.000000;0.450665;0.892693;,
  0.847942;0.526634;0.060425;,
  -0.003710;0.001491;-0.999992;,
  1.000000;-0.000044;-0.000010;,
  1.000000;-0.000044;0.000005;,
  0.251213;-0.967932;-0.000021;,
  1.000000;-0.000044;0.000021;,
  0.000000;0.086666;-0.996237;;
  73;
  4;0,0,0,0;,
  4;1,1,1,1;,
  4;2,2,2,2;,
  4;3,3,4,4;,
  4;3,5,5,3;,
  4;10,9,9,10;,
  4;8,8,10,10;,
  4;7,7,10,10;,
  4;11,11,11,11;,
  4;11,11,11,11;,
  4;10,6,6,10;,
  4;20,15,15,20;,
  4;18,17,17,18;,
  4;14,20,20,14;,
  4;18,18,16,16;,
  4;13,19,19,61;,
  4;19,12,62,19;,
  4;21,21,21,21;,
  4;25,63,64,65;,
  4;27,25,65,23;,
  4;24,24,66,66;,
  4;26,26,12,19;,
  4;67,67,68,69;,
  4;22,22,22,22;,
  4;28,19,19,13;,
  4;11,11,30,30;,
  4;22,22,22,22;,
  4;29,29,70,64;,
  4;71,71,71,69;,
  4;72,73,29,29;,
  4;74,63,32,31;,
  4;63,25,33,32;,
  4;25,27,34,33;,
  4;27,74,31,34;,
  4;46,44,17,17;,
  4;38,40,9,9;,
  4;75,75,15,15;,
  4;43,45,16,16;,
  4;37,37,14,14;,
  4;39,76,8,8;,
  4;77,78,78,77;,
  4;36,42,13,61;,
  4;40,79,7,7;,
  4;45,41,41,41;,
  4;35,39,6,6;,
  4;80,80,62,12;,
  4;81,77,77,81;,
  4;47,47,30,30;,
  4;42,82,28,13;,
  4;83,83,83,73;,
  4;84,84,84,84;,
  4;50,50,74,27;,
  4;48,85,24,24;,
  4;49,86,26,26;,
  4;87,87,67,67;,
  4;50,50,48,49;,
  3;51,34,31;,
  3;51,33,34;,
  3;52,31,32;,
  3;52,51,31;,
  3;53,32,33;,
  3;53,52,32;,
  3;54,53,33;,
  3;54,33,51;,
  4;60,59,44,46;,
  4;56,57,40,38;,
  4;88,88,75,75;,
  4;89,90,90,89;,
  4;58,60,46,58;,
  4;55,55,42,36;,
  4;57,91,79,40;,
  4;90,92,92,90;,
  4;93,93,93,93;;
 }
 MeshTextureCoords {
  185;
  0.517920;0.649290;,
  0.517920;0.280480;,
  0.517920;0.280480;,
  0.517920;0.649290;,
  0.080180;0.649290;,
  0.080180;0.649290;,
  0.080180;0.280480;,
  0.080180;0.280480;,
  0.994230;0.127050;,
  0.994230;0.860740;,
  0.005380;0.860740;,
  0.005380;0.127050;,
  0.965810;0.108930;,
  0.993970;0.108930;,
  0.993970;0.084350;,
  0.965810;0.084350;,
  0.915390;0.084350;,
  0.915390;0.108930;,
  0.993970;0.065130;,
  0.993970;0.030340;,
  0.965810;0.030340;,
  0.965810;0.065130;,
  0.575930;0.716760;,
  0.896400;0.716760;,
  0.896400;0.498090;,
  0.575930;0.498090;,
  0.000900;0.498090;,
  0.000900;0.716760;,
  0.915390;0.030340;,
  0.915390;0.065130;,
  0.911010;0.177740;,
  0.911010;0.028650;,
  0.988890;0.028650;,
  0.988890;0.177740;,
  0.581310;0.680090;,
  0.900480;0.680090;,
  0.900480;0.993690;,
  0.581310;0.993680;,
  0.911010;0.445300;,
  0.988890;0.445300;,
  0.008530;0.993680;,
  0.008530;0.680090;,
  0.924320;0.990430;,
  0.924320;0.668700;,
  0.997630;0.668700;,
  0.997630;0.990430;,
  0.926480;0.774900;,
  0.926480;0.449570;,
  0.999070;0.449570;,
  0.999070;0.774900;,
  0.575930;0.716760;,
  0.575930;0.498090;,
  0.575930;0.498090;,
  0.575930;0.716760;,
  0.000900;0.716760;,
  0.000900;0.716760;,
  0.000900;0.498090;,
  0.000900;0.498090;,
  0.056400;0.178360;,
  0.339190;0.223640;,
  0.339650;0.016780;,
  0.056750;0.023220;,
  0.350600;0.212380;,
  0.054920;0.212380;,
  0.054920;0.040660;,
  0.350600;0.040660;,
  0.056010;0.239120;,
  0.340340;0.207690;,
  0.340350;0.053330;,
  0.056030;0.033310;,
  0.575930;0.101840;,
  0.575930;0.498090;,
  0.575930;0.101840;,
  0.927910;0.278020;,
  0.927910;0.096680;,
  0.959980;0.096680;,
  0.959980;0.278020;,
  0.571590;0.496660;,
  0.571590;0.099200;,
  0.898520;0.099200;,
  0.898520;0.496660;,
  0.898520;0.715970;,
  0.898520;0.496660;,
  0.898520;0.715970;,
  0.571590;0.715970;,
  0.571590;0.715970;,
  0.571590;0.496660;,
  0.571590;0.496750;,
  0.898520;0.496750;,
  0.898520;0.678350;,
  0.571590;0.678350;,
  0.538960;0.264650;,
  0.538960;0.667600;,
  0.530200;0.655540;,
  0.530200;0.276700;,
  0.050840;0.667600;,
  0.063800;0.655540;,
  0.050840;0.264650;,
  0.063800;0.276700;,
  0.907530;0.680090;,
  0.906440;0.991800;,
  0.949900;0.400700;,
  0.955430;0.284550;,
  0.958050;0.284290;,
  0.952170;0.401490;,
  0.922890;0.399140;,
  0.950550;0.401640;,
  0.922150;0.400010;,
  0.003270;0.991780;,
  0.003270;0.678480;,
  0.986960;0.447760;,
  0.912900;0.447760;,
  0.950980;0.282370;,
  0.945460;0.398520;,
  0.947720;0.399300;,
  0.953240;0.283040;,
  0.915770;0.280330;,
  0.918450;0.396960;,
  0.996700;0.993590;,
  0.924320;0.993470;,
  0.955420;0.284630;,
  0.967540;0.029930;,
  0.969860;0.029360;,
  0.958020;0.284460;,
  0.915770;0.280410;,
  0.909960;0.024680;,
  0.907670;0.024050;,
  0.913460;0.281120;,
  0.963100;0.027750;,
  0.950980;0.282450;,
  0.953240;0.283220;,
  0.965420;0.027190;,
  0.927400;0.340120;,
  0.998170;0.340080;,
  0.999070;0.343200;,
  0.926480;0.343200;,
  0.902070;0.100230;,
  0.902070;0.495630;,
  0.754270;0.026800;,
  0.618200;0.027830;,
  0.614220;0.011380;,
  0.754230;0.010830;,
  0.902070;0.495900;,
  0.902620;0.675860;,
  0.898520;0.678350;,
  0.917940;0.371090;,
  0.917940;0.116040;,
  0.941400;0.116040;,
  0.959350;0.371090;,
  0.059630;0.038540;,
  0.461360;0.038540;,
  0.461360;0.038540;,
  0.059630;0.038540;,
  0.059630;0.230720;,
  0.059630;0.230720;,
  0.461360;0.230720;,
  0.461360;0.230720;,
  0.109890;0.313340;,
  0.064960;0.278190;,
  0.528430;0.278190;,
  0.064960;0.649120;,
  0.479840;0.316940;,
  0.528430;0.649120;,
  0.481290;0.609750;,
  0.112330;0.607550;,
  0.912230;0.680090;,
  0.912220;0.991820;,
  0.949900;0.400700;,
  0.955430;0.284550;,
  0.912930;0.023170;,
  0.987010;0.023170;,
  0.988710;0.025870;,
  0.911110;0.025870;,
  0.922890;0.399140;,
  0.920210;0.282510;,
  0.914400;0.026860;,
  0.920210;0.282590;,
  0.920210;0.282590;,
  0.914400;0.026860;,
  0.967540;0.029930;,
  0.955420;0.284630;,
  0.994230;0.127050;,
  0.994230;0.860740;,
  0.005380;0.860740;,
  0.005380;0.127050;;
 }
}
