%YAML 1.1
%TAG !u! tag:unity3d.com,2011:
--- !u!21 &2100000
Material:
  serializedVersion: 3
  m_ObjectHideFlags: 0
  m_PrefabParentObject: {fileID: 0}
  m_PrefabInternal: {fileID: 0}
  m_Name: 12_hair01
  m_Shader: {fileID: 4800000, guid: abcfd592b4a256944bd49d07ea0e7a04, type: 3}
  m_ShaderKeywords: []
  m_SavedProperties:
    serializedVersion: 2
    m_TexEnvs:
      data:
        first:
          name: _MainTex
        second:
          m_Texture: {fileID: 2800000, guid: f2672c4455b970e41af49bf29df52f3d, type: 3}
          m_Scale: {x: 1, y: -1}
          m_Offset: {x: 0, y: 0}
      data:
        first:
          name: _ToonTex
        second:
          m_Texture: {fileID: 0}
          m_Scale: {x: 1, y: 1}
          m_Offset: {x: 0, y: 0}
      data:
        first:
          name: _SphereAddTex
        second:
          m_Texture: {fileID: 2800000, guid: 2b219d3a4aa2e144d9de5bb271f380f6, type: 3}
          m_Scale: {x: 1, y: -1}
          m_Offset: {x: 0, y: 0}
      data:
        first:
          name: _SphereMulTex
        second:
          m_Texture: {fileID: 0}
          m_Scale: {x: 1, y: 1}
          m_Offset: {x: 0, y: 0}
    m_Floats:
      data:
        first:
          name: _Shininess
        second: 50
      data:
        first:
          name: _Opacity
        second: 1
    m_Colors:
      data:
        first:
          name: _Color
        second: {r: 1, g: 1, b: 1, a: 1}
      data:
        first:
          name: _SpecularColor
        second: {r: 0, g: 0, b: 0, a: 1}
      data:
        first:
          name: _AmbColor
        second: {r: .5, g: .5, b: .5, a: 1}
