xof 0302txt 0064
template Header {
 <3D82AB43-62DA-11cf-AB39-0020AF71E433>
 WORD major;
 WORD minor;
 DWORD flags;
}

template Vector {
 <3D82AB5E-62DA-11cf-AB39-0020AF71E433>
 FLOAT x;
 FLOAT y;
 FLOAT z;
}

template Coords2d {
 <F6F23F44-7686-11cf-8F52-0040333594A3>
 FLOAT u;
 FLOAT v;
}

template Matrix4x4 {
 <F6F23F45-7686-11cf-8F52-0040333594A3>
 array FLOAT matrix[16];
}

template ColorRGBA {
 <35FF44E0-6C7C-11cf-8F52-0040333594A3>
 FLOAT red;
 FLOAT green;
 FLOAT blue;
 FLOAT alpha;
}

template ColorRGB {
 <D3E16E81-7835-11cf-8F52-0040333594A3>
 FLOAT red;
 FLOAT green;
 FLOAT blue;
}

template IndexedColor {
 <1630B820-7842-11cf-8F52-0040333594A3>
 DWORD index;
 ColorRGBA indexColor;
}

template Boolean {
 <4885AE61-78E8-11cf-8F52-0040333594A3>
 WORD truefalse;
}

template Boolean2d {
 <4885AE63-78E8-11cf-8F52-0040333594A3>
 Boolean u;
 Boolean v;
}

template MaterialWrap {
 <4885AE60-78E8-11cf-8F52-0040333594A3>
 Boolean u;
 Boolean v;
}

template TextureFilename {
 <A42790E1-7810-11cf-8F52-0040333594A3>
 STRING filename;
}

template Material {
 <3D82AB4D-62DA-11cf-AB39-0020AF71E433>
 ColorRGBA faceColor;
 FLOAT power;
 ColorRGB specularColor;
 ColorRGB emissiveColor;
 [...]
}

template MeshFace {
 <3D82AB5F-62DA-11cf-AB39-0020AF71E433>
 DWORD nFaceVertexIndices;
 array DWORD faceVertexIndices[nFaceVertexIndices];
}

template MeshFaceWraps {
 <4885AE62-78E8-11cf-8F52-0040333594A3>
 DWORD nFaceWrapValues;
 Boolean2d faceWrapValues;
}

template MeshTextureCoords {
 <F6F23F40-7686-11cf-8F52-0040333594A3>
 DWORD nTextureCoords;
 array Coords2d textureCoords[nTextureCoords];
}

template MeshMaterialList {
 <F6F23F42-7686-11cf-8F52-0040333594A3>
 DWORD nMaterials;
 DWORD nFaceIndexes;
 array DWORD faceIndexes[nFaceIndexes];
 [Material]
}

template MeshNormals {
 <F6F23F43-7686-11cf-8F52-0040333594A3>
 DWORD nNormals;
 array Vector normals[nNormals];
 DWORD nFaceNormals;
 array MeshFace faceNormals[nFaceNormals];
}

template MeshVertexColors {
 <1630B821-7842-11cf-8F52-0040333594A3>
 DWORD nVertexColors;
 array IndexedColor vertexColors[nVertexColors];
}

template Mesh {
 <3D82AB44-62DA-11cf-AB39-0020AF71E433>
 DWORD nVertices;
 array Vector vertices[nVertices];
 DWORD nFaces;
 array MeshFace faces[nFaces];
 [...]
}

Header{
1;
0;
1;
}

Mesh {
 133;
 0.00000;0.14021;-0.11547;,
 0.06787;0.14021;-0.09342;,
 0.07346;0.13884;-0.10112;,
 0.00000;0.13884;-0.12498;,
 0.10982;0.14021;-0.03568;,
 0.11887;0.13884;-0.03862;,
 0.10982;0.14021;0.03568;,
 0.11887;0.13884;0.03862;,
 0.06787;0.14021;0.09342;,
 0.07346;0.13884;0.10112;,
 0.00000;0.14021;0.11547;,
 0.00000;0.13884;0.12498;,
 -0.06787;0.14021;0.09342;,
 -0.07346;0.13884;0.10112;,
 -0.10982;0.14021;0.03568;,
 -0.11887;0.13884;0.03862;,
 -0.10982;0.14021;-0.03568;,
 -0.11887;0.13884;-0.03862;,
 -0.06787;0.14021;-0.09342;,
 -0.07346;0.13884;-0.10112;,
 0.06787;0.09101;-0.09342;,
 0.00000;0.09101;-0.11547;,
 0.10982;0.09101;-0.03568;,
 0.10982;0.09101;0.03568;,
 0.06787;0.09101;0.09342;,
 0.00000;0.09101;0.11547;,
 -0.06787;0.09101;0.09342;,
 -0.10982;0.09101;0.03568;,
 -0.10982;0.09101;-0.03568;,
 -0.06787;0.09101;-0.09342;,
 0.05195;0.05046;-0.07150;,
 0.00000;0.05046;-0.08838;,
 0.08405;0.05046;-0.02731;,
 0.08405;0.05046;0.02731;,
 0.05195;0.05046;0.07150;,
 0.00000;0.05046;0.08838;,
 -0.05195;0.05046;0.07150;,
 -0.08405;0.05046;0.02731;,
 -0.08405;0.05046;-0.02731;,
 -0.05195;0.05046;-0.07150;,
 0.02811;0.02337;-0.03870;,
 0.00000;0.02337;-0.04783;,
 0.04549;0.02337;-0.01478;,
 0.04549;0.02337;0.01478;,
 0.02811;0.02337;0.03870;,
 0.00000;0.02337;0.04783;,
 -0.02811;0.02337;0.03870;,
 -0.04549;0.02337;0.01478;,
 -0.04549;0.02337;-0.01478;,
 -0.02811;0.02337;-0.03870;,
 0.03129;0.00396;-0.04307;,
 0.00000;0.00396;-0.05324;,
 0.00000;0.00396;-0.05324;,
 0.03129;0.00396;-0.04307;,
 0.00000;0.00395;0.00000;,
 0.05064;0.00396;-0.01645;,
 0.05064;0.00396;-0.01645;,
 0.05064;0.00396;0.01645;,
 0.05064;0.00396;0.01645;,
 0.03129;0.00396;0.04307;,
 0.03129;0.00396;0.04307;,
 0.00000;0.00396;0.05324;,
 0.00000;0.00396;0.05324;,
 -0.03129;0.00396;0.04307;,
 -0.03129;0.00396;0.04307;,
 -0.05064;0.00396;0.01645;,
 -0.05064;0.00396;0.01645;,
 -0.05064;0.00396;-0.01645;,
 -0.05064;0.00396;-0.01645;,
 -0.03129;0.00396;-0.04307;,
 -0.03129;0.00396;-0.04307;,
 0.00000;0.05385;0.00000;,
 0.04188;0.06564;-0.05764;,
 0.00000;0.06564;-0.07125;,
 0.06776;0.06564;-0.02202;,
 0.06776;0.06564;0.02202;,
 0.04188;0.06564;0.05764;,
 0.00000;0.06564;0.07125;,
 -0.04188;0.06564;0.05764;,
 -0.06776;0.06564;0.02202;,
 -0.06776;0.06564;-0.02202;,
 -0.04188;0.06564;-0.05764;,
 0.05881;0.08991;-0.08094;,
 0.00000;0.08991;-0.10005;,
 0.09515;0.08991;-0.03092;,
 0.09515;0.08991;0.03092;,
 0.05881;0.08991;0.08094;,
 0.00000;0.08991;0.10005;,
 -0.05881;0.08991;0.08094;,
 -0.09515;0.08991;0.03092;,
 -0.09515;0.08991;-0.03092;,
 -0.05881;0.08991;-0.08094;,
 0.00000;0.11757;-0.11199;,
 0.06582;0.11757;-0.09060;,
 0.06787;0.14021;-0.09342;,
 0.00000;0.14021;-0.11547;,
 0.10651;0.11757;-0.03461;,
 0.10982;0.14021;-0.03568;,
 0.10651;0.11757;0.03461;,
 0.10982;0.14021;0.03568;,
 0.06582;0.11757;0.09060;,
 0.06787;0.14021;0.09342;,
 0.00000;0.11757;0.11199;,
 0.00000;0.14021;0.11547;,
 -0.06582;0.11757;0.09060;,
 -0.06787;0.14021;0.09342;,
 -0.10651;0.11757;0.03461;,
 -0.10982;0.14021;0.03568;,
 -0.10651;0.11757;-0.03461;,
 -0.10982;0.14021;-0.03568;,
 -0.06582;0.11757;-0.09060;,
 -0.06787;0.14021;-0.09342;,
 -0.00002;0.15481;-0.07784;,
 0.00000;0.18610;0.00000;,
 0.04577;0.15473;-0.06311;,
 0.06896;0.12542;-0.09491;,
 0.00000;0.12542;-0.11732;,
 0.07429;0.15461;-0.02424;,
 0.11158;0.12542;-0.03625;,
 0.07454;0.15448;0.02413;,
 0.11158;0.12542;0.03625;,
 0.04616;0.15439;0.06346;,
 0.06896;0.12542;0.09491;,
 -0.00002;0.15438;0.07849;,
 0.00000;0.12542;0.11732;,
 -0.04612;0.15446;0.06336;,
 -0.06896;0.12542;0.09491;,
 -0.07439;0.15458;0.02407;,
 -0.11158;0.12542;0.03625;,
 -0.07414;0.15471;-0.02417;,
 -0.11158;0.12542;-0.03625;,
 -0.04573;0.15480;-0.06301;,
 -0.06896;0.12542;-0.09491;;
 
 120;
 4;0,1,2,3;,
 4;1,4,5,2;,
 4;4,6,7,5;,
 4;6,8,9,7;,
 4;8,10,11,9;,
 4;10,12,13,11;,
 4;12,14,15,13;,
 4;14,16,17,15;,
 4;16,18,19,17;,
 4;18,0,3,19;,
 4;3,2,20,21;,
 4;2,5,22,20;,
 4;5,7,23,22;,
 4;7,9,24,23;,
 4;9,11,25,24;,
 4;11,13,26,25;,
 4;13,15,27,26;,
 4;15,17,28,27;,
 4;17,19,29,28;,
 4;19,3,21,29;,
 4;21,20,30,31;,
 4;20,22,32,30;,
 4;22,23,33,32;,
 4;23,24,34,33;,
 4;24,25,35,34;,
 4;25,26,36,35;,
 4;26,27,37,36;,
 4;27,28,38,37;,
 4;28,29,39,38;,
 4;29,21,31,39;,
 4;31,30,40,41;,
 4;30,32,42,40;,
 4;32,33,43,42;,
 4;33,34,44,43;,
 4;34,35,45,44;,
 4;35,36,46,45;,
 4;36,37,47,46;,
 4;37,38,48,47;,
 4;38,39,49,48;,
 4;39,31,41,49;,
 4;50,51,41,40;,
 3;52,53,54;,
 4;55,50,40,42;,
 3;53,56,54;,
 4;57,55,42,43;,
 3;56,58,54;,
 4;59,57,43,44;,
 3;58,60,54;,
 4;61,59,44,45;,
 3;60,62,54;,
 4;63,61,45,46;,
 3;62,64,54;,
 4;65,63,46,47;,
 3;64,66,54;,
 4;67,65,47,48;,
 3;66,68,54;,
 4;69,67,48,49;,
 3;68,70,54;,
 4;51,69,49,41;,
 3;70,52,54;,
 3;71,72,73;,
 3;71,74,72;,
 3;71,75,74;,
 3;71,76,75;,
 3;71,77,76;,
 3;71,78,77;,
 3;71,79,78;,
 3;71,80,79;,
 3;71,81,80;,
 3;71,73,81;,
 4;73,72,82,83;,
 4;72,74,84,82;,
 4;74,75,85,84;,
 4;75,76,86,85;,
 4;76,77,87,86;,
 4;77,78,88,87;,
 4;78,79,89,88;,
 4;79,80,90,89;,
 4;80,81,91,90;,
 4;81,73,83,91;,
 4;92,93,94,95;,
 4;83,82,93,92;,
 4;93,96,97,94;,
 4;82,84,96,93;,
 4;96,98,99,97;,
 4;84,85,98,96;,
 4;98,100,101,99;,
 4;85,86,100,98;,
 4;100,102,103,101;,
 4;86,87,102,100;,
 4;102,104,105,103;,
 4;87,88,104,102;,
 4;104,106,107,105;,
 4;88,89,106,104;,
 4;106,108,109,107;,
 4;89,90,108,106;,
 4;108,110,111,109;,
 4;90,91,110,108;,
 4;110,92,95,111;,
 4;91,83,92,110;,
 3;112,113,114;,
 4;112,114,115,116;,
 3;114,113,117;,
 4;114,117,118,115;,
 3;117,113,119;,
 4;117,119,120,118;,
 3;119,113,121;,
 4;119,121,122,120;,
 3;121,113,123;,
 4;121,123,124,122;,
 3;123,113,125;,
 4;123,125,126,124;,
 3;125,113,127;,
 4;125,127,128,126;,
 3;127,113,129;,
 4;127,129,130,128;,
 3;129,113,131;,
 4;129,131,132,130;,
 3;131,113,112;,
 4;131,112,116,132;;
 
 MeshMaterialList {
  8;
  120;
  6,
  6,
  6,
  6,
  6,
  6,
  6,
  6,
  6,
  6,
  6,
  6,
  6,
  6,
  6,
  6,
  6,
  6,
  6,
  6,
  6,
  6,
  6,
  6,
  6,
  6,
  6,
  6,
  6,
  6,
  6,
  6,
  6,
  6,
  6,
  6,
  6,
  6,
  6,
  6,
  6,
  6,
  6,
  6,
  6,
  6,
  6,
  6,
  6,
  6,
  6,
  6,
  6,
  6,
  6,
  6,
  6,
  6,
  6,
  6,
  6,
  6,
  6,
  6,
  6,
  6,
  6,
  6,
  6,
  6,
  6,
  6,
  6,
  6,
  6,
  6,
  6,
  6,
  6,
  6,
  6,
  6,
  6,
  6,
  6,
  6,
  6,
  6,
  6,
  6,
  6,
  6,
  6,
  6,
  6,
  6,
  6,
  6,
  6,
  6,
  5,
  5,
  5,
  5,
  5,
  5,
  5,
  5,
  5,
  5,
  5,
  5,
  5,
  5,
  5,
  5,
  5,
  5,
  5,
  5;;
  Material {
   0.800000;0.800000;0.800000;1.000000;;
   5.000000;
   0.000000;0.000000;0.000000;;
   0.000000;0.000000;0.000000;;
   TextureFilename {
    "iztex01.png";
   }
  }
  Material {
   0.668000;0.633600;0.351200;1.000000;;
   5.000000;
   0.000000;0.000000;0.000000;;
   0.258850;0.245520;0.136090;;
   TextureFilename {
    "iztex01.png";
   }
  }
  Material {
   0.298400;0.125600;0.112800;1.000000;;
   18.000000;
   0.200000;0.200000;0.200000;;
   0.134280;0.056520;0.050760;;
   TextureFilename {
    "iztex01.png";
   }
  }
  Material {
   0.061410;0.011730;0.011730;1.000000;;
   30.000000;
   0.300000;0.300000;0.300000;;
   0.000000;0.000000;0.000000;;
   TextureFilename {
    "iztex01.png";
   }
  }
  Material {
   0.800000;0.166400;0.000000;1.000000;;
   5.000000;
   0.450000;0.450000;0.450000;;
   0.000000;0.000000;0.000000;;
   TextureFilename {
    "iztex01.png";
   }
  }
  Material {
   0.800000;0.800000;0.800000;1.000000;;
   5.000000;
   0.100000;0.100000;0.100000;;
   0.390000;0.390000;0.390000;;
   TextureFilename {
    "iztex01.png";
   }
  }
  Material {
   0.800000;0.800000;0.800000;1.000000;;
   26.000000;
   0.410000;0.410000;0.410000;;
   0.400000;0.400000;0.400000;;
   TextureFilename {
    "iztex01.png";
   }
  }
  Material {
   0.800000;0.800000;0.800000;0.300000;;
   54.000000;
   0.710000;0.710000;0.710000;;
   0.750000;0.750000;0.750000;;
   TextureFilename {
    "iztex01.png";
   }
  }
 }
 MeshNormals {
  113;
  0.000000;0.817407;0.576061;,
  -0.338603;0.817404;0.466046;,
  -0.547867;0.817406;0.178017;,
  -0.547867;0.817406;-0.178017;,
  -0.338603;0.817404;-0.466046;,
  0.000000;0.817407;-0.576061;,
  0.338603;0.817404;-0.466046;,
  0.547867;0.817406;-0.178017;,
  0.547867;0.817406;0.178017;,
  0.338603;0.817404;0.466046;,
  0.000000;0.597790;-0.801653;,
  0.471201;0.597789;-0.648550;,
  0.762418;0.597790;-0.247721;,
  0.762418;0.597790;0.247721;,
  0.471201;0.597789;0.648550;,
  0.000000;0.597790;0.801653;,
  -0.471201;0.597789;0.648550;,
  -0.762418;0.597790;0.247721;,
  -0.762418;0.597790;-0.247721;,
  -0.471201;0.597789;-0.648550;,
  0.000000;-0.383893;-0.923378;,
  0.542750;-0.383894;-0.747026;,
  0.878185;-0.383892;-0.285338;,
  0.878185;-0.383892;0.285338;,
  0.542750;-0.383894;0.747026;,
  0.000000;-0.383893;0.923378;,
  -0.542750;-0.383894;0.747026;,
  -0.878185;-0.383892;0.285338;,
  -0.878185;-0.383892;-0.285338;,
  -0.542750;-0.383894;-0.747026;,
  0.000000;-0.708458;-0.705753;,
  0.414833;-0.708458;-0.570964;,
  0.671213;-0.708457;-0.218087;,
  0.671213;-0.708457;0.218087;,
  0.414833;-0.708458;0.570964;,
  0.000000;-0.708458;0.705753;,
  -0.414833;-0.708458;0.570964;,
  -0.671213;-0.708457;0.218087;,
  -0.671213;-0.708457;-0.218087;,
  -0.414833;-0.708458;-0.570964;,
  0.000000;-0.357895;-0.933762;,
  0.548851;-0.357896;-0.755429;,
  0.888059;-0.357900;-0.288545;,
  0.888059;-0.357900;0.288545;,
  0.548851;-0.357896;0.755429;,
  0.000000;-0.357895;0.933762;,
  -0.548851;-0.357896;0.755429;,
  -0.888059;-0.357900;0.288545;,
  -0.888059;-0.357900;-0.288545;,
  -0.548851;-0.357896;-0.755429;,
  -0.000000;-0.628846;-0.777530;,
  0.457020;-0.628846;-0.629035;,
  0.739470;-0.628853;-0.240268;,
  0.739470;-0.628853;0.240268;,
  0.457020;-0.628846;0.629035;,
  -0.000000;-0.628846;0.777530;,
  -0.457020;-0.628846;0.629035;,
  -0.739470;-0.628853;0.240268;,
  -0.739470;-0.628853;-0.240268;,
  -0.457020;-0.628846;-0.629035;,
  0.000000;-1.000000;-0.000000;,
  -0.000000;1.000000;0.000000;,
  0.000000;0.909222;0.416313;,
  -0.244704;0.909221;0.336804;,
  -0.395935;0.909222;0.128648;,
  -0.395935;0.909222;-0.128648;,
  -0.244704;0.909221;-0.336804;,
  0.000000;0.909222;-0.416313;,
  0.244704;0.909221;-0.336804;,
  0.395935;0.909222;-0.128648;,
  0.395935;0.909222;0.128648;,
  0.244704;0.909221;0.336804;,
  0.000000;0.598444;0.801165;,
  -0.470916;0.598442;0.648156;,
  -0.761951;0.598446;0.247574;,
  -0.761951;0.598446;-0.247574;,
  -0.470916;0.598442;-0.648156;,
  0.000000;0.598444;-0.801165;,
  0.470916;0.598442;-0.648156;,
  0.761951;0.598446;-0.247574;,
  0.761951;0.598446;0.247574;,
  0.470916;0.598442;0.648156;,
  0.000000;0.276841;0.960916;,
  -0.564814;0.276838;0.777397;,
  -0.913886;0.276836;0.296942;,
  -0.913886;0.276836;-0.296942;,
  -0.564814;0.276838;-0.777397;,
  0.000000;0.276841;-0.960916;,
  0.564814;0.276838;-0.777397;,
  0.913886;0.276836;-0.296942;,
  0.913886;0.276836;0.296942;,
  0.564814;0.276838;0.777397;,
  0.000192;1.000000;0.000775;,
  -0.000109;0.802079;-0.597218;,
  0.350791;0.802048;-0.483388;,
  0.568103;0.801891;-0.185010;,
  0.568473;0.801793;0.184302;,
  0.351397;0.801781;0.483392;,
  -0.000112;0.801747;0.597663;,
  -0.351478;0.801831;0.483250;,
  -0.568240;0.801983;0.184189;,
  -0.567898;0.802061;-0.184906;,
  -0.350896;0.802084;-0.483253;,
  0.287286;0.872467;-0.395307;,
  0.000026;0.872555;-0.488515;,
  0.465116;0.872273;-0.151018;,
  0.465370;0.872092;0.151281;,
  0.287701;0.871993;0.396051;,
  0.000028;0.871968;0.489563;,
  -0.287572;0.872082;0.395948;,
  -0.465061;0.872271;0.151200;,
  -0.464821;0.872444;-0.150941;,
  -0.287173;0.872549;-0.395209;;
  120;
  4;0,1,11,10;,
  4;1,2,12,11;,
  4;2,3,13,12;,
  4;3,4,14,13;,
  4;4,5,15,14;,
  4;5,6,16,15;,
  4;6,7,17,16;,
  4;7,8,18,17;,
  4;8,9,19,18;,
  4;9,0,10,19;,
  4;10,11,21,20;,
  4;11,12,22,21;,
  4;12,13,23,22;,
  4;13,14,24,23;,
  4;14,15,25,24;,
  4;15,16,26,25;,
  4;16,17,27,26;,
  4;17,18,28,27;,
  4;18,19,29,28;,
  4;19,10,20,29;,
  4;20,21,31,30;,
  4;21,22,32,31;,
  4;22,23,33,32;,
  4;23,24,34,33;,
  4;24,25,35,34;,
  4;25,26,36,35;,
  4;26,27,37,36;,
  4;27,28,38,37;,
  4;28,29,39,38;,
  4;29,20,30,39;,
  4;30,31,41,40;,
  4;31,32,42,41;,
  4;32,33,43,42;,
  4;33,34,44,43;,
  4;34,35,45,44;,
  4;35,36,46,45;,
  4;36,37,47,46;,
  4;37,38,48,47;,
  4;38,39,49,48;,
  4;39,30,40,49;,
  4;51,50,40,41;,
  3;50,51,60;,
  4;52,51,41,42;,
  3;51,52,60;,
  4;53,52,42,43;,
  3;52,53,60;,
  4;54,53,43,44;,
  3;53,54,60;,
  4;55,54,44,45;,
  3;54,55,60;,
  4;56,55,45,46;,
  3;55,56,60;,
  4;57,56,46,47;,
  3;56,57,60;,
  4;58,57,47,48;,
  3;57,58,60;,
  4;59,58,48,49;,
  3;58,59,60;,
  4;50,59,49,40;,
  3;59,50,60;,
  3;61,63,62;,
  3;61,64,63;,
  3;61,65,64;,
  3;61,66,65;,
  3;61,67,66;,
  3;61,68,67;,
  3;61,69,68;,
  3;61,70,69;,
  3;61,71,70;,
  3;61,62,71;,
  4;62,63,73,72;,
  4;63,64,74,73;,
  4;64,65,75,74;,
  4;65,66,76,75;,
  4;66,67,77,76;,
  4;67,68,78,77;,
  4;68,69,79,78;,
  4;69,70,80,79;,
  4;70,71,81,80;,
  4;71,62,72,81;,
  4;82,83,1,0;,
  4;72,73,83,82;,
  4;83,84,2,1;,
  4;73,74,84,83;,
  4;84,85,3,2;,
  4;74,75,85,84;,
  4;85,86,4,3;,
  4;75,76,86,85;,
  4;86,87,5,4;,
  4;76,77,87,86;,
  4;87,88,6,5;,
  4;77,78,88,87;,
  4;88,89,7,6;,
  4;78,79,89,88;,
  4;89,90,8,7;,
  4;79,80,90,89;,
  4;90,91,9,8;,
  4;80,81,91,90;,
  4;91,82,0,9;,
  4;81,72,82,91;,
  3;104,92,103;,
  4;104,103,94,93;,
  3;103,92,105;,
  4;103,105,95,94;,
  3;105,92,106;,
  4;105,106,96,95;,
  3;106,92,107;,
  4;106,107,97,96;,
  3;107,92,108;,
  4;107,108,98,97;,
  3;108,92,109;,
  4;108,109,99,98;,
  3;109,92,110;,
  4;109,110,100,99;,
  3;110,92,111;,
  4;110,111,101,100;,
  3;111,92,112;,
  4;111,112,102,101;,
  3;112,92,104;,
  4;112,104,93,102;;
 }
 MeshTextureCoords {
  133;
  0.911089;0.851241;,
  0.910369;0.814263;,
  0.911322;0.809773;,
  0.912102;0.849797;,
  0.909117;0.798100;,
  0.909967;0.792279;,
  0.907811;0.808926;,
  0.908554;0.803997;,
  0.906951;0.842606;,
  0.907623;0.840451;,
  0.906865;0.886275;,
  0.907529;0.887718;,
  0.907585;0.923252;,
  0.908309;0.927743;,
  0.908837;0.939415;,
  0.909664;0.945236;,
  0.910143;0.928589;,
  0.911077;0.933518;,
  0.911003;0.894909;,
  0.912008;0.897064;,
  0.940521;0.814263;,
  0.941242;0.851241;,
  0.939269;0.798100;,
  0.937964;0.808926;,
  0.937104;0.842606;,
  0.937017;0.886275;,
  0.937738;0.923252;,
  0.938990;0.939415;,
  0.940295;0.928589;,
  0.941155;0.894909;,
  0.965045;0.827049;,
  0.965597;0.855351;,
  0.964087;0.814679;,
  0.963088;0.822965;,
  0.962430;0.848742;,
  0.962363;0.882164;,
  0.962915;0.910466;,
  0.963873;0.922836;,
  0.964872;0.914550;,
  0.965531;0.888774;,
  0.981161;0.846185;,
  0.981459;0.861502;,
  0.980642;0.839490;,
  0.980102;0.843974;,
  0.979745;0.857925;,
  0.979710;0.876013;,
  0.980008;0.891330;,
  0.980527;0.898025;,
  0.981067;0.893541;,
  0.981424;0.879590;,
  0.993121;0.843631;,
  0.993453;0.860681;,
  0.950228;0.621840;,
  0.959992;0.621650;,
  0.945602;0.621286;,
  0.992544;0.836179;,
  0.964260;0.621320;,
  0.991942;0.841170;,
  0.961401;0.620975;,
  0.991545;0.856699;,
  0.952508;0.620748;,
  0.991506;0.876834;,
  0.940977;0.620725;,
  0.991838;0.893884;,
  0.931212;0.620915;,
  0.992415;0.901337;,
  0.926944;0.621246;,
  0.993017;0.896345;,
  0.929803;0.621590;,
  0.993413;0.880816;,
  0.938697;0.621818;,
  0.945602;0.603772;,
  0.964859;0.600124;,
  0.951792;0.600379;,
  0.970570;0.599682;,
  0.966744;0.599221;,
  0.954843;0.598917;,
  0.939412;0.598886;,
  0.926346;0.599141;,
  0.920635;0.599583;,
  0.924460;0.600044;,
  0.936361;0.600348;,
  0.972643;0.591805;,
  0.954294;0.592162;,
  0.980663;0.591184;,
  0.975291;0.590536;,
  0.958579;0.590109;,
  0.936910;0.590066;,
  0.918562;0.590424;,
  0.910542;0.591045;,
  0.915914;0.591693;,
  0.932626;0.592119;,
  0.955332;0.582579;,
  0.975870;0.582179;,
  0.976811;0.574258;,
  0.955634;0.574671;,
  0.984847;0.581484;,
  0.986068;0.573541;,
  0.978834;0.580759;,
  0.979868;0.572793;,
  0.960128;0.580281;,
  0.960579;0.572301;,
  0.935873;0.580233;,
  0.935570;0.572251;,
  0.915335;0.580633;,
  0.914393;0.572664;,
  0.906357;0.581329;,
  0.905137;0.573381;,
  0.912370;0.582054;,
  0.911337;0.574128;,
  0.931077;0.582531;,
  0.930625;0.574621;,
  0.809573;0.731337;,
  0.818617;0.661554;,
  0.855470;0.722967;,
  0.870711;0.750175;,
  0.805725;0.759720;,
  0.887551;0.690761;,
  0.913860;0.704803;,
  0.893423;0.646788;,
  0.913410;0.640216;,
  0.870636;0.607886;,
  0.888076;0.591921;,
  0.827137;0.596893;,
  0.832409;0.568485;,
  0.781565;0.597842;,
  0.774944;0.579978;,
  0.749684;0.630472;,
  0.733844;0.629248;,
  0.744312;0.674371;,
  0.721301;0.680292;,
  0.767198;0.712823;,
  0.741164;0.731162;;
 }
}
