xof 0302txt 0064
template Header {
 <3D82AB43-62DA-11cf-AB39-0020AF71E433>
 WORD major;
 WORD minor;
 DWORD flags;
}

template Vector {
 <3D82AB5E-62DA-11cf-AB39-0020AF71E433>
 FLOAT x;
 FLOAT y;
 FLOAT z;
}

template Coords2d {
 <F6F23F44-7686-11cf-8F52-0040333594A3>
 FLOAT u;
 FLOAT v;
}

template Matrix4x4 {
 <F6F23F45-7686-11cf-8F52-0040333594A3>
 array FLOAT matrix[16];
}

template ColorRGBA {
 <35FF44E0-6C7C-11cf-8F52-0040333594A3>
 FLOAT red;
 FLOAT green;
 FLOAT blue;
 FLOAT alpha;
}

template ColorRGB {
 <D3E16E81-7835-11cf-8F52-0040333594A3>
 FLOAT red;
 FLOAT green;
 FLOAT blue;
}

template IndexedColor {
 <1630B820-7842-11cf-8F52-0040333594A3>
 DWORD index;
 ColorRGBA indexColor;
}

template Boolean {
 <4885AE61-78E8-11cf-8F52-0040333594A3>
 WORD truefalse;
}

template Boolean2d {
 <4885AE63-78E8-11cf-8F52-0040333594A3>
 Boolean u;
 Boolean v;
}

template MaterialWrap {
 <4885AE60-78E8-11cf-8F52-0040333594A3>
 Boolean u;
 Boolean v;
}

template TextureFilename {
 <A42790E1-7810-11cf-8F52-0040333594A3>
 STRING filename;
}

template Material {
 <3D82AB4D-62DA-11cf-AB39-0020AF71E433>
 ColorRGBA faceColor;
 FLOAT power;
 ColorRGB specularColor;
 ColorRGB emissiveColor;
 [...]
}

template MeshFace {
 <3D82AB5F-62DA-11cf-AB39-0020AF71E433>
 DWORD nFaceVertexIndices;
 array DWORD faceVertexIndices[nFaceVertexIndices];
}

template MeshFaceWraps {
 <4885AE62-78E8-11cf-8F52-0040333594A3>
 DWORD nFaceWrapValues;
 Boolean2d faceWrapValues;
}

template MeshTextureCoords {
 <F6F23F40-7686-11cf-8F52-0040333594A3>
 DWORD nTextureCoords;
 array Coords2d textureCoords[nTextureCoords];
}

template MeshMaterialList {
 <F6F23F42-7686-11cf-8F52-0040333594A3>
 DWORD nMaterials;
 DWORD nFaceIndexes;
 array DWORD faceIndexes[nFaceIndexes];
 [Material]
}

template MeshNormals {
 <F6F23F43-7686-11cf-8F52-0040333594A3>
 DWORD nNormals;
 array Vector normals[nNormals];
 DWORD nFaceNormals;
 array MeshFace faceNormals[nFaceNormals];
}

template MeshVertexColors {
 <1630B821-7842-11cf-8F52-0040333594A3>
 DWORD nVertexColors;
 array IndexedColor vertexColors[nVertexColors];
}

template Mesh {
 <3D82AB44-62DA-11cf-AB39-0020AF71E433>
 DWORD nVertices;
 array Vector vertices[nVertices];
 DWORD nFaces;
 array MeshFace faces[nFaces];
 [...]
}

Header{
1;
0;
1;
}

Mesh {
 38;
 -0.02975;0.01044;-0.17580;,
 -0.02793;0.01044;-0.14735;,
 -0.01767;-0.00106;-0.15639;,
 -0.02068;-0.00106;-0.17359;,
 -0.02218;0.01044;-0.11627;,
 -0.00584;-0.00016;-0.12013;,
 -0.01194;0.01044;-0.07051;,
 0.00406;-0.00106;-0.07519;,
 -0.00464;0.01017;-0.02416;,
 0.01149;0.00101;-0.02590;,
 -0.00525;0.01017;0.01144;,
 0.01017;0.00154;0.00733;,
 -0.00433;0.01097;0.03776;,
 0.00525;-0.00106;0.04222;,
 -0.01319;0.00522;0.05823;,
 -0.00384;-0.00106;0.06289;,
 -0.01133;-0.00086;0.03701;,
 -0.01985;-0.00085;0.05866;,
 -0.01397;0.00074;-0.02572;,
 -0.01199;-0.00027;0.01029;,
 -0.02985;0.00213;-0.11494;,
 -0.02265;0.00089;-0.06816;,
 -0.03741;-0.00005;-0.17358;,
 -0.03734;-0.00106;-0.14502;,
 -0.02956;-0.00751;-0.17584;,
 -0.02774;-0.00751;-0.14739;,
 -0.02199;-0.00751;-0.11631;,
 -0.01175;-0.00751;-0.07055;,
 -0.00445;-0.00733;-0.02420;,
 -0.00505;-0.00733;0.01140;,
 -0.00414;-0.00786;0.03772;,
 -0.01300;-0.00406;0.05819;,
 -0.03019;-0.00106;-0.19409;,
 -0.03537;-0.00053;-0.18939;,
 -0.03971;-0.00015;-0.18190;,
 -0.02682;0.00058;0.08351;,
 -0.02444;0.00273;0.09042;,
 -0.01782;0.00050;0.08664;;
 
 44;
 4;0,1,2,3;,
 4;1,4,5,2;,
 4;4,6,7,5;,
 4;6,8,9,7;,
 4;8,10,11,9;,
 4;10,12,13,11;,
 4;12,14,15,13;,
 4;12,16,17,14;,
 4;8,18,19,10;,
 4;10,19,16,12;,
 4;4,20,21,6;,
 4;6,21,18,8;,
 4;0,22,23,1;,
 4;1,23,20,4;,
 4;24,3,2,25;,
 4;25,2,5,26;,
 4;26,5,7,27;,
 4;27,7,9,28;,
 4;28,9,11,29;,
 4;29,11,13,30;,
 4;30,13,15,31;,
 4;30,31,17,16;,
 4;28,29,19,18;,
 4;29,30,16,19;,
 4;26,27,21,20;,
 4;27,28,18,21;,
 4;24,25,23,22;,
 4;25,26,20,23;,
 3;32,33,0;,
 3;32,0,3;,
 3;34,22,0;,
 3;34,0,33;,
 3;34,33,24;,
 3;34,24,22;,
 3;32,3,24;,
 3;32,24,33;,
 3;35,17,31;,
 3;35,31,36;,
 3;37,36,31;,
 3;37,31,15;,
 3;37,15,14;,
 3;37,14,36;,
 3;35,36,14;,
 3;35,14,17;;
 
 MeshMaterialList {
  8;
  44;
  0,
  0,
  0,
  0,
  0,
  0,
  0,
  0,
  0,
  0,
  0,
  0,
  0,
  0,
  0,
  0,
  0,
  0,
  0,
  0,
  0,
  0,
  0,
  0,
  0,
  0,
  0,
  0,
  0,
  0,
  0,
  0,
  0,
  0,
  0,
  0,
  0,
  0,
  0,
  0,
  0,
  0,
  0,
  0;;
  Material {
   0.800000;0.800000;0.800000;1.000000;;
   5.000000;
   0.000000;0.000000;0.000000;;
   0.000000;0.000000;0.000000;;
   TextureFilename {
    "iztex01.png";
   }
  }
  Material {
   0.668000;0.633600;0.351200;1.000000;;
   5.000000;
   0.000000;0.000000;0.000000;;
   0.258850;0.245520;0.136090;;
   TextureFilename {
    "iztex01.png";
   }
  }
  Material {
   0.298400;0.125600;0.112800;1.000000;;
   18.000000;
   0.200000;0.200000;0.200000;;
   0.134280;0.056520;0.050760;;
   TextureFilename {
    "iztex01.png";
   }
  }
  Material {
   0.061410;0.011730;0.011730;1.000000;;
   30.000000;
   0.300000;0.300000;0.300000;;
   0.000000;0.000000;0.000000;;
   TextureFilename {
    "iztex01.png";
   }
  }
  Material {
   0.800000;0.166400;0.000000;1.000000;;
   5.000000;
   0.450000;0.450000;0.450000;;
   0.000000;0.000000;0.000000;;
   TextureFilename {
    "iztex01.png";
   }
  }
  Material {
   0.800000;0.800000;0.800000;1.000000;;
   5.000000;
   0.100000;0.100000;0.100000;;
   0.390000;0.390000;0.390000;;
   TextureFilename {
    "iztex01.png";
   }
  }
  Material {
   0.800000;0.800000;0.800000;1.000000;;
   26.000000;
   0.410000;0.410000;0.410000;;
   0.400000;0.400000;0.400000;;
   TextureFilename {
    "iztex01.png";
   }
  }
  Material {
   0.800000;0.800000;0.800000;0.300000;;
   54.000000;
   0.710000;0.710000;0.710000;;
   0.750000;0.750000;0.750000;;
   TextureFilename {
    "iztex01.png";
   }
  }
 }
 MeshNormals {
  38;
  -0.783672;-0.087352;-0.615002;,
  -0.228876;0.939996;-0.253029;,
  -0.066801;0.997223;-0.032922;,
  -0.097734;0.995210;-0.002329;,
  -0.095048;0.995297;0.018728;,
  -0.144357;0.989336;0.019392;,
  -0.181283;0.982683;0.038353;,
  -0.158324;0.985386;0.062833;,
  -0.099005;0.994236;0.041131;,
  0.407176;-0.184407;-0.894540;,
  0.949793;-0.136171;-0.281693;,
  0.976866;-0.119136;-0.177595;,
  0.967446;-0.095917;-0.234197;,
  0.980317;-0.079132;-0.180877;,
  0.997783;-0.033474;-0.057519;,
  0.998870;-0.031135;0.035912;,
  0.954350;-0.094464;0.283358;,
  0.845170;-0.128927;0.518716;,
  -0.948468;-0.153267;-0.277342;,
  -0.976741;-0.189698;-0.099953;,
  -0.995174;-0.096563;0.017454;,
  -0.982830;-0.131408;-0.129528;,
  -0.983003;-0.021156;0.182366;,
  -0.993883;-0.058207;0.093853;,
  -0.982872;-0.103940;0.152181;,
  -0.988473;-0.087260;0.123721;,
  -0.979335;-0.030457;0.199939;,
  -0.991811;-0.097211;-0.082827;,
  -0.189857;-0.971898;-0.139168;,
  -0.086023;-0.996282;0.004825;,
  -0.157127;-0.987109;0.030449;,
  -0.151870;-0.988012;0.027710;,
  -0.120848;-0.992296;0.027290;,
  -0.113955;-0.993464;0.006542;,
  -0.114349;-0.993252;0.019358;,
  -0.097781;-0.990300;0.098715;,
  -0.351764;-0.313275;0.882111;,
  0.744795;-0.157526;0.648433;;
  44;
  4;1,2,11,10;,
  4;2,3,12,11;,
  4;3,4,13,12;,
  4;4,5,14,13;,
  4;5,6,15,14;,
  4;6,7,16,15;,
  4;7,8,17,16;,
  4;7,21,18,8;,
  4;5,23,20,6;,
  4;6,20,21,7;,
  4;3,26,22,4;,
  4;4,22,23,5;,
  4;1,24,25,2;,
  4;2,25,26,3;,
  4;28,10,11,29;,
  4;29,11,12,30;,
  4;30,12,13,31;,
  4;31,13,14,32;,
  4;32,14,15,33;,
  4;33,15,16,34;,
  4;34,16,17,35;,
  4;34,35,18,21;,
  4;32,33,20,23;,
  4;33,34,21,20;,
  4;30,31,22,26;,
  4;31,32,23,22;,
  4;28,29,25,24;,
  4;29,30,26,25;,
  3;9,0,1;,
  3;9,1,10;,
  3;27,24,1;,
  3;27,1,0;,
  3;27,0,28;,
  3;27,28,24;,
  3;9,10,28;,
  3;9,28,0;,
  3;19,18,35;,
  3;19,35,36;,
  3;37,36,35;,
  3;37,35,17;,
  3;37,17,8;,
  3;37,8,36;,
  3;19,36,8;,
  3;19,8,18;;
 }
 MeshTextureCoords {
  38;
  0.483960;0.918730;,
  0.506510;0.919630;,
  0.499810;0.930530;,
  0.485600;0.928380;,
  0.529110;0.926570;,
  0.525420;0.942890;,
  0.564480;0.934320;,
  0.559970;0.951740;,
  0.598820;0.942080;,
  0.597550;0.959110;,
  0.624150;0.946250;,
  0.622360;0.958660;,
  0.644700;0.942400;,
  0.646330;0.949870;,
  0.661330;0.936130;,
  0.663320;0.942930;,
  0.643300;0.937900;,
  0.660400;0.933030;,
  0.597670;0.932160;,
  0.623720;0.938660;,
  0.531560;0.915290;,
  0.566220;0.922930;,
  0.487030;0.909880;,
  0.508900;0.909310;,
  0.483960;0.918730;,
  0.506510;0.919630;,
  0.529110;0.926570;,
  0.564480;0.934320;,
  0.598820;0.942080;,
  0.624150;0.946250;,
  0.644700;0.942400;,
  0.661330;0.936130;,
  0.471080;0.920740;,
  0.470430;0.913370;,
  0.478950;0.907160;,
  0.679850;0.921640;,
  0.684510;0.923740;,
  0.682170;0.931210;;
 }
}
