xof 0302txt 0064
template Header {
 <3D82AB43-62DA-11cf-AB39-0020AF71E433>
 WORD major;
 WORD minor;
 DWORD flags;
}

template Vector {
 <3D82AB5E-62DA-11cf-AB39-0020AF71E433>
 FLOAT x;
 FLOAT y;
 FLOAT z;
}

template Coords2d {
 <F6F23F44-7686-11cf-8F52-0040333594A3>
 FLOAT u;
 FLOAT v;
}

template Matrix4x4 {
 <F6F23F45-7686-11cf-8F52-0040333594A3>
 array FLOAT matrix[16];
}

template ColorRGBA {
 <35FF44E0-6C7C-11cf-8F52-0040333594A3>
 FLOAT red;
 FLOAT green;
 FLOAT blue;
 FLOAT alpha;
}

template ColorRGB {
 <D3E16E81-7835-11cf-8F52-0040333594A3>
 FLOAT red;
 FLOAT green;
 FLOAT blue;
}

template IndexedColor {
 <1630B820-7842-11cf-8F52-0040333594A3>
 DWORD index;
 ColorRGBA indexColor;
}

template Boolean {
 <4885AE61-78E8-11cf-8F52-0040333594A3>
 WORD truefalse;
}

template Boolean2d {
 <4885AE63-78E8-11cf-8F52-0040333594A3>
 Boolean u;
 Boolean v;
}

template MaterialWrap {
 <4885AE60-78E8-11cf-8F52-0040333594A3>
 Boolean u;
 Boolean v;
}

template TextureFilename {
 <A42790E1-7810-11cf-8F52-0040333594A3>
 STRING filename;
}

template Material {
 <3D82AB4D-62DA-11cf-AB39-0020AF71E433>
 ColorRGBA faceColor;
 FLOAT power;
 ColorRGB specularColor;
 ColorRGB emissiveColor;
 [...]
}

template MeshFace {
 <3D82AB5F-62DA-11cf-AB39-0020AF71E433>
 DWORD nFaceVertexIndices;
 array DWORD faceVertexIndices[nFaceVertexIndices];
}

template MeshFaceWraps {
 <4885AE62-78E8-11cf-8F52-0040333594A3>
 DWORD nFaceWrapValues;
 Boolean2d faceWrapValues;
}

template MeshTextureCoords {
 <F6F23F40-7686-11cf-8F52-0040333594A3>
 DWORD nTextureCoords;
 array Coords2d textureCoords[nTextureCoords];
}

template MeshMaterialList {
 <F6F23F42-7686-11cf-8F52-0040333594A3>
 DWORD nMaterials;
 DWORD nFaceIndexes;
 array DWORD faceIndexes[nFaceIndexes];
 [Material]
}

template MeshNormals {
 <F6F23F43-7686-11cf-8F52-0040333594A3>
 DWORD nNormals;
 array Vector normals[nNormals];
 DWORD nFaceNormals;
 array MeshFace faceNormals[nFaceNormals];
}

template MeshVertexColors {
 <1630B821-7842-11cf-8F52-0040333594A3>
 DWORD nVertexColors;
 array IndexedColor vertexColors[nVertexColors];
}

template Mesh {
 <3D82AB44-62DA-11cf-AB39-0020AF71E433>
 DWORD nVertices;
 array Vector vertices[nVertices];
 DWORD nFaces;
 array MeshFace faces[nFaces];
 [...]
}

Header{
1;
0;
1;
}

Mesh {
 196;
 -0.03792;0.04158;-0.07845;,
 -0.04347;0.02372;-0.09092;,
 -0.07391;0.02372;-0.08363;,
 -0.06524;0.03523;-0.07453;,
 -0.11227;0.02372;-0.07824;,
 -0.10192;0.03523;-0.06536;,
 -0.13795;0.02762;-0.07380;,
 -0.13662;0.03523;-0.06380;,
 0.12165;0.03182;-0.07963;,
 0.12075;0.02426;-0.08427;,
 0.08366;0.02382;-0.09124;,
 0.09014;0.03184;-0.08428;,
 0.04054;0.02372;-0.09568;,
 0.04268;0.03602;-0.08658;,
 0.00820;0.02372;-0.09790;,
 0.01184;0.04140;-0.08641;,
 -0.10989;0.03523;-0.03568;,
 -0.08145;0.03523;-0.03750;,
 -0.09049;0.02373;-0.04777;,
 -0.10769;0.02373;-0.04476;,
 -0.05037;0.03523;-0.04325;,
 -0.05423;0.02463;-0.05959;,
 -0.00461;0.03523;-0.05349;,
 -0.00928;0.02373;-0.06949;,
 0.04174;0.03496;-0.06080;,
 0.04002;0.03255;-0.07682;,
 0.07734;0.03496;-0.06019;,
 0.07323;0.02632;-0.07561;,
 0.10366;0.03576;-0.06110;,
 0.10812;0.02373;-0.07068;,
 0.12413;0.03001;-0.05225;,
 0.12879;0.02373;-0.06160;,
 -0.11611;0.03523;-0.00018;,
 -0.09511;0.03523;-0.00702;,
 -0.09785;0.02373;-0.01583;,
 -0.11722;0.02373;-0.01069;,
 -0.07070;0.04176;-0.01272;,
 -0.07380;0.02372;-0.02762;,
 -0.00982;0.03651;-0.02459;,
 -0.01670;0.02372;-0.04036;,
 0.03811;0.03651;-0.02636;,
 0.03776;0.02372;-0.04165;,
 0.07877;0.03229;-0.03109;,
 0.07981;0.02414;-0.03994;,
 0.11769;0.03179;-0.03492;,
 0.11886;0.02372;-0.04195;,
 -0.00897;0.03814;0.01390;,
 0.04357;0.03576;0.01792;,
 0.04582;0.02373;-0.00058;,
 -0.00638;0.02372;-0.00295;,
 0.08418;0.03576;0.02384;,
 0.10727;0.03158;0.02341;,
 0.10969;0.02372;0.01503;,
 0.08588;0.02373;0.01268;,
 -0.06529;0.03814;0.01246;,
 -0.06463;0.02232;0.00228;,
 -0.10503;0.03344;0.04164;,
 -0.06465;0.03347;0.04473;,
 -0.06274;0.02372;0.03242;,
 -0.10684;0.02372;0.02795;,
 -0.01652;0.03347;0.04812;,
 -0.01834;0.02373;0.03171;,
 0.03180;0.03558;0.04633;,
 0.02861;0.02373;0.03423;,
 0.06320;0.03386;0.04449;,
 0.06350;0.02372;0.03224;,
 0.08705;0.02922;0.04418;,
 0.09300;0.02360;0.03831;,
 -0.10078;0.02373;0.04964;,
 -0.05891;0.02381;0.05251;,
 -0.01291;0.02373;0.05955;,
 0.03499;0.02373;0.05819;,
 0.06543;0.02373;0.05070;,
 0.09112;0.02373;0.05002;,
 -0.00537;0.02372;0.02483;,
 0.04727;0.02372;0.02929;,
 0.08432;0.02373;0.02938;,
 0.10900;0.02428;0.02849;,
 -0.06259;0.02309;0.01951;,
 -0.11453;0.02373;0.00934;,
 -0.09140;0.02435;0.00222;,
 -0.06821;0.02372;-0.00488;,
 -0.01041;0.02469;-0.01416;,
 0.03905;0.02372;-0.02002;,
 0.08146;0.02373;-0.02673;,
 0.11969;0.02373;-0.02994;,
 0.10291;0.02392;-0.05411;,
 0.12456;0.02394;-0.04559;,
 0.04018;0.02552;-0.05146;,
 0.07620;0.02452;-0.05345;,
 -0.04904;0.02692;-0.03559;,
 -0.00226;0.02567;-0.04278;,
 -0.10768;0.02473;-0.02802;,
 -0.07912;0.02373;-0.02810;,
 -0.14017;0.02372;-0.05129;,
 -0.10562;0.02372;-0.05510;,
 -0.06820;0.02413;-0.06366;,
 -0.03777;0.02372;-0.06366;,
 0.00915;0.02372;-0.07285;,
 0.03505;0.03775;-0.07259;,
 0.08810;0.02372;-0.07729;,
 0.11854;0.02372;-0.07317;,
 -0.03796;0.01308;-0.07864;,
 -0.06529;0.01727;-0.07472;,
 -0.10196;0.01727;-0.06556;,
 -0.13666;0.01727;-0.06400;,
 0.12161;0.01953;-0.07983;,
 0.09010;0.01952;-0.08448;,
 0.04264;0.01675;-0.08677;,
 0.01180;0.01320;-0.08660;,
 -0.10993;0.01727;-0.03587;,
 -0.08149;0.01727;-0.03769;,
 -0.05041;0.01727;-0.04345;,
 -0.00465;0.01727;-0.05369;,
 0.03998;0.01904;-0.07702;,
 0.04170;0.01746;-0.06099;,
 0.07730;0.01745;-0.06038;,
 0.10362;0.01692;-0.06129;,
 0.12409;0.02072;-0.05244;,
 -0.11615;0.01727;-0.00037;,
 -0.09515;0.01727;-0.00721;,
 -0.07074;0.01296;-0.01292;,
 -0.00986;0.01643;-0.02478;,
 0.03807;0.01643;-0.02655;,
 0.07873;0.01922;-0.03128;,
 0.11765;0.01955;-0.03511;,
 -0.00901;0.01535;0.01371;,
 0.04353;0.01692;0.01773;,
 0.08413;0.01692;0.02365;,
 0.10722;0.01968;0.02322;,
 -0.06533;0.01535;0.01227;,
 -0.10507;0.01846;0.04144;,
 -0.06469;0.01844;0.04454;,
 -0.01656;0.01844;0.04792;,
 0.03175;0.01704;0.04614;,
 0.06316;0.01818;0.04430;,
 0.08701;0.02125;0.04399;,
 0.03501;0.01561;-0.07278;,
 -0.12819;0.02373;-0.03525;,
 -0.12349;0.02426;-0.03006;,
 -0.11600;0.02464;-0.02573;,
 -0.12966;0.02373;-0.00572;,
 -0.13260;0.02847;0.00851;,
 -0.12397;0.02475;0.01429;,
 -0.10644;0.02760;0.01653;,
 -0.09512;0.02439;0.02420;,
 -0.09523;0.02372;0.00320;,
 -0.11572;0.02373;0.02829;,
 -0.12680;0.03167;0.04093;,
 -0.12520;0.02373;0.04773;,
 -0.16052;0.02619;-0.05647;,
 -0.16388;0.02958;-0.06537;,
 -0.15698;0.02372;-0.07317;,
 0.14625;0.02549;0.01046;,
 0.15040;0.02781;0.01974;,
 0.14479;0.02601;0.02421;,
 0.13044;0.02542;0.04125;,
 0.13567;0.02779;0.04853;,
 0.12918;0.02611;0.05388;,
 0.14202;0.02517;-0.03005;,
 0.14684;0.02735;-0.03348;,
 0.14357;0.02516;-0.03681;,
 0.14941;0.02536;-0.03861;,
 0.15632;0.02752;-0.04100;,
 0.15254;0.02529;-0.04761;,
 0.14961;0.02477;-0.06524;,
 0.15289;0.02694;-0.06900;,
 0.15278;0.02521;-0.07539;,
 0.17280;0.02425;0.07372;,
 -0.17280;0.02425;0.07372;,
 -0.17280;0.01528;0.07372;,
 0.17280;0.01528;0.07372;,
 0.17280;0.02425;-0.11623;,
 0.17280;0.01528;-0.11623;,
 -0.17280;0.02425;-0.11623;,
 -0.17280;0.01528;-0.11623;,
 -0.14712;-0.00260;-0.10211;,
 0.14712;-0.00260;-0.10211;,
 0.14712;-0.00260;0.05961;,
 -0.14712;-0.00260;0.05961;,
 -0.17280;0.01528;-0.11623;,
 0.17280;0.01528;-0.11623;,
 0.14712;-0.00260;-0.10211;,
 -0.14712;-0.00260;-0.10211;,
 0.17280;0.01528;-0.11623;,
 0.17280;0.01528;0.07372;,
 0.14712;-0.00260;0.05961;,
 0.14712;-0.00260;-0.10211;,
 0.17280;0.01528;0.07372;,
 -0.17280;0.01528;0.07372;,
 -0.14712;-0.00260;0.05961;,
 0.14712;-0.00260;0.05961;,
 -0.17280;0.01528;0.07372;,
 -0.17280;0.01528;-0.11623;,
 -0.14712;-0.00260;-0.10211;,
 -0.14712;-0.00260;0.05961;;
 
 206;
 4;0,1,2,3;,
 4;3,2,4,5;,
 4;5,4,6,7;,
 4;8,9,10,11;,
 4;11,10,12,13;,
 4;13,12,14,15;,
 4;15,14,1,0;,
 4;16,17,18,19;,
 4;17,20,21,18;,
 4;20,22,23,21;,
 4;22,24,25,23;,
 4;24,26,27,25;,
 4;26,28,29,27;,
 4;28,30,31,29;,
 4;32,33,34,35;,
 4;33,36,37,34;,
 4;36,38,39,37;,
 4;38,40,41,39;,
 4;40,42,43,41;,
 4;42,44,45,43;,
 4;46,47,48,49;,
 4;50,51,52,53;,
 4;47,50,53,48;,
 4;54,46,49,55;,
 4;56,57,58,59;,
 4;57,60,61,58;,
 4;60,62,63,61;,
 4;62,64,65,63;,
 4;64,66,67,65;,
 4;56,68,69,57;,
 4;57,69,70,60;,
 4;60,70,71,62;,
 4;62,71,72,64;,
 4;64,72,73,66;,
 4;46,74,75,47;,
 4;50,76,77,51;,
 4;47,75,76,50;,
 4;54,78,74,46;,
 4;32,79,80,33;,
 4;33,80,81,36;,
 4;36,81,82,38;,
 4;38,82,83,40;,
 4;40,83,84,42;,
 4;42,84,85,44;,
 4;28,86,87,30;,
 4;24,88,89,26;,
 4;26,89,86,28;,
 4;20,90,91,22;,
 4;22,91,88,24;,
 4;16,92,93,17;,
 4;17,93,90,20;,
 4;7,94,95,5;,
 4;5,95,96,3;,
 4;3,96,97,0;,
 4;0,97,98,15;,
 4;13,99,100,11;,
 4;15,98,99,13;,
 4;11,100,101,8;,
 4;102,103,2,1;,
 4;103,104,4,2;,
 4;104,105,6,4;,
 4;106,107,10,9;,
 4;107,108,12,10;,
 4;108,109,14,12;,
 4;109,102,1,14;,
 4;110,19,18,111;,
 4;111,18,21,112;,
 4;112,21,23,113;,
 4;113,23,114,115;,
 4;115,114,27,116;,
 4;116,27,29,117;,
 4;117,29,31,118;,
 4;119,35,34,120;,
 4;120,34,37,121;,
 4;121,37,39,122;,
 4;122,39,41,123;,
 4;123,41,43,124;,
 4;124,43,45,125;,
 4;126,49,48,127;,
 4;128,53,52,129;,
 4;127,48,53,128;,
 4;130,55,49,126;,
 4;131,59,58,132;,
 4;132,58,61,133;,
 4;133,61,63,134;,
 4;134,63,65,135;,
 4;135,65,67,136;,
 4;131,132,69,68;,
 4;132,133,70,69;,
 4;133,134,71,70;,
 4;134,135,72,71;,
 4;135,136,73,72;,
 4;126,127,75,74;,
 4;128,129,77,76;,
 4;127,128,76,75;,
 4;130,126,74,78;,
 4;119,120,80,79;,
 4;120,121,81,80;,
 4;121,122,82,81;,
 4;122,123,83,82;,
 4;123,124,84,83;,
 4;124,125,85,84;,
 4;117,118,87,86;,
 4;115,116,89,88;,
 4;116,117,86,89;,
 4;112,113,91,90;,
 4;113,115,88,91;,
 4;110,111,93,92;,
 4;111,112,90,93;,
 4;105,104,95,94;,
 4;104,103,96,95;,
 4;103,102,97,96;,
 4;102,109,98,97;,
 4;108,107,100,137;,
 4;109,108,137,98;,
 4;107,106,101,100;,
 3;138,139,16;,
 3;138,16,19;,
 3;140,92,16;,
 3;140,16,139;,
 3;140,139,110;,
 3;140,110,92;,
 3;138,19,110;,
 3;138,110,139;,
 3;141,35,119;,
 3;141,119,142;,
 3;143,142,119;,
 3;143,119,79;,
 3;143,79,32;,
 3;143,32,142;,
 3;32,35,141;,
 3;32,141,142;,
 3;54,144,145;,
 3;54,145,78;,
 3;54,55,146;,
 3;54,146,144;,
 3;56,59,147;,
 3;56,147,148;,
 3;149,68,56;,
 3;149,56,148;,
 3;147,59,131;,
 3;147,131,148;,
 3;149,148,131;,
 3;149,131,68;,
 3;146,55,130;,
 3;146,130,144;,
 3;145,144,130;,
 3;145,130,78;,
 3;150,151,105;,
 3;150,105,94;,
 3;105,151,152;,
 3;105,152,6;,
 3;152,151,7;,
 3;152,7,6;,
 3;150,94,7;,
 3;150,7,151;,
 3;129,52,153;,
 3;129,153,154;,
 3;129,154,155;,
 3;129,155,77;,
 3;156,157,136;,
 3;156,136,67;,
 3;158,73,136;,
 3;158,136,157;,
 3;159,85,125;,
 3;159,125,160;,
 3;161,160,125;,
 3;161,125,45;,
 3;162,87,118;,
 3;162,118,163;,
 3;164,163,118;,
 3;164,118,31;,
 3;165,101,106;,
 3;165,106,166;,
 3;167,166,106;,
 3;167,106,9;,
 3;167,9,8;,
 3;167,8,166;,
 3;165,166,8;,
 3;165,8,101;,
 3;164,31,30;,
 3;164,30,163;,
 3;162,163,30;,
 3;162,30,87;,
 3;161,45,44;,
 3;161,44,160;,
 3;159,160,44;,
 3;159,44,85;,
 3;153,52,51;,
 3;153,51,154;,
 3;155,154,51;,
 3;155,51,77;,
 3;156,67,66;,
 3;156,66,157;,
 3;158,157,66;,
 3;158,66,73;,
 4;168,169,170,171;,
 4;172,168,171,173;,
 4;174,172,173,175;,
 4;169,174,175,170;,
 4;169,168,172,174;,
 4;176,177,178,179;,
 4;180,181,182,183;,
 4;184,185,186,187;,
 4;188,189,190,191;,
 4;192,193,194,195;;
 
 MeshMaterialList {
  8;
  206;
  5,
  5,
  5,
  5,
  5,
  5,
  5,
  5,
  5,
  5,
  5,
  5,
  5,
  5,
  5,
  5,
  5,
  5,
  5,
  5,
  5,
  5,
  5,
  5,
  5,
  5,
  5,
  5,
  5,
  5,
  5,
  5,
  5,
  5,
  5,
  5,
  5,
  5,
  5,
  5,
  5,
  5,
  5,
  5,
  5,
  5,
  5,
  5,
  5,
  5,
  5,
  5,
  5,
  5,
  5,
  5,
  5,
  5,
  5,
  5,
  5,
  5,
  5,
  5,
  5,
  5,
  5,
  5,
  5,
  5,
  5,
  5,
  5,
  5,
  5,
  5,
  5,
  5,
  5,
  5,
  5,
  5,
  5,
  5,
  5,
  5,
  5,
  5,
  5,
  5,
  5,
  5,
  5,
  5,
  5,
  5,
  5,
  5,
  5,
  5,
  5,
  5,
  5,
  5,
  5,
  5,
  5,
  5,
  5,
  5,
  5,
  5,
  5,
  5,
  5,
  5,
  5,
  5,
  5,
  5,
  5,
  5,
  5,
  5,
  5,
  5,
  5,
  5,
  5,
  5,
  5,
  5,
  5,
  5,
  5,
  5,
  5,
  5,
  5,
  5,
  5,
  5,
  5,
  5,
  5,
  5,
  5,
  5,
  5,
  5,
  5,
  5,
  5,
  5,
  5,
  5,
  5,
  5,
  5,
  5,
  5,
  5,
  5,
  5,
  5,
  5,
  5,
  5,
  5,
  5,
  5,
  5,
  5,
  5,
  5,
  5,
  5,
  5,
  5,
  5,
  5,
  5,
  5,
  5,
  5,
  5,
  5,
  5,
  5,
  5,
  5,
  5,
  5,
  5,
  5,
  5,
  6,
  6,
  6,
  6,
  6,
  6,
  6,
  6,
  6,
  6;;
  Material {
   0.800000;0.800000;0.800000;1.000000;;
   5.000000;
   0.000000;0.000000;0.000000;;
   0.000000;0.000000;0.000000;;
   TextureFilename {
    "iztex01.png";
   }
  }
  Material {
   0.668000;0.633600;0.351200;1.000000;;
   5.000000;
   0.000000;0.000000;0.000000;;
   0.258850;0.245520;0.136090;;
   TextureFilename {
    "iztex01.png";
   }
  }
  Material {
   0.298400;0.125600;0.112800;1.000000;;
   18.000000;
   0.200000;0.200000;0.200000;;
   0.134280;0.056520;0.050760;;
   TextureFilename {
    "iztex01.png";
   }
  }
  Material {
   0.061410;0.011730;0.011730;1.000000;;
   30.000000;
   0.300000;0.300000;0.300000;;
   0.000000;0.000000;0.000000;;
   TextureFilename {
    "iztex01.png";
   }
  }
  Material {
   0.800000;0.166400;0.000000;1.000000;;
   5.000000;
   0.450000;0.450000;0.450000;;
   0.000000;0.000000;0.000000;;
   TextureFilename {
    "iztex01.png";
   }
  }
  Material {
   0.800000;0.800000;0.800000;1.000000;;
   5.000000;
   0.100000;0.100000;0.100000;;
   0.390000;0.390000;0.390000;;
   TextureFilename {
    "iztex01.png";
   }
  }
  Material {
   0.800000;0.800000;0.800000;1.000000;;
   26.000000;
   0.410000;0.410000;0.410000;;
   0.400000;0.400000;0.400000;;
   TextureFilename {
    "iztex01.png";
   }
  }
  Material {
   0.800000;0.800000;0.800000;0.300000;;
   54.000000;
   0.710000;0.710000;0.710000;;
   0.750000;0.750000;0.750000;;
   TextureFilename {
    "iztex01.png";
   }
  }
 }
 MeshNormals {
  180;
  -0.049145;0.989291;0.137432;,
  -0.022462;0.992331;0.121549;,
  -0.023067;0.996638;0.078614;,
  0.039240;0.997619;0.056709;,
  0.115657;0.989742;0.083871;,
  0.034712;0.998975;0.029046;,
  -0.091696;0.993698;0.064466;,
  -0.028462;0.993867;0.106853;,
  0.032519;0.989950;0.137629;,
  0.088908;0.985162;0.146802;,
  0.061896;0.991235;0.116717;,
  -0.095105;0.994595;0.041661;,
  -0.065999;0.996917;0.042422;,
  -0.044065;0.993348;0.106388;,
  0.041893;0.990582;0.130351;,
  0.078915;0.984220;0.158378;,
  0.078447;0.986397;0.144453;,
  0.090718;0.994142;0.058760;,
  -0.615002;-0.087352;0.783673;,
  -0.253029;0.939996;0.228875;,
  -0.032922;0.997223;0.066801;,
  -0.002329;0.995210;0.097733;,
  0.009068;0.989134;0.146739;,
  0.037300;0.970919;0.236483;,
  0.068477;0.971099;0.228642;,
  0.062833;0.985386;0.158323;,
  0.041131;0.994237;0.099005;,
  0.059699;0.998199;0.005844;,
  0.098435;0.981585;-0.163710;,
  0.072734;0.963151;-0.258938;,
  0.001613;0.985515;-0.169581;,
  -0.067052;0.997197;0.033191;,
  0.031677;0.997753;0.059033;,
  -0.114823;0.993265;-0.015534;,
  -0.238885;-0.129612;-0.962359;,
  -0.149988;-0.075983;-0.985764;,
  -0.331852;-0.003247;-0.943326;,
  -0.080775;0.996702;-0.007790;,
  0.456339;-0.097722;-0.884424;,
  0.218392;-0.106339;-0.970050;,
  0.138416;-0.128089;-0.982056;,
  0.102926;-0.132266;-0.985856;,
  -0.023294;-0.125943;-0.991764;,
  -0.207731;-0.126474;-0.969975;,
  -0.894540;-0.184407;-0.407176;,
  -0.281693;-0.136171;-0.949793;,
  -0.177594;-0.119135;-0.976866;,
  -0.234197;-0.095917;-0.967446;,
  -0.262925;-0.084891;-0.961074;,
  -0.012375;0.939783;-0.341547;,
  0.144229;-0.036038;-0.988888;,
  0.283358;-0.094464;-0.954350;,
  0.518716;-0.128927;-0.845170;,
  -0.323529;-0.136205;-0.936364;,
  -0.360683;-0.133416;-0.923097;,
  -0.309433;-0.127170;-0.942380;,
  -0.097236;-0.121703;-0.987792;,
  0.000073;-0.120081;-0.992764;,
  -0.021507;-0.125877;-0.991813;,
  0.073943;-0.143227;-0.986924;,
  0.381248;-0.204140;-0.901652;,
  0.156627;-0.118976;-0.980466;,
  0.009431;-0.151853;-0.988358;,
  0.170922;-0.131442;-0.976478;,
  -0.031358;-0.176018;-0.983887;,
  0.027319;-0.140074;-0.989764;,
  -0.389482;-0.090644;-0.916563;,
  0.026303;-0.124220;-0.991906;,
  0.060323;-0.122625;-0.990618;,
  0.000519;-0.119945;-0.992780;,
  -0.025747;-0.125785;-0.991723;,
  0.091251;-0.140582;-0.985855;,
  0.151889;-0.179896;-0.971888;,
  0.219121;-0.209694;-0.952898;,
  -0.074308;-0.154202;0.985241;,
  -0.087812;-0.149694;0.984825;,
  -0.052568;-0.142642;0.988377;,
  0.102790;-0.143125;0.984352;,
  0.141715;-0.156777;0.977414;,
  0.013040;-0.193234;0.981066;,
  0.038803;-0.213084;0.976263;,
  0.098905;-0.128684;0.986741;,
  -0.096820;-0.180111;0.978870;,
  0.042214;-0.152596;0.987387;,
  -0.057744;-0.144283;0.987850;,
  -0.062020;-0.139010;0.988347;,
  0.008262;-0.134097;0.990934;,
  0.374888;-0.145459;0.915587;,
  0.239472;-0.119273;0.963549;,
  0.194858;-0.108984;0.974758;,
  0.139671;-0.110612;0.984001;,
  0.118741;-0.132324;0.984069;,
  0.128843;-0.156625;0.979218;,
  0.055737;-0.172041;0.983512;,
  0.193274;-0.218387;0.956531;,
  -0.277342;-0.153267;0.948468;,
  -0.099953;-0.189698;0.976742;,
  0.017454;-0.096563;0.995174;,
  -0.129528;-0.131407;0.982830;,
  0.182366;-0.021156;0.983003;,
  0.093853;-0.058207;0.993883;,
  0.152181;-0.103940;0.982872;,
  0.123720;-0.087260;0.988473;,
  0.199939;-0.030457;0.979335;,
  -0.082827;-0.097211;0.991811;,
  0.156897;-0.137499;0.977997;,
  -0.084546;-0.140354;0.986485;,
  -0.567688;-0.102829;0.816797;,
  0.038285;-0.109219;0.993280;,
  0.102779;-0.130648;0.986087;,
  0.075922;-0.129183;0.988710;,
  0.034873;-0.141936;0.989261;,
  0.029787;0.908115;0.417659;,
  -0.017144;-0.166244;0.985936;,
  -0.188689;-0.161916;0.968597;,
  -0.936157;-0.028060;-0.350460;,
  -0.188199;-0.981298;-0.040430;,
  -0.013967;-0.995371;0.095087;,
  -0.015118;-0.998271;0.056797;,
  0.023941;-0.998839;0.041797;,
  0.068909;-0.995384;0.066800;,
  0.086918;-0.994836;0.052415;,
  0.968070;-0.174365;0.180105;,
  -0.954783;-0.254387;0.153872;,
  -0.114440;-0.990863;0.071377;,
  -0.009148;-0.995124;0.098212;,
  0.017196;-0.993216;0.115009;,
  0.057204;-0.988459;0.140275;,
  0.113995;-0.990574;0.075952;,
  0.918626;-0.194451;0.343971;,
  -0.933072;-0.071369;0.352538;,
  -0.187396;-0.979546;0.073300;,
  -0.039876;-0.998099;0.046986;,
  -0.024967;-0.993049;0.115022;,
  0.031439;-0.989358;0.142064;,
  0.051406;-0.987364;0.149898;,
  0.050039;-0.992099;0.115046;,
  0.138040;-0.987284;0.078842;,
  0.908019;-0.385288;0.164484;,
  -0.139168;-0.971898;0.189857;,
  0.004825;-0.996282;0.086022;,
  0.030449;-0.987109;0.157127;,
  0.017250;-0.978812;0.204031;,
  0.043407;-0.975169;0.217166;,
  0.035537;-0.986247;0.161414;,
  0.019358;-0.993252;0.114349;,
  0.098715;-0.990300;0.097780;,
  0.882111;-0.313275;0.351766;,
  0.943823;-0.085535;0.319189;,
  0.122428;-0.989048;-0.082429;,
  0.061708;-0.986355;-0.152627;,
  0.044289;-0.978637;-0.200768;,
  0.001857;-0.991812;-0.127691;,
  -0.043060;-0.998641;0.029375;,
  -0.012441;-0.999916;0.003752;,
  -0.192428;-0.979387;-0.061415;,
  -0.984601;-0.119055;-0.128013;,
  -0.078738;0.034842;-0.996286;,
  -0.055229;-0.998381;-0.013569;,
  0.019773;-0.962102;-0.271972;,
  0.648432;-0.157526;-0.744796;,
  -0.724283;-0.125507;-0.677984;,
  0.095922;-0.153389;-0.983499;,
  -0.303638;-0.197446;-0.932105;,
  -0.357908;-0.139046;0.923346;,
  0.253351;-0.159885;0.954070;,
  0.042327;-0.131411;0.990424;,
  0.009616;-0.960448;0.278293;,
  -0.565232;-0.517995;0.642023;,
  0.565232;-0.517995;0.642023;,
  -0.565232;-0.518004;-0.642016;,
  0.565232;-0.518004;-0.642016;,
  -0.577350;0.577350;0.577350;,
  0.577350;0.577350;0.577350;,
  -0.577350;0.577350;-0.577350;,
  0.577350;0.577350;-0.577350;,
  -0.217602;-0.929148;-0.298888;,
  0.217602;-0.929148;-0.298888;,
  0.217604;-0.929144;0.298898;,
  -0.217604;-0.929144;0.298898;;
  206;
  4;37,43,34,31;,
  4;31,34,35,32;,
  4;32,35,157,33;,
  4;27,39,40,28;,
  4;28,40,41,29;,
  4;29,41,42,30;,
  4;30,42,43,37;,
  4;19,20,46,45;,
  4;20,21,47,46;,
  4;21,22,48,47;,
  4;22,23,49,48;,
  4;23,24,50,49;,
  4;24,25,51,50;,
  4;25,26,52,51;,
  4;11,12,54,53;,
  4;12,13,55,54;,
  4;13,14,56,55;,
  4;14,15,57,56;,
  4;15,16,58,57;,
  4;16,17,59,58;,
  4;7,8,61,65;,
  4;9,10,62,63;,
  4;8,9,63,61;,
  4;6,7,65,64;,
  4;0,1,68,67;,
  4;1,2,69,68;,
  4;2,3,70,69;,
  4;3,4,71,70;,
  4;4,5,72,71;,
  4;0,74,75,1;,
  4;1,75,76,2;,
  4;2,76,77,3;,
  4;3,77,78,4;,
  4;4,78,79,5;,
  4;7,84,85,8;,
  4;9,86,81,10;,
  4;8,85,86,9;,
  4;6,83,84,7;,
  4;11,87,88,12;,
  4;12,88,89,13;,
  4;13,89,90,14;,
  4;14,90,91,15;,
  4;15,91,92,16;,
  4;16,92,93,17;,
  4;25,98,95,26;,
  4;23,100,97,24;,
  4;24,97,98,25;,
  4;21,103,99,22;,
  4;22,99,100,23;,
  4;19,101,102,20;,
  4;20,102,103,21;,
  4;33,106,105,32;,
  4;32,105,109,31;,
  4;31,109,110,37;,
  4;37,110,108,30;,
  4;29,112,111,28;,
  4;30,108,112,29;,
  4;28,111,114,27;,
  4;158,153,34,43;,
  4;153,154,35,34;,
  4;154,155,157,35;,
  4;149,150,40,39;,
  4;150,151,41,40;,
  4;151,152,42,41;,
  4;152,158,43,42;,
  4;139,45,46,140;,
  4;140,46,47,141;,
  4;141,47,48,142;,
  4;142,48,159,143;,
  4;143,159,50,144;,
  4;144,50,51,145;,
  4;145,51,52,146;,
  4;131,53,54,132;,
  4;132,54,55,133;,
  4;133,55,56,134;,
  4;134,56,57,135;,
  4;135,57,58,136;,
  4;136,58,59,137;,
  4;125,65,61,126;,
  4;127,63,62,128;,
  4;126,61,63,127;,
  4;124,64,65,125;,
  4;116,67,68,117;,
  4;117,68,69,118;,
  4;118,69,70,119;,
  4;119,70,71,120;,
  4;120,71,72,121;,
  4;116,117,75,74;,
  4;117,118,76,75;,
  4;118,119,77,76;,
  4;119,120,78,77;,
  4;120,121,79,78;,
  4;125,126,85,84;,
  4;127,128,81,86;,
  4;126,127,86,85;,
  4;124,125,84,83;,
  4;131,132,88,87;,
  4;132,133,89,88;,
  4;133,134,90,89;,
  4;134,135,91,90;,
  4;135,136,92,91;,
  4;136,137,93,92;,
  4;145,146,95,98;,
  4;143,144,97,100;,
  4;144,145,98,97;,
  4;141,142,99,103;,
  4;142,143,100,99;,
  4;139,140,102,101;,
  4;140,141,103,102;,
  4;155,154,105,106;,
  4;154,153,109,105;,
  4;153,158,110,109;,
  4;158,152,108,110;,
  4;151,150,111,167;,
  4;152,151,167,108;,
  4;150,149,114,111;,
  3;44,18,19;,
  3;44,19,45;,
  3;104,101,19;,
  3;104,19,18;,
  3;104,18,139;,
  3;104,139,101;,
  3;44,45,139;,
  3;44,139,18;,
  3;161,53,131;,
  3;161,131,130;,
  3;166,130,131;,
  3;166,131,87;,
  3;166,87,11;,
  3;166,11,130;,
  3;11,53,161;,
  3;11,161,130;,
  3;6,123,82;,
  3;6,82,83;,
  3;6,64,163;,
  3;6,163,123;,
  3;0,67,66;,
  3;0,66,115;,
  3;164,74,0;,
  3;164,0,115;,
  3;66,67,116;,
  3;66,116,115;,
  3;164,115,116;,
  3;164,116,74;,
  3;163,64,124;,
  3;163,124,123;,
  3;82,123,124;,
  3;82,124,83;,
  3;107,156,155;,
  3;107,155,106;,
  3;155,156,36;,
  3;155,36,157;,
  3;36,156,33;,
  3;36,33,157;,
  3;107,106,33;,
  3;107,33,156;,
  3;128,62,162;,
  3;128,162,129;,
  3;128,129,165;,
  3;128,165,81;,
  3;73,122,121;,
  3;73,121,72;,
  3;80,79,121;,
  3;80,121,122;,
  3;94,93,137;,
  3;94,137,138;,
  3;60,138,137;,
  3;60,137,59;,
  3;96,95,146;,
  3;96,146,147;,
  3;160,147,146;,
  3;160,146,52;,
  3;113,114,149;,
  3;113,149,148;,
  3;38,148,149;,
  3;38,149,39;,
  3;38,39,27;,
  3;38,27,148;,
  3;113,148,27;,
  3;113,27,114;,
  3;160,52,26;,
  3;160,26,147;,
  3;96,147,26;,
  3;96,26,95;,
  3;60,59,17;,
  3;60,17,138;,
  3;94,138,17;,
  3;94,17,93;,
  3;162,62,10;,
  3;162,10,129;,
  3;165,129,10;,
  3;165,10,81;,
  3;73,72,5;,
  3;73,5,122;,
  3;80,122,5;,
  3;80,5,79;,
  4;173,172,168,169;,
  4;175,173,169,171;,
  4;174,175,171,170;,
  4;172,174,170,168;,
  4;172,173,175,174;,
  4;176,177,178,179;,
  4;170,171,177,176;,
  4;171,169,178,177;,
  4;169,168,179,178;,
  4;168,170,176,179;;
 }
 MeshTextureCoords {
  196;
  0.536660;0.963350;,
  0.532550;0.976610;,
  0.511460;0.969280;,
  0.517250;0.959190;,
  0.483670;0.961040;,
  0.491340;0.947350;,
  0.464640;0.959250;,
  0.466670;0.945280;,
  0.658030;0.964190;,
  0.657370;0.969120;,
  0.629040;0.976740;,
  0.633840;0.969340;,
  0.597930;0.982080;,
  0.599520;0.972420;,
  0.569160;0.982980;,
  0.571860;0.970760;,
  0.483960;0.918730;,
  0.506510;0.919630;,
  0.499810;0.930530;,
  0.485600;0.928380;,
  0.529110;0.926570;,
  0.525420;0.942890;,
  0.564480;0.934320;,
  0.559970;0.951740;,
  0.598820;0.942080;,
  0.597550;0.959110;,
  0.624150;0.946250;,
  0.622360;0.958660;,
  0.644700;0.942400;,
  0.646330;0.949870;,
  0.661330;0.936130;,
  0.663320;0.942930;,
  0.477020;0.879370;,
  0.494000;0.887780;,
  0.489690;0.899140;,
  0.478480;0.890820;,
  0.514370;0.894700;,
  0.511220;0.908530;,
  0.560620;0.903600;,
  0.555520;0.920360;,
  0.595280;0.908910;,
  0.595870;0.921730;,
  0.625400;0.913940;,
  0.627020;0.919910;,
  0.653950;0.917720;,
  0.655960;0.922050;,
  0.561250;0.862690;,
  0.600180;0.858420;,
  0.602130;0.876360;,
  0.563170;0.880600;,
  0.630260;0.852120;,
  0.647370;0.852580;,
  0.649450;0.860920;,
  0.631520;0.863990;,
  0.519520;0.864220;,
  0.520010;0.875050;,
  0.490080;0.833210;,
  0.520000;0.829920;,
  0.521410;0.843010;,
  0.489870;0.842200;,
  0.555660;0.826330;,
  0.554310;0.842620;,
  0.591450;0.828220;,
  0.589090;0.841080;,
  0.614720;0.830180;,
  0.614940;0.843200;,
  0.632400;0.830510;,
  0.636800;0.836750;,
  0.493230;0.824710;,
  0.524250;0.821660;,
  0.558340;0.814170;,
  0.593250;0.816760;,
  0.616370;0.823580;,
  0.634550;0.826310;,
  0.564200;0.852220;,
  0.602640;0.846910;,
  0.630370;0.846240;,
  0.648370;0.848910;,
  0.521530;0.856720;,
  0.479330;0.872110;,
  0.498460;0.878530;,
  0.516220;0.886360;,
  0.560180;0.892510;,
  0.595970;0.902170;,
  0.627390;0.909310;,
  0.655430;0.912430;,
  0.643300;0.937900;,
  0.660400;0.933030;,
  0.597670;0.932160;,
  0.623720;0.938660;,
  0.531560;0.915290;,
  0.566220;0.922930;,
  0.487030;0.909880;,
  0.508900;0.909310;,
  0.463410;0.934280;,
  0.488600;0.936440;,
  0.517360;0.948260;,
  0.540330;0.949720;,
  0.574470;0.956360;,
  0.600980;0.964240;,
  0.633380;0.964000;,
  0.655510;0.959830;,
  0.536660;0.963350;,
  0.517250;0.959190;,
  0.491340;0.947350;,
  0.466670;0.945280;,
  0.658030;0.964190;,
  0.633840;0.969340;,
  0.599520;0.972420;,
  0.571860;0.970760;,
  0.483960;0.918730;,
  0.506510;0.919630;,
  0.529110;0.926570;,
  0.564480;0.934320;,
  0.597550;0.959110;,
  0.598820;0.942080;,
  0.624150;0.946250;,
  0.644700;0.942400;,
  0.661330;0.936130;,
  0.477020;0.879370;,
  0.494000;0.887780;,
  0.514370;0.894700;,
  0.560620;0.903600;,
  0.595280;0.908910;,
  0.625400;0.913940;,
  0.653950;0.917720;,
  0.561250;0.862690;,
  0.600180;0.858420;,
  0.630260;0.852120;,
  0.647370;0.852580;,
  0.519520;0.864220;,
  0.490080;0.833210;,
  0.520000;0.829920;,
  0.555660;0.826330;,
  0.591450;0.828220;,
  0.614720;0.830180;,
  0.632400;0.830510;,
  0.600980;0.964240;,
  0.471080;0.920740;,
  0.470430;0.913370;,
  0.478950;0.907160;,
  0.462270;0.885500;,
  0.460680;0.869270;,
  0.466810;0.860990;,
  0.484180;0.860180;,
  0.489140;0.854320;,
  0.491340;0.870350;,
  0.481030;0.847010;,
  0.473950;0.833960;,
  0.475130;0.826740;,
  0.445550;0.942390;,
  0.443360;0.949280;,
  0.447410;0.956070;,
  0.679400;0.861780;,
  0.682530;0.858940;,
  0.681330;0.855780;,
  0.664820;0.832490;,
  0.667130;0.827540;,
  0.663610;0.824200;,
  0.671980;0.912550;,
  0.675020;0.914310;,
  0.673120;0.919730;,
  0.679850;0.921640;,
  0.684510;0.923740;,
  0.682170;0.931210;,
  0.679370;0.949530;,
  0.681800;0.953520;,
  0.681720;0.960310;,
  0.702170;0.598340;,
  0.426310;0.598340;,
  0.426310;0.598340;,
  0.702170;0.598340;,
  0.702170;0.796410;,
  0.702170;0.796410;,
  0.426310;0.796410;,
  0.426310;0.796410;,
  0.641750;0.798220;,
  0.493900;0.798220;,
  0.493900;0.600570;,
  0.641750;0.600570;,
  0.693100;0.597960;,
  0.434750;0.597960;,
  0.453950;0.613110;,
  0.673900;0.613110;,
  0.693100;0.597960;,
  0.434750;0.597960;,
  0.453950;0.613110;,
  0.673900;0.613110;,
  0.693100;0.597960;,
  0.434750;0.597960;,
  0.453950;0.613110;,
  0.673900;0.613110;,
  0.693100;0.597960;,
  0.434750;0.597960;,
  0.453950;0.613110;,
  0.673900;0.613110;;
 }
}
