xof 0302txt 0064
template Header {
 <3D82AB43-62DA-11cf-AB39-0020AF71E433>
 WORD major;
 WORD minor;
 DWORD flags;
}

template Vector {
 <3D82AB5E-62DA-11cf-AB39-0020AF71E433>
 FLOAT x;
 FLOAT y;
 FLOAT z;
}

template Coords2d {
 <F6F23F44-7686-11cf-8F52-0040333594A3>
 FLOAT u;
 FLOAT v;
}

template Matrix4x4 {
 <F6F23F45-7686-11cf-8F52-0040333594A3>
 array FLOAT matrix[16];
}

template ColorRGBA {
 <35FF44E0-6C7C-11cf-8F52-0040333594A3>
 FLOAT red;
 FLOAT green;
 FLOAT blue;
 FLOAT alpha;
}

template ColorRGB {
 <D3E16E81-7835-11cf-8F52-0040333594A3>
 FLOAT red;
 FLOAT green;
 FLOAT blue;
}

template IndexedColor {
 <1630B820-7842-11cf-8F52-0040333594A3>
 DWORD index;
 ColorRGBA indexColor;
}

template Boolean {
 <4885AE61-78E8-11cf-8F52-0040333594A3>
 WORD truefalse;
}

template Boolean2d {
 <4885AE63-78E8-11cf-8F52-0040333594A3>
 Boolean u;
 Boolean v;
}

template MaterialWrap {
 <4885AE60-78E8-11cf-8F52-0040333594A3>
 Boolean u;
 Boolean v;
}

template TextureFilename {
 <A42790E1-7810-11cf-8F52-0040333594A3>
 STRING filename;
}

template Material {
 <3D82AB4D-62DA-11cf-AB39-0020AF71E433>
 ColorRGBA faceColor;
 FLOAT power;
 ColorRGB specularColor;
 ColorRGB emissiveColor;
 [...]
}

template MeshFace {
 <3D82AB5F-62DA-11cf-AB39-0020AF71E433>
 DWORD nFaceVertexIndices;
 array DWORD faceVertexIndices[nFaceVertexIndices];
}

template MeshFaceWraps {
 <4885AE62-78E8-11cf-8F52-0040333594A3>
 DWORD nFaceWrapValues;
 Boolean2d faceWrapValues;
}

template MeshTextureCoords {
 <F6F23F40-7686-11cf-8F52-0040333594A3>
 DWORD nTextureCoords;
 array Coords2d textureCoords[nTextureCoords];
}

template MeshMaterialList {
 <F6F23F42-7686-11cf-8F52-0040333594A3>
 DWORD nMaterials;
 DWORD nFaceIndexes;
 array DWORD faceIndexes[nFaceIndexes];
 [Material]
}

template MeshNormals {
 <F6F23F43-7686-11cf-8F52-0040333594A3>
 DWORD nNormals;
 array Vector normals[nNormals];
 DWORD nFaceNormals;
 array MeshFace faceNormals[nFaceNormals];
}

template MeshVertexColors {
 <1630B821-7842-11cf-8F52-0040333594A3>
 DWORD nVertexColors;
 array IndexedColor vertexColors[nVertexColors];
}

template Mesh {
 <3D82AB44-62DA-11cf-AB39-0020AF71E433>
 DWORD nVertices;
 array Vector vertices[nVertices];
 DWORD nFaces;
 array MeshFace faces[nFaces];
 [...]
}

Header{
1;
0;
1;
}

Mesh {
 150;
 0.00482;0.04615;0.01252;,
 -0.00875;0.03259;-0.01325;,
 -0.02714;0.05256;0.01215;,
 -0.03418;0.03258;0.03538;,
 -0.03394;0.05257;0.05950;,
 -0.01264;0.03259;0.04606;,
 -0.03791;0.03259;0.07106;,
 -0.01201;0.03258;0.07028;,
 -0.07186;0.03259;-0.01807;,
 -0.06983;0.06021;0.01024;,
 -0.09136;0.03207;0.02222;,
 -0.05248;0.03258;0.02847;,
 0.00102;0.03258;0.02880;,
 0.02692;0.03567;0.01415;,
 0.02618;0.03067;0.00294;,
 0.02847;0.03260;0.02016;,
 -0.10960;0.05302;0.04636;,
 -0.09913;0.03208;0.02459;,
 -0.13185;0.03208;0.03218;,
 -0.13786;0.03434;0.03957;,
 -0.13596;0.03208;0.04764;,
 -0.11092;0.03208;0.06265;,
 -0.07356;0.06021;0.05397;,
 -0.06696;0.03259;0.02846;,
 -0.07828;0.03258;0.06954;,
 0.01884;0.03642;0.06191;,
 0.01236;0.03400;0.05072;,
 0.01768;0.03530;0.06856;,
 -0.10345;0.05301;0.00566;,
 -0.11523;0.03259;0.01668;,
 -0.12492;0.03434;0.00255;,
 -0.12377;0.03259;-0.00302;,
 -0.10717;0.03259;-0.01244;,
 0.00482;0.02375;0.01252;,
 -0.02714;0.01982;0.01215;,
 -0.03394;0.01982;0.05950;,
 -0.06983;0.01513;0.01024;,
 0.02692;0.03018;0.01415;,
 -0.10960;0.01954;0.04636;,
 -0.07356;0.01513;0.05397;,
 0.01884;0.02973;0.06191;,
 -0.10345;0.01954;0.00566;,
 0.14305;0.04270;0.02150;,
 0.14417;0.03910;0.02765;,
 0.14731;0.04180;0.02177;,
 0.14463;0.04112;0.01110;,
 0.14255;0.03836;0.02122;,
 0.14779;0.04390;0.07189;,
 0.15052;0.04254;0.07229;,
 0.14776;0.03973;0.06305;,
 0.14601;0.04123;0.07732;,
 0.14664;0.03992;0.07198;,
 -0.13192;0.02915;-0.03135;,
 0.02812;0.02915;-0.03135;,
 0.02812;0.03258;-0.13644;,
 -0.13192;0.03258;-0.13644;,
 -0.13192;0.03258;0.09201;,
 0.02812;0.03258;0.09201;,
 0.02812;0.02108;-0.13644;,
 -0.13192;0.02108;-0.13644;,
 -0.13192;0.02108;0.09201;,
 0.02812;0.02108;0.09201;,
 -0.13192;0.02108;-0.13644;,
 0.02812;0.02108;-0.13644;,
 0.02376;-0.00187;-0.11946;,
 -0.11249;-0.00187;-0.11946;,
 -0.13192;0.02108;0.09201;,
 -0.11249;-0.00187;0.07503;,
 0.02376;-0.00187;0.07503;,
 0.02812;0.02108;0.09201;,
 -0.15285;0.03258;-0.08174;,
 -0.13192;0.03258;-0.13644;,
 -0.13192;0.02108;-0.13644;,
 -0.15285;0.02108;-0.08174;,
 -0.15815;0.02108;-0.03135;,
 -0.15815;0.03258;-0.03135;,
 -0.15285;0.03258;-0.08174;,
 -0.15815;0.03258;-0.03135;,
 -0.15285;0.02108;-0.08174;,
 -0.12630;-0.00187;-0.07289;,
 -0.12630;-0.00187;-0.02999;,
 -0.15815;0.02108;-0.03135;,
 -0.12630;-0.00187;-0.07289;,
 -0.11249;-0.00187;-0.11946;,
 0.02376;-0.00187;-0.11946;,
 0.03757;-0.00187;-0.07289;,
 0.03757;-0.00187;-0.02999;,
 -0.12630;-0.00187;-0.02999;,
 0.03757;-0.00187;-0.07289;,
 0.04463;0.02108;-0.08174;,
 0.05204;0.02108;-0.03135;,
 0.03757;-0.00187;-0.02999;,
 0.04463;0.02108;-0.08174;,
 0.02812;0.02108;-0.13644;,
 0.02812;0.03258;-0.13644;,
 0.04463;0.03258;-0.08174;,
 0.05204;0.03258;-0.03135;,
 0.05204;0.02108;-0.03135;,
 0.04463;0.03258;-0.08174;,
 0.05204;0.03258;-0.03135;,
 -0.15147;0.03258;0.03433;,
 -0.15147;0.02108;0.03433;,
 -0.13192;0.02108;0.09201;,
 -0.13192;0.03258;0.09201;,
 -0.15147;0.03258;0.03433;,
 -0.15147;0.02108;0.03433;,
 -0.12630;-0.00187;0.02592;,
 -0.12630;-0.00187;0.02592;,
 0.03757;-0.00187;0.02592;,
 0.02376;-0.00187;0.07503;,
 -0.11249;-0.00187;0.07503;,
 0.03757;-0.00187;0.02592;,
 0.04336;0.02108;0.03433;,
 0.04336;0.02108;0.03433;,
 0.04336;0.03258;0.03433;,
 0.02812;0.03258;0.09201;,
 0.02812;0.02108;0.09201;,
 0.04336;0.03258;0.03433;,
 -0.04269;0.04329;-0.05618;,
 -0.04492;0.04329;-0.07867;,
 -0.06322;0.04329;-0.07568;,
 -0.06287;0.04329;-0.05210;,
 -0.07210;0.04329;-0.06584;,
 -0.03269;0.04329;-0.06854;,
 -0.08497;0.03018;-0.05648;,
 -0.06863;0.03169;-0.03700;,
 -0.07116;0.02863;-0.09420;,
 -0.03413;0.02818;-0.09714;,
 -0.01934;0.03039;-0.07065;,
 -0.04269;0.04329;-0.05618;,
 -0.03414;0.03182;-0.03873;,
 -0.09265;0.03259;-0.07372;,
 -0.08094;0.03259;-0.08666;,
 -0.10004;0.03544;-0.10761;,
 -0.10559;0.03544;-0.08974;,
 -0.06554;0.03259;-0.10021;,
 -0.07725;0.03544;-0.10637;,
 -0.00207;0.03960;-0.12055;,
 -0.02364;0.03259;-0.09960;,
 -0.01809;0.03259;-0.07865;,
 0.00902;0.03522;-0.08912;,
 0.00471;0.03259;-0.05955;,
 0.03859;0.03960;-0.06078;,
 0.02689;0.03960;-0.04414;,
 -0.02425;0.03259;-0.03613;,
 -0.01440;0.03960;-0.01826;,
 -0.05445;0.03259;-0.03182;,
 -0.05691;0.03960;-0.02196;,
 -0.05383;0.03259;-0.12178;,
 -0.04705;0.03259;-0.10453;;
 
 120;
 3;0,1,2;,
 3;3,4,5;,
 3;6,7,4;,
 4;2,1,8,9;,
 4;2,9,10,11;,
 4;0,2,11,12;,
 4;13,14,1,0;,
 4;13,0,12,15;,
 4;16,17,18,19;,
 4;16,19,20,21;,
 4;22,23,17,16;,
 4;22,16,21,24;,
 4;4,3,23,22;,
 4;4,22,24,6;,
 4;25,26,5,4;,
 4;25,4,7,27;,
 4;10,9,28,29;,
 3;29,28,30;,
 3;28,31,30;,
 3;32,9,8;,
 3;32,31,28;,
 3;32,28,9;,
 3;33,34,1;,
 3;3,5,35;,
 3;6,35,7;,
 4;34,36,8,1;,
 4;34,11,10,36;,
 4;33,12,11,34;,
 4;37,33,1,14;,
 4;37,15,12,33;,
 4;38,19,18,17;,
 4;38,21,20,19;,
 4;39,38,17,23;,
 4;39,24,21,38;,
 4;35,39,23,3;,
 4;35,6,24,39;,
 4;40,35,5,26;,
 4;40,27,7,35;,
 4;10,29,41,36;,
 3;29,30,41;,
 3;41,30,31;,
 3;32,8,36;,
 3;32,41,31;,
 3;32,36,41;,
 3;42,43,44;,
 3;42,13,15;,
 3;42,15,43;,
 3;42,14,13;,
 3;42,44,45;,
 3;42,45,14;,
 3;46,45,44;,
 3;46,37,14;,
 3;46,14,45;,
 3;46,15,37;,
 3;46,44,43;,
 3;46,43,15;,
 3;47,26,25;,
 3;47,48,49;,
 3;47,49,26;,
 3;47,50,48;,
 3;47,25,27;,
 3;47,27,50;,
 3;51,27,40;,
 3;51,48,50;,
 3;51,50,27;,
 3;51,49,48;,
 3;51,40,26;,
 3;51,26,49;,
 4;52,53,54,55;,
 4;52,56,57,53;,
 4;55,54,58,59;,
 4;56,60,61,57;,
 4;62,63,64,65;,
 4;66,67,68,69;,
 4;70,71,72,73;,
 4;70,73,74,75;,
 3;76,52,55;,
 3;76,77,52;,
 4;78,62,65,79;,
 4;78,79,80,81;,
 4;82,83,84,85;,
 4;82,85,86,87;,
 4;88,64,63,89;,
 4;88,89,90,91;,
 4;92,93,94,95;,
 4;92,95,96,97;,
 3;98,53,99;,
 3;98,54,53;,
 4;100,75,74,101;,
 4;100,101,102,103;,
 3;104,52,77;,
 3;104,56,52;,
 4;105,81,80,106;,
 4;105,106,67,66;,
 4;107,87,86,108;,
 4;107,108,109,110;,
 4;111,91,90,112;,
 4;111,112,69,68;,
 4;113,97,96,114;,
 4;113,114,115,116;,
 3;117,53,57;,
 3;117,99,53;,
 4;118,119,120,121;,
 3;120,122,121;,
 3;118,123,119;,
 4;122,124,125,121;,
 4;120,126,124,122;,
 4;119,127,126,120;,
 4;123,128,127,119;,
 4;123,129,130,128;,
 4;121,125,130,118;,
 4;131,132,133,134;,
 4;135,136,133,132;,
 4;137,138,139,140;,
 4;140,139,141,142;,
 3;143,142,141;,
 4;141,144,145,143;,
 4;144,146,147,145;,
 4;137,148,149,138;,
 4;148,136,135,149;;
 
 MeshMaterialList {
  8;
  120;
  5,
  5,
  5,
  5,
  5,
  5,
  5,
  5,
  5,
  5,
  5,
  5,
  5,
  5,
  5,
  5,
  5,
  5,
  5,
  5,
  5,
  5,
  5,
  5,
  5,
  5,
  5,
  5,
  5,
  5,
  5,
  5,
  5,
  5,
  5,
  5,
  5,
  5,
  5,
  5,
  5,
  5,
  5,
  5,
  5,
  5,
  5,
  5,
  5,
  5,
  5,
  5,
  5,
  5,
  5,
  5,
  5,
  5,
  5,
  5,
  5,
  5,
  5,
  5,
  5,
  5,
  5,
  5,
  6,
  6,
  6,
  6,
  6,
  6,
  6,
  6,
  6,
  6,
  6,
  6,
  6,
  6,
  6,
  6,
  6,
  6,
  6,
  6,
  6,
  6,
  6,
  6,
  6,
  6,
  6,
  6,
  6,
  6,
  6,
  6,
  6,
  6,
  5,
  5,
  5,
  5,
  5,
  5,
  5,
  5,
  5,
  5,
  5,
  5,
  5,
  5,
  5,
  5,
  5,
  5;;
  Material {
   0.800000;0.800000;0.800000;1.000000;;
   5.000000;
   0.000000;0.000000;0.000000;;
   0.000000;0.000000;0.000000;;
   TextureFilename {
    "iztex01.png";
   }
  }
  Material {
   0.668000;0.633600;0.351200;1.000000;;
   5.000000;
   0.000000;0.000000;0.000000;;
   0.258850;0.245520;0.136090;;
   TextureFilename {
    "iztex01.png";
   }
  }
  Material {
   0.298400;0.125600;0.112800;1.000000;;
   18.000000;
   0.200000;0.200000;0.200000;;
   0.134280;0.056520;0.050760;;
   TextureFilename {
    "iztex01.png";
   }
  }
  Material {
   0.061410;0.011730;0.011730;1.000000;;
   30.000000;
   0.300000;0.300000;0.300000;;
   0.000000;0.000000;0.000000;;
   TextureFilename {
    "iztex01.png";
   }
  }
  Material {
   0.800000;0.166400;0.000000;1.000000;;
   5.000000;
   0.450000;0.450000;0.450000;;
   0.000000;0.000000;0.000000;;
   TextureFilename {
    "iztex01.png";
   }
  }
  Material {
   0.800000;0.800000;0.800000;1.000000;;
   5.000000;
   0.100000;0.100000;0.100000;;
   0.390000;0.390000;0.390000;;
   TextureFilename {
    "iztex01.png";
   }
  }
  Material {
   0.800000;0.800000;0.800000;1.000000;;
   26.000000;
   0.410000;0.410000;0.410000;;
   0.400000;0.400000;0.400000;;
   TextureFilename {
    "iztex01.png";
   }
  }
  Material {
   0.800000;0.800000;0.800000;0.300000;;
   54.000000;
   0.710000;0.710000;0.710000;;
   0.750000;0.750000;0.750000;;
   TextureFilename {
    "iztex01.png";
   }
  }
 }
 MeshNormals {
  125;
  -0.966999;-0.091986;0.237594;,
  -0.488916;0.864291;-0.118164;,
  -0.089534;0.987676;-0.128371;,
  0.106410;0.985167;0.134619;,
  0.251227;0.964813;0.077590;,
  0.134476;0.990215;0.037280;,
  -0.959014;-0.249372;-0.134558;,
  -0.341615;0.939829;-0.004577;,
  -0.012271;0.993106;0.116576;,
  0.172333;0.980495;0.094503;,
  0.035150;0.998990;-0.027986;,
  -0.144635;-0.115868;0.982678;,
  -0.502882;-0.155203;-0.850307;,
  -0.216003;-0.141534;-0.966080;,
  -0.761039;-0.174967;0.624665;,
  -0.507318;-0.150437;0.848527;,
  0.015516;0.098778;0.994989;,
  -0.388291;-0.921536;0.001315;,
  -0.061200;-0.996855;-0.050345;,
  0.062866;-0.990778;0.120030;,
  0.146049;-0.983745;0.104481;,
  0.126228;-0.982708;0.135470;,
  0.980397;0.144762;0.133658;,
  -0.241900;-0.970288;0.005058;,
  -0.005781;-0.993263;0.115737;,
  0.131647;-0.979931;0.149680;,
  0.113164;-0.985396;0.127232;,
  0.969655;-0.016184;0.243941;,
  -0.791511;-0.098039;-0.603241;,
  -0.007026;-0.108768;-0.994042;,
  0.351351;-0.122691;-0.928170;,
  0.376220;-0.127912;-0.917659;,
  0.121940;-0.110086;0.986414;,
  0.211821;-0.093421;0.972833;,
  0.017221;-0.109749;0.993810;,
  -0.559664;-0.118799;0.820161;,
  0.164132;-0.111064;-0.980166;,
  0.354557;-0.105357;-0.929080;,
  0.385702;-0.092229;-0.918002;,
  0.220558;-0.050422;-0.974070;,
  -0.145001;-0.113243;0.982930;,
  -0.001615;-0.106077;0.994357;,
  0.068153;-0.022711;0.997416;,
  0.789813;0.179590;-0.586467;,
  0.829635;-0.093394;-0.550440;,
  0.562895;-0.064425;0.824014;,
  0.493185;-0.045134;0.868753;,
  -0.241557;-0.112577;-0.963834;,
  0.017266;0.989800;0.141411;,
  0.254889;-0.966962;0.004059;,
  0.110137;0.993804;0.014972;,
  0.229574;-0.960898;0.154826;,
  0.000000;-0.313079;0.949727;,
  0.000000;-0.313079;-0.949727;,
  0.041000;0.998771;-0.027828;,
  -0.052492;0.998234;-0.027813;,
  0.042599;0.998558;0.032657;,
  -0.053926;0.998011;0.032639;,
  -0.237881;-0.891052;-0.386573;,
  0.000000;-0.892939;-0.450178;,
  0.000000;-0.892939;0.450178;,
  -0.245706;-0.890419;0.383121;,
  0.999973;0.000000;-0.007335;,
  0.975465;-0.220095;-0.005173;,
  -0.999999;0.000000;-0.001663;,
  0.000000;-1.000000;-0.000000;,
  -0.899096;-0.437751;-0.000927;,
  -0.327209;-0.944952;-0.000004;,
  -0.083009;0.996547;0.001964;,
  0.071281;0.997455;0.001683;,
  -0.972497;0.000000;-0.232916;,
  -0.881702;-0.428564;-0.197318;,
  -0.329645;-0.941815;-0.065710;,
  0.957931;-0.208207;-0.197529;,
  0.975994;0.000000;-0.217795;,
  -0.977183;0.000000;0.212398;,
  -0.888769;-0.420852;0.181588;,
  -0.338118;-0.939038;0.062324;,
  0.965069;-0.191904;0.178367;,
  0.981079;0.000000;0.193608;,
  0.022894;0.980294;0.196211;,
  -0.123503;0.960347;0.249960;,
  -0.429664;0.902988;-0.000826;,
  -0.192245;0.943353;-0.270419;,
  0.113970;0.952758;-0.281538;,
  0.386473;0.921496;-0.038512;,
  0.563737;0.761254;0.320457;,
  -0.627392;0.778703;-0.001251;,
  -0.371107;0.767931;-0.522074;,
  0.221710;0.806600;-0.547943;,
  0.569872;0.819767;-0.056812;,
  0.327767;0.824668;0.460969;,
  -0.242984;0.836194;0.491670;,
  0.106850;0.992228;0.063770;,
  0.088865;0.989962;0.109901;,
  0.082016;0.991262;0.103314;,
  -0.001569;0.994364;0.106009;,
  -0.104700;0.985673;0.132239;,
  -0.123350;0.988598;0.086366;,
  -0.170749;0.984567;-0.038383;,
  -0.191129;0.962110;-0.194460;,
  -0.102137;0.922774;-0.371560;,
  -0.025928;0.870751;-0.491040;,
  -0.173347;0.978965;-0.107604;,
  0.000000;0.000000;-1.000000;,
  0.000000;-0.000000;1.000000;,
  -0.933972;0.000000;-0.357347;,
  -0.855911;-0.411565;-0.313099;,
  0.107560;0.993930;0.023120;,
  0.129947;0.991521;0.000218;,
  0.897408;-0.407774;-0.168461;,
  0.889533;-0.371395;-0.266076;,
  0.940419;-0.189110;-0.282578;,
  0.903821;-0.427902;-0.002775;,
  0.957364;0.000000;-0.288883;,
  -0.124972;0.991801;0.026712;,
  -0.142238;0.989832;0.001063;,
  -0.869507;-0.403646;0.284654;,
  -0.947120;0.000000;0.320879;,
  0.105967;0.994158;-0.020496;,
  0.912834;-0.377192;0.156394;,
  0.951655;-0.170743;0.255344;,
  0.908520;-0.336469;0.247751;,
  0.966827;0.000000;0.255434;,
  -0.123549;0.992066;-0.023250;;
  120;
  3;4,30,3;,
  3;37,9,38;,
  3;41,42,9;,
  4;3,30,29,2;,
  4;3,2,11,34;,
  4;4,3,34,33;,
  4;5,31,30,4;,
  4;5,4,33,32;,
  4;7,13,12,6;,
  4;7,6,14,15;,
  4;8,36,13,7;,
  4;8,7,15,40;,
  4;9,37,36,8;,
  4;9,8,40,41;,
  4;10,39,38,9;,
  4;10,9,42,16;,
  4;11,2,1,35;,
  3;35,1,0;,
  3;1,28,0;,
  3;47,2,29;,
  3;47,28,1;,
  3;47,1,2;,
  3;20,19,30;,
  3;37,38,25;,
  3;41,25,42;,
  4;19,18,29,30;,
  4;19,34,11,18;,
  4;20,33,34,19;,
  4;21,20,30,31;,
  4;21,32,33,20;,
  4;23,6,12,13;,
  4;23,15,14,6;,
  4;24,23,13,36;,
  4;24,40,15,23;,
  4;25,24,36,37;,
  4;25,41,40,24;,
  4;26,25,38,39;,
  4;26,16,42,25;,
  4;11,35,17,18;,
  3;35,0,17;,
  3;17,0,28;,
  3;47,29,18;,
  3;47,17,28;,
  3;47,18,17;,
  3;48,45,22;,
  3;48,5,32;,
  3;48,32,45;,
  3;48,31,5;,
  3;48,22,43;,
  3;48,43,31;,
  3;49,43,22;,
  3;49,21,31;,
  3;49,31,43;,
  3;49,32,21;,
  3;49,22,45;,
  3;49,45,32;,
  3;50,39,10;,
  3;50,27,44;,
  3;50,44,39;,
  3;50,46,27;,
  3;50,10,16;,
  3;50,16,46;,
  3;51,16,26;,
  3;51,27,46;,
  3;51,46,16;,
  3;51,44,27;,
  3;51,26,39;,
  3;51,39,44;,
  4;69,68,57,56;,
  4;69,54,55,68;,
  4;104,104,53,53;,
  4;105,52,52,105;,
  4;53,53,59,58;,
  4;52,61,60,52;,
  4;70,106,107,71;,
  4;70,71,66,64;,
  3;108,69,56;,
  3;108,109,69;,
  4;71,107,58,72;,
  4;71,72,67,66;,
  4;72,58,59,65;,
  4;72,65,65,67;,
  4;110,111,112,73;,
  4;110,73,63,113;,
  4;73,112,114,74;,
  4;73,74,62,63;,
  3;115,68,116;,
  3;115,57,68;,
  4;75,64,66,76;,
  4;75,76,117,118;,
  3;119,69,109;,
  3;119,54,69;,
  4;76,66,67,77;,
  4;76,77,61,117;,
  4;77,67,65,65;,
  4;77,65,60,61;,
  4;120,113,63,78;,
  4;120,78,121,122;,
  4;78,63,62,79;,
  4;78,79,123,121;,
  3;124,68,55;,
  3;124,116,68;,
  4;80,84,83,81;,
  3;83,82,81;,
  3;80,85,84;,
  4;82,87,92,81;,
  4;83,88,87,82;,
  4;84,89,88,83;,
  4;85,90,89,84;,
  4;85,86,91,90;,
  4;81,92,91,80;,
  4;93,94,94,93;,
  4;95,95,94,94;,
  4;97,97,98,98;,
  4;98,98,103,99;,
  3;100,99,103;,
  4;103,101,101,100;,
  4;101,102,102,101;,
  4;97,96,96,97;,
  4;96,95,95,96;;
 }
 MeshTextureCoords {
  150;
  0.787370;0.831880;,
  0.780500;0.846420;,
  0.771190;0.832090;,
  0.767620;0.818980;,
  0.767740;0.805370;,
  0.778530;0.812960;,
  0.765730;0.798850;,
  0.778850;0.799290;,
  0.748540;0.849140;,
  0.749570;0.833170;,
  0.738670;0.826410;,
  0.758350;0.822880;,
  0.785450;0.822700;,
  0.798560;0.830960;,
  0.798190;0.837280;,
  0.799340;0.827570;,
  0.729430;0.812790;,
  0.734730;0.825070;,
  0.718160;0.820780;,
  0.715120;0.816620;,
  0.716080;0.812070;,
  0.728760;0.803600;,
  0.747680;0.808490;,
  0.751020;0.822880;,
  0.745290;0.799710;,
  0.794460;0.804010;,
  0.791190;0.810320;,
  0.793880;0.800260;,
  0.732540;0.835750;,
  0.726580;0.829530;,
  0.721670;0.837510;,
  0.722260;0.840650;,
  0.730660;0.845960;,
  0.787370;0.831880;,
  0.771190;0.832090;,
  0.767740;0.805370;,
  0.749570;0.833170;,
  0.798560;0.830960;,
  0.729430;0.812790;,
  0.747680;0.808490;,
  0.794460;0.804010;,
  0.732540;0.835750;,
  0.857360;0.826810;,
  0.860010;0.823280;,
  0.859520;0.826660;,
  0.859700;0.832750;,
  0.857090;0.826830;,
  0.859750;0.798280;,
  0.861150;0.798160;,
  0.859750;0.803370;,
  0.861030;0.794920;,
  0.859180;0.798330;,
  0.726370;0.933720;,
  0.814550;0.933720;,
  0.814550;0.987360;,
  0.726370;0.987360;,
  0.726370;0.861180;,
  0.814550;0.861180;,
  0.814550;0.991870;,
  0.726370;0.991870;,
  0.726370;0.856670;,
  0.814550;0.856670;,
  0.885110;0.923410;,
  0.885640;0.957680;,
  0.881800;0.956170;,
  0.881350;0.927000;,
  0.833670;0.924190;,
  0.837560;0.927670;,
  0.838010;0.956850;,
  0.834200;0.958460;,
  0.791250;0.988020;,
  0.807030;0.987960;,
  0.807030;0.990970;,
  0.791250;0.991030;,
  0.776680;0.991050;,
  0.776680;0.988040;,
  0.719520;0.959440;,
  0.713220;0.933720;,
  0.872750;0.920670;,
  0.870870;0.927160;,
  0.861210;0.927310;,
  0.861360;0.918150;,
  0.842470;0.949980;,
  0.842470;0.957280;,
  0.878020;0.957280;,
  0.878020;0.949980;,
  0.878020;0.943250;,
  0.842470;0.943250;,
  0.871320;0.956340;,
  0.873370;0.960530;,
  0.862060;0.963160;,
  0.861660;0.956480;,
  0.756020;0.992160;,
  0.740290;0.992330;,
  0.740290;0.987990;,
  0.756020;0.987820;,
  0.770540;0.987740;,
  0.770540;0.992080;,
  0.822850;0.958970;,
  0.830500;0.932800;,
  0.757650;0.988020;,
  0.757650;0.991030;,
  0.740890;0.990980;,
  0.740890;0.987970;,
  0.720220;0.895100;,
  0.846620;0.921370;,
  0.848610;0.927500;,
  0.842470;0.934480;,
  0.878020;0.934480;,
  0.878020;0.926770;,
  0.842470;0.926770;,
  0.849070;0.956680;,
  0.847230;0.960660;,
  0.789510;0.992160;,
  0.789510;0.987820;,
  0.806200;0.987970;,
  0.806200;0.992310;,
  0.822010;0.894670;,
  0.776160;0.944940;,
  0.775000;0.957750;,
  0.765530;0.956050;,
  0.765710;0.942610;,
  0.760940;0.950440;,
  0.781330;0.951980;,
  0.754270;0.945110;,
  0.762730;0.934010;,
  0.761420;0.966590;,
  0.780580;0.968270;,
  0.788240;0.953180;,
  0.776160;0.944940;,
  0.780580;0.935000;,
  0.750300;0.954930;,
  0.756360;0.962300;,
  0.746480;0.974230;,
  0.743610;0.964050;,
  0.764330;0.970020;,
  0.758270;0.973530;,
  0.797170;0.981600;,
  0.786010;0.969670;,
  0.788880;0.957740;,
  0.802910;0.963700;,
  0.800680;0.946860;,
  0.818220;0.947560;,
  0.812160;0.938080;,
  0.785690;0.933520;,
  0.790790;0.923340;,
  0.770070;0.931060;,
  0.768800;0.925440;,
  0.770390;0.982310;,
  0.773900;0.972480;;
 }
}
