xof 0302txt 0064
template Header {
 <3D82AB43-62DA-11cf-AB39-0020AF71E433>
 WORD major;
 WORD minor;
 DWORD flags;
}

template Vector {
 <3D82AB5E-62DA-11cf-AB39-0020AF71E433>
 FLOAT x;
 FLOAT y;
 FLOAT z;
}

template Coords2d {
 <F6F23F44-7686-11cf-8F52-0040333594A3>
 FLOAT u;
 FLOAT v;
}

template Matrix4x4 {
 <F6F23F45-7686-11cf-8F52-0040333594A3>
 array FLOAT matrix[16];
}

template ColorRGBA {
 <35FF44E0-6C7C-11cf-8F52-0040333594A3>
 FLOAT red;
 FLOAT green;
 FLOAT blue;
 FLOAT alpha;
}

template ColorRGB {
 <D3E16E81-7835-11cf-8F52-0040333594A3>
 FLOAT red;
 FLOAT green;
 FLOAT blue;
}

template IndexedColor {
 <1630B820-7842-11cf-8F52-0040333594A3>
 DWORD index;
 ColorRGBA indexColor;
}

template Boolean {
 <4885AE61-78E8-11cf-8F52-0040333594A3>
 WORD truefalse;
}

template Boolean2d {
 <4885AE63-78E8-11cf-8F52-0040333594A3>
 Boolean u;
 Boolean v;
}

template MaterialWrap {
 <4885AE60-78E8-11cf-8F52-0040333594A3>
 Boolean u;
 Boolean v;
}

template TextureFilename {
 <A42790E1-7810-11cf-8F52-0040333594A3>
 STRING filename;
}

template Material {
 <3D82AB4D-62DA-11cf-AB39-0020AF71E433>
 ColorRGBA faceColor;
 FLOAT power;
 ColorRGB specularColor;
 ColorRGB emissiveColor;
 [...]
}

template MeshFace {
 <3D82AB5F-62DA-11cf-AB39-0020AF71E433>
 DWORD nFaceVertexIndices;
 array DWORD faceVertexIndices[nFaceVertexIndices];
}

template MeshFaceWraps {
 <4885AE62-78E8-11cf-8F52-0040333594A3>
 DWORD nFaceWrapValues;
 Boolean2d faceWrapValues;
}

template MeshTextureCoords {
 <F6F23F40-7686-11cf-8F52-0040333594A3>
 DWORD nTextureCoords;
 array Coords2d textureCoords[nTextureCoords];
}

template MeshMaterialList {
 <F6F23F42-7686-11cf-8F52-0040333594A3>
 DWORD nMaterials;
 DWORD nFaceIndexes;
 array DWORD faceIndexes[nFaceIndexes];
 [Material]
}

template MeshNormals {
 <F6F23F43-7686-11cf-8F52-0040333594A3>
 DWORD nNormals;
 array Vector normals[nNormals];
 DWORD nFaceNormals;
 array MeshFace faceNormals[nFaceNormals];
}

template MeshVertexColors {
 <1630B821-7842-11cf-8F52-0040333594A3>
 DWORD nVertexColors;
 array IndexedColor vertexColors[nVertexColors];
}

template Mesh {
 <3D82AB44-62DA-11cf-AB39-0020AF71E433>
 DWORD nVertices;
 array Vector vertices[nVertices];
 DWORD nFaces;
 array MeshFace faces[nFaces];
 [...]
}

Header{
1;
0;
1;
}

Mesh {
 26;
 -0.00125;0.01129;-0.09704;,
 0.02377;-0.00228;-0.11195;,
 -0.00256;0.01770;-0.12898;,
 0.02529;-0.00228;-0.17522;,
 -0.00288;0.02534;-0.17172;,
 -0.01597;-0.00279;-0.19259;,
 -0.02019;-0.00228;-0.15343;,
 -0.01771;-0.00228;-0.09998;,
 -0.00173;0.00081;-0.07489;,
 0.00943;-0.00420;-0.07621;,
 -0.00765;-0.00226;-0.07303;,
 -0.00007;0.01815;-0.20553;,
 -0.01170;-0.00228;-0.21671;,
 0.00191;-0.00053;-0.22713;,
 0.00754;-0.00228;-0.22627;,
 0.01781;-0.00228;-0.21019;,
 -0.00125;-0.01111;-0.09704;,
 -0.00256;-0.01504;-0.12898;,
 -0.00288;-0.01973;-0.17172;,
 -0.00173;-0.00468;-0.07489;,
 -0.00007;-0.01532;-0.20553;,
 -0.00299;0.00783;0.04146;,
 -0.00907;0.00423;0.04291;,
 -0.00303;0.00693;0.04573;,
 0.00748;0.00625;0.04250;,
 -0.00274;0.00349;0.04096;;
 
 36;
 3;0,1,2;,
 4;2,1,3,4;,
 4;2,4,5,6;,
 4;0,2,6,7;,
 4;8,9,1,0;,
 4;8,0,7,10;,
 4;5,4,11,12;,
 3;12,11,13;,
 3;11,14,13;,
 3;15,4,3;,
 3;15,14,11;,
 3;15,11,4;,
 3;16,17,1;,
 4;17,18,3,1;,
 4;17,6,5,18;,
 4;16,7,6,17;,
 4;19,16,1,9;,
 4;19,10,7,16;,
 4;5,12,20,18;,
 3;12,13,20;,
 3;20,13,14;,
 3;15,3,18;,
 3;15,20,14;,
 3;15,18,20;,
 3;21,22,23;,
 3;21,8,10;,
 3;21,10,22;,
 3;21,9,8;,
 3;21,23,24;,
 3;21,24,9;,
 3;25,24,23;,
 3;25,19,9;,
 3;25,9,24;,
 3;25,10,19;,
 3;25,23,22;,
 3;25,22,10;;
 
 MeshMaterialList {
  8;
  36;
  0,
  0,
  0,
  0,
  0,
  0,
  0,
  0,
  0,
  0,
  0,
  0,
  0,
  0,
  0,
  0,
  0,
  0,
  0,
  0,
  0,
  0,
  0,
  0,
  0,
  0,
  0,
  0,
  0,
  0,
  0,
  0,
  0,
  0,
  0,
  0;;
  Material {
   0.800000;0.800000;0.800000;1.000000;;
   5.000000;
   0.000000;0.000000;0.000000;;
   0.000000;0.000000;0.000000;;
   TextureFilename {
    "iztex01.png";
   }
  }
  Material {
   0.668000;0.633600;0.351200;1.000000;;
   5.000000;
   0.000000;0.000000;0.000000;;
   0.258850;0.245520;0.136090;;
   TextureFilename {
    "iztex01.png";
   }
  }
  Material {
   0.298400;0.125600;0.112800;1.000000;;
   18.000000;
   0.200000;0.200000;0.200000;;
   0.134280;0.056520;0.050760;;
   TextureFilename {
    "iztex01.png";
   }
  }
  Material {
   0.061410;0.011730;0.011730;1.000000;;
   30.000000;
   0.300000;0.300000;0.300000;;
   0.000000;0.000000;0.000000;;
   TextureFilename {
    "iztex01.png";
   }
  }
  Material {
   0.800000;0.166400;0.000000;1.000000;;
   5.000000;
   0.450000;0.450000;0.450000;;
   0.000000;0.000000;0.000000;;
   TextureFilename {
    "iztex01.png";
   }
  }
  Material {
   0.800000;0.800000;0.800000;1.000000;;
   5.000000;
   0.100000;0.100000;0.100000;;
   0.390000;0.390000;0.390000;;
   TextureFilename {
    "iztex01.png";
   }
  }
  Material {
   0.800000;0.800000;0.800000;1.000000;;
   26.000000;
   0.410000;0.410000;0.410000;;
   0.400000;0.400000;0.400000;;
   TextureFilename {
    "iztex01.png";
   }
  }
  Material {
   0.800000;0.800000;0.800000;0.300000;;
   54.000000;
   0.710000;0.710000;0.710000;;
   0.750000;0.750000;0.750000;;
   TextureFilename {
    "iztex01.png";
   }
  }
 }
 MeshNormals {
  26;
  -0.287876;-0.091986;-0.953240;,
  0.092415;0.864291;-0.494430;,
  0.123510;0.987676;-0.096130;,
  -0.128865;0.985167;0.113309;,
  -0.064336;0.964813;0.254943;,
  -0.030191;0.990215;0.136243;,
  -0.988900;-0.115868;-0.093008;,
  -0.021634;-0.921536;-0.387690;,
  0.047073;-0.996855;-0.063751;,
  -0.116575;-0.990778;0.069062;,
  -0.096694;-0.983745;0.151317;,
  -0.128678;-0.982708;0.133145;,
  -0.082166;0.144762;0.986049;,
  0.560991;-0.098039;-0.821996;,
  0.992312;-0.108768;-0.059040;,
  0.945286;-0.122691;0.302292;,
  0.936091;-0.127912;0.327678;,
  -0.978680;-0.110086;0.173398;,
  -0.960414;-0.093421;0.262445;,
  -0.991547;-0.109749;0.069209;,
  -0.848327;-0.118799;-0.515973;,
  0.626999;0.179589;0.758037;,
  -0.793425;-0.064425;0.605249;,
  0.949871;-0.112577;-0.291669;,
  -0.140313;0.989800;0.024643;,
  0.009287;-0.966962;0.254752;;
  36;
  3;4,15,3;,
  4;3,15,14,2;,
  4;3,2,6,19;,
  4;4,3,19,18;,
  4;5,16,15,4;,
  4;5,4,18,17;,
  4;6,2,1,20;,
  3;20,1,0;,
  3;1,13,0;,
  3;23,2,14;,
  3;23,13,1;,
  3;23,1,2;,
  3;10,9,15;,
  4;9,8,14,15;,
  4;9,19,6,8;,
  4;10,18,19,9;,
  4;11,10,15,16;,
  4;11,17,18,10;,
  4;6,20,7,8;,
  3;20,0,7;,
  3;7,0,13;,
  3;23,14,8;,
  3;23,7,13;,
  3;23,8,7;,
  3;24,22,12;,
  3;24,5,17;,
  3;24,17,22;,
  3;24,16,5;,
  3;24,12,21;,
  3;24,21,16;,
  3;25,21,12;,
  3;25,11,16;,
  3;25,16,21;,
  3;25,17,11;,
  3;25,12,22;,
  3;25,22,17;;
 }
 MeshTextureCoords {
  26;
  0.787370;0.831880;,
  0.780500;0.846420;,
  0.771190;0.832090;,
  0.748540;0.849140;,
  0.749570;0.833170;,
  0.738670;0.826410;,
  0.758350;0.822880;,
  0.785450;0.822700;,
  0.798560;0.830960;,
  0.798190;0.837280;,
  0.799340;0.827570;,
  0.732540;0.835750;,
  0.726580;0.829530;,
  0.721670;0.837510;,
  0.722260;0.840650;,
  0.730660;0.845960;,
  0.787370;0.831880;,
  0.771190;0.832090;,
  0.749570;0.833170;,
  0.798560;0.830960;,
  0.732540;0.835750;,
  0.857360;0.826810;,
  0.860010;0.823280;,
  0.859520;0.826660;,
  0.859700;0.832750;,
  0.857090;0.826830;;
 }
}
