xof 0302txt 0064
template Header {
 <3D82AB43-62DA-11cf-AB39-0020AF71E433>
 WORD major;
 WORD minor;
 DWORD flags;
}

template Vector {
 <3D82AB5E-62DA-11cf-AB39-0020AF71E433>
 FLOAT x;
 FLOAT y;
 FLOAT z;
}

template Coords2d {
 <F6F23F44-7686-11cf-8F52-0040333594A3>
 FLOAT u;
 FLOAT v;
}

template Matrix4x4 {
 <F6F23F45-7686-11cf-8F52-0040333594A3>
 array FLOAT matrix[16];
}

template ColorRGBA {
 <35FF44E0-6C7C-11cf-8F52-0040333594A3>
 FLOAT red;
 FLOAT green;
 FLOAT blue;
 FLOAT alpha;
}

template ColorRGB {
 <D3E16E81-7835-11cf-8F52-0040333594A3>
 FLOAT red;
 FLOAT green;
 FLOAT blue;
}

template IndexedColor {
 <1630B820-7842-11cf-8F52-0040333594A3>
 DWORD index;
 ColorRGBA indexColor;
}

template Boolean {
 <4885AE61-78E8-11cf-8F52-0040333594A3>
 WORD truefalse;
}

template Boolean2d {
 <4885AE63-78E8-11cf-8F52-0040333594A3>
 Boolean u;
 Boolean v;
}

template MaterialWrap {
 <4885AE60-78E8-11cf-8F52-0040333594A3>
 Boolean u;
 Boolean v;
}

template TextureFilename {
 <A42790E1-7810-11cf-8F52-0040333594A3>
 STRING filename;
}

template Material {
 <3D82AB4D-62DA-11cf-AB39-0020AF71E433>
 ColorRGBA faceColor;
 FLOAT power;
 ColorRGB specularColor;
 ColorRGB emissiveColor;
 [...]
}

template MeshFace {
 <3D82AB5F-62DA-11cf-AB39-0020AF71E433>
 DWORD nFaceVertexIndices;
 array DWORD faceVertexIndices[nFaceVertexIndices];
}

template MeshFaceWraps {
 <4885AE62-78E8-11cf-8F52-0040333594A3>
 DWORD nFaceWrapValues;
 Boolean2d faceWrapValues;
}

template MeshTextureCoords {
 <F6F23F40-7686-11cf-8F52-0040333594A3>
 DWORD nTextureCoords;
 array Coords2d textureCoords[nTextureCoords];
}

template MeshMaterialList {
 <F6F23F42-7686-11cf-8F52-0040333594A3>
 DWORD nMaterials;
 DWORD nFaceIndexes;
 array DWORD faceIndexes[nFaceIndexes];
 [Material]
}

template MeshNormals {
 <F6F23F43-7686-11cf-8F52-0040333594A3>
 DWORD nNormals;
 array Vector normals[nNormals];
 DWORD nFaceNormals;
 array MeshFace faceNormals[nFaceNormals];
}

template MeshVertexColors {
 <1630B821-7842-11cf-8F52-0040333594A3>
 DWORD nVertexColors;
 array IndexedColor vertexColors[nVertexColors];
}

template Mesh {
 <3D82AB44-62DA-11cf-AB39-0020AF71E433>
 DWORD nVertices;
 array Vector vertices[nVertices];
 DWORD nFaces;
 array MeshFace faces[nFaces];
 [...]
}

Header{
1;
0;
1;
}

Mesh {
 98;
 -0.13192;0.02915;-0.03135;,
 0.02812;0.02915;-0.03135;,
 0.02812;0.03258;-0.13644;,
 -0.13192;0.03258;-0.13644;,
 -0.13192;0.03258;0.09201;,
 0.02812;0.03258;0.09201;,
 0.02812;0.02108;-0.13644;,
 -0.13192;0.02108;-0.13644;,
 -0.13192;0.02108;0.09201;,
 0.02812;0.02108;0.09201;,
 -0.13192;0.02108;-0.13644;,
 0.02812;0.02108;-0.13644;,
 0.02376;-0.00187;-0.11946;,
 -0.11249;-0.00187;-0.11946;,
 -0.13192;0.02108;0.09201;,
 -0.11249;-0.00187;0.07503;,
 0.02376;-0.00187;0.07503;,
 0.02812;0.02108;0.09201;,
 -0.15285;0.03258;-0.08174;,
 -0.13192;0.03258;-0.13644;,
 -0.13192;0.02108;-0.13644;,
 -0.15285;0.02108;-0.08174;,
 -0.15815;0.02108;-0.03135;,
 -0.15815;0.03258;-0.03135;,
 -0.15285;0.03258;-0.08174;,
 -0.15815;0.03258;-0.03135;,
 -0.15285;0.02108;-0.08174;,
 -0.12630;-0.00187;-0.07289;,
 -0.12630;-0.00187;-0.02999;,
 -0.15815;0.02108;-0.03135;,
 -0.12630;-0.00187;-0.07289;,
 -0.11249;-0.00187;-0.11946;,
 0.02376;-0.00187;-0.11946;,
 0.03757;-0.00187;-0.07289;,
 0.03757;-0.00187;-0.02999;,
 -0.12630;-0.00187;-0.02999;,
 0.03757;-0.00187;-0.07289;,
 0.04463;0.02108;-0.08174;,
 0.05204;0.02108;-0.03135;,
 0.03757;-0.00187;-0.02999;,
 0.04463;0.02108;-0.08174;,
 0.02812;0.02108;-0.13644;,
 0.02812;0.03258;-0.13644;,
 0.04463;0.03258;-0.08174;,
 0.05204;0.03258;-0.03135;,
 0.05204;0.02108;-0.03135;,
 0.04463;0.03258;-0.08174;,
 0.05204;0.03258;-0.03135;,
 -0.15147;0.03258;0.03433;,
 -0.15147;0.02108;0.03433;,
 -0.13192;0.02108;0.09201;,
 -0.13192;0.03258;0.09201;,
 -0.15147;0.03258;0.03433;,
 -0.15147;0.02108;0.03433;,
 -0.12630;-0.00187;0.02592;,
 -0.12630;-0.00187;0.02592;,
 0.03757;-0.00187;0.02592;,
 0.02376;-0.00187;0.07503;,
 -0.11249;-0.00187;0.07503;,
 0.03757;-0.00187;0.02592;,
 0.04336;0.02108;0.03433;,
 0.04336;0.02108;0.03433;,
 0.04336;0.03258;0.03433;,
 0.02812;0.03258;0.09201;,
 0.02812;0.02108;0.09201;,
 0.04336;0.03258;0.03433;,
 -0.04269;0.04329;-0.05618;,
 -0.04492;0.04329;-0.07867;,
 -0.06322;0.04329;-0.07568;,
 -0.06287;0.04329;-0.05210;,
 -0.07210;0.04329;-0.06584;,
 -0.03269;0.04329;-0.06854;,
 -0.08497;0.03018;-0.05648;,
 -0.06863;0.03169;-0.03700;,
 -0.07116;0.02863;-0.09420;,
 -0.03413;0.02818;-0.09714;,
 -0.01934;0.03039;-0.07065;,
 -0.04269;0.04329;-0.05618;,
 -0.03414;0.03182;-0.03873;,
 -0.09265;0.03259;-0.07372;,
 -0.08094;0.03259;-0.08666;,
 -0.10004;0.03544;-0.10761;,
 -0.10559;0.03544;-0.08974;,
 -0.06554;0.03259;-0.10021;,
 -0.07725;0.03544;-0.10637;,
 -0.00207;0.03960;-0.12055;,
 -0.02364;0.03259;-0.09960;,
 -0.01809;0.03259;-0.07865;,
 0.00902;0.03522;-0.08912;,
 0.00471;0.03259;-0.05955;,
 0.03859;0.03960;-0.06078;,
 0.02689;0.03960;-0.04414;,
 -0.02425;0.03259;-0.03613;,
 -0.01440;0.03960;-0.01826;,
 -0.05445;0.03259;-0.03182;,
 -0.05691;0.03960;-0.02196;,
 -0.05383;0.03259;-0.12178;,
 -0.04705;0.03259;-0.10453;;
 
 52;
 4;0,1,2,3;,
 4;0,4,5,1;,
 4;3,2,6,7;,
 4;4,8,9,5;,
 4;10,11,12,13;,
 4;14,15,16,17;,
 4;18,19,20,21;,
 4;18,21,22,23;,
 3;24,0,3;,
 3;24,25,0;,
 4;26,10,13,27;,
 4;26,27,28,29;,
 4;30,31,32,33;,
 4;30,33,34,35;,
 4;36,12,11,37;,
 4;36,37,38,39;,
 4;40,41,42,43;,
 4;40,43,44,45;,
 3;46,1,47;,
 3;46,2,1;,
 4;48,23,22,49;,
 4;48,49,50,51;,
 3;52,0,25;,
 3;52,4,0;,
 4;53,29,28,54;,
 4;53,54,15,14;,
 4;55,35,34,56;,
 4;55,56,57,58;,
 4;59,39,38,60;,
 4;59,60,17,16;,
 4;61,45,44,62;,
 4;61,62,63,64;,
 3;65,1,5;,
 3;65,47,1;,
 4;66,67,68,69;,
 3;68,70,69;,
 3;66,71,67;,
 4;70,72,73,69;,
 4;68,74,72,70;,
 4;67,75,74,68;,
 4;71,76,75,67;,
 4;71,77,78,76;,
 4;69,73,78,66;,
 4;79,80,81,82;,
 4;83,84,81,80;,
 4;85,86,87,88;,
 4;88,87,89,90;,
 3;91,90,89;,
 4;89,92,93,91;,
 4;92,94,95,93;,
 4;85,96,97,86;,
 4;96,84,83,97;;
 
 MeshMaterialList {
  8;
  52;
  6,
  6,
  6,
  6,
  6,
  6,
  6,
  6,
  6,
  6,
  6,
  6,
  6,
  6,
  6,
  6,
  6,
  6,
  6,
  6,
  6,
  6,
  6,
  6,
  6,
  6,
  6,
  6,
  6,
  6,
  6,
  6,
  6,
  6,
  5,
  5,
  5,
  5,
  5,
  5,
  5,
  5,
  5,
  5,
  5,
  5,
  5,
  5,
  5,
  5,
  5,
  5;;
  Material {
   0.800000;0.800000;0.800000;1.000000;;
   5.000000;
   0.000000;0.000000;0.000000;;
   0.000000;0.000000;0.000000;;
   TextureFilename {
    "iztex01.png";
   }
  }
  Material {
   0.668000;0.633600;0.351200;1.000000;;
   5.000000;
   0.000000;0.000000;0.000000;;
   0.258850;0.245520;0.136090;;
   TextureFilename {
    "iztex01.png";
   }
  }
  Material {
   0.298400;0.125600;0.112800;1.000000;;
   18.000000;
   0.200000;0.200000;0.200000;;
   0.134280;0.056520;0.050760;;
   TextureFilename {
    "iztex01.png";
   }
  }
  Material {
   0.061410;0.011730;0.011730;1.000000;;
   30.000000;
   0.300000;0.300000;0.300000;;
   0.000000;0.000000;0.000000;;
   TextureFilename {
    "iztex01.png";
   }
  }
  Material {
   0.800000;0.166400;0.000000;1.000000;;
   5.000000;
   0.450000;0.450000;0.450000;;
   0.000000;0.000000;0.000000;;
   TextureFilename {
    "iztex01.png";
   }
  }
  Material {
   0.800000;0.800000;0.800000;1.000000;;
   5.000000;
   0.100000;0.100000;0.100000;;
   0.390000;0.390000;0.390000;;
   TextureFilename {
    "iztex01.png";
   }
  }
  Material {
   0.800000;0.800000;0.800000;1.000000;;
   26.000000;
   0.410000;0.410000;0.410000;;
   0.400000;0.400000;0.400000;;
   TextureFilename {
    "iztex01.png";
   }
  }
  Material {
   0.800000;0.800000;0.800000;0.300000;;
   54.000000;
   0.710000;0.710000;0.710000;;
   0.750000;0.750000;0.750000;;
   TextureFilename {
    "iztex01.png";
   }
  }
 }
 MeshNormals {
  73;
  0.000000;-0.313079;0.949727;,
  0.000000;-0.313079;-0.949727;,
  0.041000;0.998771;-0.027828;,
  -0.052492;0.998234;-0.027813;,
  0.042599;0.998558;0.032657;,
  -0.053926;0.998011;0.032639;,
  -0.237881;-0.891052;-0.386573;,
  0.000000;-0.892939;-0.450178;,
  0.000000;-0.892939;0.450178;,
  -0.245706;-0.890419;0.383121;,
  0.999973;0.000000;-0.007335;,
  0.975465;-0.220095;-0.005173;,
  -0.999999;0.000000;-0.001663;,
  0.000000;-1.000000;-0.000000;,
  -0.899096;-0.437751;-0.000927;,
  -0.327209;-0.944952;-0.000004;,
  -0.083009;0.996547;0.001964;,
  0.071281;0.997455;0.001683;,
  -0.972497;0.000000;-0.232916;,
  -0.881702;-0.428564;-0.197318;,
  -0.329645;-0.941815;-0.065710;,
  0.957931;-0.208207;-0.197529;,
  0.975994;0.000000;-0.217795;,
  -0.977183;0.000000;0.212398;,
  -0.888769;-0.420852;0.181588;,
  -0.338118;-0.939038;0.062324;,
  0.965069;-0.191904;0.178367;,
  0.981079;0.000000;0.193608;,
  0.022894;0.980294;0.196211;,
  -0.123503;0.960347;0.249960;,
  -0.429664;0.902988;-0.000826;,
  -0.192245;0.943353;-0.270419;,
  0.113970;0.952758;-0.281538;,
  0.386473;0.921496;-0.038512;,
  0.563737;0.761254;0.320457;,
  -0.627392;0.778703;-0.001251;,
  -0.371107;0.767931;-0.522074;,
  0.221710;0.806600;-0.547943;,
  0.569872;0.819767;-0.056812;,
  0.327767;0.824668;0.460969;,
  -0.242984;0.836194;0.491670;,
  0.106850;0.992228;0.063770;,
  0.088865;0.989962;0.109901;,
  0.082016;0.991262;0.103314;,
  -0.001569;0.994364;0.106009;,
  -0.104700;0.985673;0.132239;,
  -0.123350;0.988598;0.086366;,
  -0.170749;0.984567;-0.038383;,
  -0.191129;0.962110;-0.194460;,
  -0.102137;0.922774;-0.371560;,
  -0.025928;0.870751;-0.491040;,
  -0.173347;0.978965;-0.107604;,
  0.000000;0.000000;-1.000000;,
  0.000000;-0.000000;1.000000;,
  -0.933972;0.000000;-0.357347;,
  -0.855911;-0.411565;-0.313099;,
  0.107560;0.993930;0.023120;,
  0.129947;0.991521;0.000218;,
  0.897408;-0.407774;-0.168461;,
  0.889533;-0.371395;-0.266076;,
  0.940419;-0.189110;-0.282578;,
  0.903821;-0.427902;-0.002775;,
  0.957364;0.000000;-0.288883;,
  -0.124972;0.991801;0.026712;,
  -0.142238;0.989832;0.001063;,
  -0.869507;-0.403646;0.284654;,
  -0.947120;0.000000;0.320879;,
  0.105967;0.994158;-0.020496;,
  0.912834;-0.377192;0.156394;,
  0.951655;-0.170743;0.255344;,
  0.908520;-0.336469;0.247751;,
  0.966827;0.000000;0.255434;,
  -0.123549;0.992066;-0.023250;;
  52;
  4;17,16,5,4;,
  4;17,2,3,16;,
  4;52,52,1,1;,
  4;53,0,0,53;,
  4;1,1,7,6;,
  4;0,9,8,0;,
  4;18,54,55,19;,
  4;18,19,14,12;,
  3;56,17,4;,
  3;56,57,17;,
  4;19,55,6,20;,
  4;19,20,15,14;,
  4;20,6,7,13;,
  4;20,13,13,15;,
  4;58,59,60,21;,
  4;58,21,11,61;,
  4;21,60,62,22;,
  4;21,22,10,11;,
  3;63,16,64;,
  3;63,5,16;,
  4;23,12,14,24;,
  4;23,24,65,66;,
  3;67,17,57;,
  3;67,2,17;,
  4;24,14,15,25;,
  4;24,25,9,65;,
  4;25,15,13,13;,
  4;25,13,8,9;,
  4;68,61,11,26;,
  4;68,26,69,70;,
  4;26,11,10,27;,
  4;26,27,71,69;,
  3;72,16,3;,
  3;72,64,16;,
  4;28,32,31,29;,
  3;31,30,29;,
  3;28,33,32;,
  4;30,35,40,29;,
  4;31,36,35,30;,
  4;32,37,36,31;,
  4;33,38,37,32;,
  4;33,34,39,38;,
  4;29,40,39,28;,
  4;41,42,42,41;,
  4;43,43,42,42;,
  4;45,45,46,46;,
  4;46,46,51,47;,
  3;48,47,51;,
  4;51,49,49,48;,
  4;49,50,50,49;,
  4;45,44,44,45;,
  4;44,43,43,44;;
 }
 MeshTextureCoords {
  98;
  0.726370;0.933720;,
  0.814550;0.933720;,
  0.814550;0.987360;,
  0.726370;0.987360;,
  0.726370;0.861180;,
  0.814550;0.861180;,
  0.814550;0.991870;,
  0.726370;0.991870;,
  0.726370;0.856670;,
  0.814550;0.856670;,
  0.885110;0.923410;,
  0.885640;0.957680;,
  0.881800;0.956170;,
  0.881350;0.927000;,
  0.833670;0.924190;,
  0.837560;0.927670;,
  0.838010;0.956850;,
  0.834200;0.958460;,
  0.791250;0.988020;,
  0.807030;0.987960;,
  0.807030;0.990970;,
  0.791250;0.991030;,
  0.776680;0.991050;,
  0.776680;0.988040;,
  0.719520;0.959440;,
  0.713220;0.933720;,
  0.872750;0.920670;,
  0.870870;0.927160;,
  0.861210;0.927310;,
  0.861360;0.918150;,
  0.842470;0.949980;,
  0.842470;0.957280;,
  0.878020;0.957280;,
  0.878020;0.949980;,
  0.878020;0.943250;,
  0.842470;0.943250;,
  0.871320;0.956340;,
  0.873370;0.960530;,
  0.862060;0.963160;,
  0.861660;0.956480;,
  0.756020;0.992160;,
  0.740290;0.992330;,
  0.740290;0.987990;,
  0.756020;0.987820;,
  0.770540;0.987740;,
  0.770540;0.992080;,
  0.822850;0.958970;,
  0.830500;0.932800;,
  0.757650;0.988020;,
  0.757650;0.991030;,
  0.740890;0.990980;,
  0.740890;0.987970;,
  0.720220;0.895100;,
  0.846620;0.921370;,
  0.848610;0.927500;,
  0.842470;0.934480;,
  0.878020;0.934480;,
  0.878020;0.926770;,
  0.842470;0.926770;,
  0.849070;0.956680;,
  0.847230;0.960660;,
  0.789510;0.992160;,
  0.789510;0.987820;,
  0.806200;0.987970;,
  0.806200;0.992310;,
  0.822010;0.894670;,
  0.776160;0.944940;,
  0.775000;0.957750;,
  0.765530;0.956050;,
  0.765710;0.942610;,
  0.760940;0.950440;,
  0.781330;0.951980;,
  0.754270;0.945110;,
  0.762730;0.934010;,
  0.761420;0.966590;,
  0.780580;0.968270;,
  0.788240;0.953180;,
  0.776160;0.944940;,
  0.780580;0.935000;,
  0.750300;0.954930;,
  0.756360;0.962300;,
  0.746480;0.974230;,
  0.743610;0.964050;,
  0.764330;0.970020;,
  0.758270;0.973530;,
  0.797170;0.981600;,
  0.786010;0.969670;,
  0.788880;0.957740;,
  0.802910;0.963700;,
  0.800680;0.946860;,
  0.818220;0.947560;,
  0.812160;0.938080;,
  0.785690;0.933520;,
  0.790790;0.923340;,
  0.770070;0.931060;,
  0.768800;0.925440;,
  0.770390;0.982310;,
  0.773900;0.972480;;
 }
}
