xof 0302txt 0064
template Header {
 <3D82AB43-62DA-11cf-AB39-0020AF71E433>
 WORD major;
 WORD minor;
 DWORD flags;
}

template Vector {
 <3D82AB5E-62DA-11cf-AB39-0020AF71E433>
 FLOAT x;
 FLOAT y;
 FLOAT z;
}

template Coords2d {
 <F6F23F44-7686-11cf-8F52-0040333594A3>
 FLOAT u;
 FLOAT v;
}

template Matrix4x4 {
 <F6F23F45-7686-11cf-8F52-0040333594A3>
 array FLOAT matrix[16];
}

template ColorRGBA {
 <35FF44E0-6C7C-11cf-8F52-0040333594A3>
 FLOAT red;
 FLOAT green;
 FLOAT blue;
 FLOAT alpha;
}

template ColorRGB {
 <D3E16E81-7835-11cf-8F52-0040333594A3>
 FLOAT red;
 FLOAT green;
 FLOAT blue;
}

template IndexedColor {
 <1630B820-7842-11cf-8F52-0040333594A3>
 DWORD index;
 ColorRGBA indexColor;
}

template Boolean {
 <4885AE61-78E8-11cf-8F52-0040333594A3>
 WORD truefalse;
}

template Boolean2d {
 <4885AE63-78E8-11cf-8F52-0040333594A3>
 Boolean u;
 Boolean v;
}

template MaterialWrap {
 <4885AE60-78E8-11cf-8F52-0040333594A3>
 Boolean u;
 Boolean v;
}

template TextureFilename {
 <A42790E1-7810-11cf-8F52-0040333594A3>
 STRING filename;
}

template Material {
 <3D82AB4D-62DA-11cf-AB39-0020AF71E433>
 ColorRGBA faceColor;
 FLOAT power;
 ColorRGB specularColor;
 ColorRGB emissiveColor;
 [...]
}

template MeshFace {
 <3D82AB5F-62DA-11cf-AB39-0020AF71E433>
 DWORD nFaceVertexIndices;
 array DWORD faceVertexIndices[nFaceVertexIndices];
}

template MeshFaceWraps {
 <4885AE62-78E8-11cf-8F52-0040333594A3>
 DWORD nFaceWrapValues;
 Boolean2d faceWrapValues;
}

template MeshTextureCoords {
 <F6F23F40-7686-11cf-8F52-0040333594A3>
 DWORD nTextureCoords;
 array Coords2d textureCoords[nTextureCoords];
}

template MeshMaterialList {
 <F6F23F42-7686-11cf-8F52-0040333594A3>
 DWORD nMaterials;
 DWORD nFaceIndexes;
 array DWORD faceIndexes[nFaceIndexes];
 [Material]
}

template MeshNormals {
 <F6F23F43-7686-11cf-8F52-0040333594A3>
 DWORD nNormals;
 array Vector normals[nNormals];
 DWORD nFaceNormals;
 array MeshFace faceNormals[nFaceNormals];
}

template MeshVertexColors {
 <1630B821-7842-11cf-8F52-0040333594A3>
 DWORD nVertexColors;
 array IndexedColor vertexColors[nVertexColors];
}

template Mesh {
 <3D82AB44-62DA-11cf-AB39-0020AF71E433>
 DWORD nVertices;
 array Vector vertices[nVertices];
 DWORD nFaces;
 array MeshFace faces[nFaces];
 [...]
}

Header{
1;
0;
1;
}

Mesh {
 210;
 0.21881;0.05232;-0.02286;,
 0.18295;0.05232;-0.03866;,
 0.21592;0.05232;-0.04117;,
 0.19664;0.05232;-0.01129;,
 0.20455;0.05232;0.00914;,
 0.18604;0.05232;0.02765;,
 -0.21340;0.05232;0.10322;,
 -0.16867;0.05232;0.11016;,
 -0.16559;0.05232;0.15411;,
 0.04724;0.05232;0.10939;,
 -0.04067;0.05232;0.14177;,
 -0.04695;0.05232;0.11477;,
 0.09543;0.05232;0.03883;,
 0.11510;0.05232;0.06312;,
 0.03856;0.05232;0.05522;,
 0.14170;0.05232;0.01281;,
 0.12724;0.05232;-0.01033;,
 0.04628;0.05232;0.00028;,
 0.12724;0.05232;-0.03828;,
 0.03664;0.05232;-0.05177;,
 0.04917;0.05232;-0.09226;,
 0.09736;0.05232;-0.07973;,
 -0.04915;0.05232;-0.06527;,
 -0.05204;0.05232;-0.09804;,
 -0.00096;0.05232;-0.09804;,
 -0.12479;0.05232;-0.13175;,
 -0.10795;0.05232;-0.09322;,
 -0.15518;0.05232;-0.08551;,
 -0.15807;0.05232;0.06582;,
 -0.21494;0.05232;0.06004;,
 -0.15132;0.05232;0.00991;,
 -0.20723;0.05232;0.01955;,
 -0.15421;0.05232;-0.04599;,
 -0.20819;0.05232;-0.04117;,
 -0.05146;0.05232;-0.14508;,
 0.00560;0.05232;-0.13737;,
 0.06266;0.05232;-0.12966;,
 0.11047;0.05232;-0.10344;,
 0.14594;0.05232;-0.06026;,
 0.14286;0.05232;-0.08339;,
 0.26604;0.05901;-0.00358;,
 0.25737;0.05901;-0.02864;,
 0.22363;0.05232;0.00028;,
 0.26026;0.05901;0.02726;,
 0.21688;0.05232;0.02457;,
 0.25640;0.05901;0.05233;,
 0.15674;0.05232;0.04770;,
 -0.07999;0.05232;0.11112;,
 -0.07151;0.05232;0.15257;,
 -0.07903;0.05232;0.06775;,
 -0.02602;0.05232;0.06775;,
 -0.18988;0.05232;-0.08551;,
 -0.18718;0.05232;-0.12040;,
 -0.09060;0.05232;-0.06238;,
 -0.08192;0.05232;0.00606;,
 -0.03276;0.05232;-0.00069;,
 0.18295;0.06016;-0.03866;,
 0.21592;0.06016;-0.04117;,
 0.21881;0.06016;-0.02286;,
 0.20455;0.06016;0.00914;,
 0.18604;0.06016;0.02765;,
 0.19664;0.06016;-0.01129;,
 -0.16559;0.06016;0.15411;,
 -0.21340;0.06016;0.10322;,
 -0.16867;0.06016;0.11016;,
 0.04724;0.06016;0.10939;,
 -0.04067;0.06016;0.14177;,
 -0.04695;0.06016;0.11477;,
 0.11510;0.06016;0.06312;,
 0.09543;0.07521;0.03883;,
 0.03856;0.07521;0.05522;,
 0.12724;0.06016;-0.01033;,
 0.14170;0.06016;0.01281;,
 0.04628;0.06016;0.00028;,
 0.12724;0.06016;-0.03828;,
 0.09736;0.06016;-0.07973;,
 0.04917;0.06016;-0.09226;,
 0.03664;0.07521;-0.05177;,
 -0.00096;0.06016;-0.09804;,
 -0.05204;0.06016;-0.09804;,
 -0.04915;0.07521;-0.06527;,
 -0.15518;0.06016;-0.08551;,
 -0.10795;0.06016;-0.09322;,
 -0.12479;0.06016;-0.13175;,
 -0.21494;0.06016;0.06004;,
 -0.15807;0.07521;0.06582;,
 -0.20723;0.06016;0.01955;,
 -0.15132;0.06016;0.00991;,
 -0.20819;0.06016;-0.04117;,
 -0.15421;0.06016;-0.04599;,
 -0.05146;0.06016;-0.14508;,
 0.00560;0.06016;-0.13737;,
 0.06266;0.06016;-0.12966;,
 0.11047;0.06016;-0.10344;,
 0.14286;0.06016;-0.08339;,
 0.14594;0.06016;-0.06026;,
 0.25737;0.06684;-0.02864;,
 0.26604;0.06684;-0.00358;,
 0.26026;0.06684;0.02726;,
 0.22363;0.06016;0.00028;,
 0.25640;0.06684;0.05233;,
 0.21688;0.06016;0.02457;,
 0.15674;0.06016;0.04770;,
 -0.07151;0.06016;0.15257;,
 -0.07999;0.06016;0.11112;,
 -0.07903;0.07521;0.06775;,
 -0.02602;0.07521;0.06775;,
 -0.18988;0.06016;-0.08551;,
 -0.18718;0.06016;-0.12040;,
 -0.08192;0.06016;0.00606;,
 -0.09060;0.07521;-0.06238;,
 -0.03276;0.06016;-0.00069;,
 0.00000;0.05207;0.00000;,
 0.04730;0.05128;-0.08193;,
 0.00000;0.05128;-0.09461;,
 0.08193;0.05128;-0.04730;,
 0.09461;0.05128;0.00000;,
 0.08193;0.05128;0.04730;,
 0.04730;0.05128;0.08193;,
 0.00000;0.05128;0.09461;,
 -0.04730;0.05128;0.08193;,
 -0.08193;0.05128;0.04730;,
 -0.09461;0.05128;0.00000;,
 -0.08193;0.05128;-0.04730;,
 -0.04730;0.05128;-0.08193;,
 0.08697;0.04909;-0.15064;,
 0.00000;0.04909;-0.17395;,
 0.15064;0.04909;-0.08697;,
 0.17395;0.04909;0.00000;,
 0.15064;0.04909;0.08697;,
 0.08697;0.04909;0.15064;,
 0.00000;0.04909;0.17395;,
 -0.08697;0.04909;0.15064;,
 -0.15064;0.04909;0.08697;,
 -0.17395;0.04909;0.00000;,
 -0.15064;0.04909;-0.08697;,
 -0.08697;0.04909;-0.15064;,
 0.11178;0.05238;-0.19361;,
 0.00000;0.05238;-0.22356;,
 0.19361;0.05238;-0.11178;,
 0.22356;0.05238;0.00000;,
 0.19361;0.05238;0.11178;,
 0.11178;0.05238;0.19361;,
 0.00000;0.05238;0.22356;,
 -0.11178;0.05238;0.19361;,
 -0.19361;0.05238;0.11178;,
 -0.22356;0.05238;0.00000;,
 -0.19361;0.05238;-0.11178;,
 -0.11178;0.05238;-0.19361;,
 0.11596;0.04923;-0.20085;,
 0.00000;0.04923;-0.23192;,
 0.20085;0.04923;-0.11596;,
 0.23192;0.04923;0.00000;,
 0.20085;0.04923;0.11596;,
 0.11596;0.04923;0.20085;,
 0.00000;0.04923;0.23192;,
 -0.11596;0.04923;0.20085;,
 -0.20085;0.04923;0.11596;,
 -0.23192;0.04923;0.00000;,
 -0.20085;0.04923;-0.11596;,
 -0.11596;0.04923;-0.20085;,
 0.00000;0.04923;-0.23192;,
 0.11596;0.04923;-0.20085;,
 0.10713;0.02844;-0.18556;,
 0.00000;0.02844;-0.21427;,
 0.20085;0.04923;-0.11596;,
 0.18556;0.02844;-0.10713;,
 0.23192;0.04923;0.00000;,
 0.21427;0.02844;0.00000;,
 0.20085;0.04923;0.11596;,
 0.18556;0.02844;0.10713;,
 0.11596;0.04923;0.20085;,
 0.10713;0.02844;0.18556;,
 0.00000;0.04923;0.23192;,
 0.00000;0.02844;0.21427;,
 -0.11596;0.04923;0.20085;,
 -0.10713;0.02844;0.18556;,
 -0.20085;0.04923;0.11596;,
 -0.18556;0.02844;0.10713;,
 -0.23192;0.04923;0.00000;,
 -0.21427;0.02844;0.00000;,
 -0.20085;0.04923;-0.11596;,
 -0.18556;0.02844;-0.10713;,
 -0.11596;0.04923;-0.20085;,
 -0.10713;0.02844;-0.18556;,
 0.08200;0.01082;-0.14202;,
 0.00000;0.01082;-0.16399;,
 0.14202;0.01082;-0.08200;,
 0.16399;0.01082;0.00000;,
 0.14202;0.01082;0.08200;,
 0.08200;0.01082;0.14202;,
 0.00000;0.01082;0.16399;,
 -0.08200;0.01082;0.14202;,
 -0.14202;0.01082;0.08200;,
 -0.16399;0.01082;0.00000;,
 -0.14202;0.01082;-0.08200;,
 -0.08200;0.01082;-0.14202;,
 0.00000;0.00982;0.00000;,
 0.00000;0.01082;-0.16399;,
 0.08200;0.01082;-0.14202;,
 0.14202;0.01082;-0.08200;,
 0.16399;0.01082;0.00000;,
 0.14202;0.01082;0.08200;,
 0.08200;0.01082;0.14202;,
 0.00000;0.01082;0.16399;,
 -0.08200;0.01082;0.14202;,
 -0.14202;0.01082;0.08200;,
 -0.16399;0.01082;0.00000;,
 -0.14202;0.01082;-0.08200;,
 -0.08200;0.01082;-0.14202;;
 
 206;
 3;0,1,2;,
 3;3,4,5;,
 3;6,7,8;,
 3;9,10,11;,
 3;12,13,9;,
 3;9,14,12;,
 3;15,16,3;,
 3;12,14,17;,
 3;18,3,16;,
 3;19,20,21;,
 3;22,23,24;,
 3;25,26,27;,
 4;28,7,6,29;,
 4;30,28,29,31;,
 4;32,30,31,33;,
 4;24,23,34,35;,
 4;20,24,35,36;,
 4;21,20,36,37;,
 4;38,21,37,39;,
 4;3,18,38,1;,
 4;40,0,2,41;,
 4;42,0,40,43;,
 4;44,42,43,45;,
 4;3,42,44,4;,
 4;15,3,5,46;,
 4;12,15,46,13;,
 4;47,11,10,48;,
 4;7,47,48,8;,
 4;7,28,49,47;,
 4;47,49,50,11;,
 4;11,50,14,9;,
 4;12,17,16,15;,
 4;1,0,42,3;,
 4;27,32,33,51;,
 4;52,25,27,51;,
 4;30,32,53,54;,
 4;49,28,30,54;,
 4;54,53,22,55;,
 4;50,49,54,55;,
 4;14,50,55,17;,
 4;55,22,19,17;,
 4;17,19,18,16;,
 4;32,27,26,53;,
 4;53,26,23,22;,
 4;22,24,20,19;,
 4;19,21,38,18;,
 4;26,25,34,23;,
 4;56,57,2,1;,
 3;57,56,58;,
 4;59,60,5,4;,
 3;60,59,61;,
 4;62,63,6,8;,
 3;62,64,63;,
 4;65,66,10,9;,
 3;67,66,65;,
 4;68,65,9,13;,
 3;65,68,69;,
 3;69,70,65;,
 3;61,71,72;,
 3;73,70,69;,
 3;71,61,74;,
 3;75,76,77;,
 3;78,79,80;,
 3;81,82,83;,
 4;63,84,29,6;,
 4;84,63,64,85;,
 4;84,86,31,29;,
 4;86,84,85,87;,
 4;86,88,33,31;,
 4;88,86,87,89;,
 4;90,91,35,34;,
 4;91,90,79,78;,
 4;91,92,36,35;,
 4;92,91,78,76;,
 4;92,93,37,36;,
 4;93,92,76,75;,
 4;93,94,39,37;,
 4;94,95,38,39;,
 4;94,93,75,95;,
 4;95,56,1,38;,
 4;56,95,74,61;,
 4;57,96,41,2;,
 4;96,97,40,41;,
 4;96,57,58,97;,
 4;97,98,43,40;,
 4;98,97,58,99;,
 4;98,100,45,43;,
 4;100,101,44,45;,
 4;100,98,99,101;,
 4;101,59,4,44;,
 4;59,101,99,61;,
 4;60,102,46,5;,
 4;102,60,61,72;,
 4;102,68,13,46;,
 4;68,102,72,69;,
 4;66,103,48,10;,
 4;103,66,67,104;,
 4;103,62,8,48;,
 4;62,103,104,64;,
 4;104,105,85,64;,
 4;67,106,105,104;,
 4;65,70,106,67;,
 4;72,71,73,69;,
 4;61,99,58,56;,
 4;88,107,51,33;,
 4;107,88,89,81;,
 4;108,83,25,52;,
 4;107,108,52,51;,
 4;107,81,83,108;,
 4;109,110,89,87;,
 4;109,87,85,105;,
 4;111,80,110,109;,
 4;111,109,105,106;,
 4;73,111,106,70;,
 4;73,77,80,111;,
 4;71,74,77,73;,
 4;110,82,81,89;,
 4;80,79,82,110;,
 4;77,76,78,80;,
 4;74,95,75,77;,
 4;83,90,34,25;,
 4;79,90,83,82;,
 3;112,113,114;,
 3;112,115,113;,
 3;112,116,115;,
 3;112,117,116;,
 3;112,118,117;,
 3;112,119,118;,
 3;112,120,119;,
 3;112,121,120;,
 3;112,122,121;,
 3;112,123,122;,
 3;112,124,123;,
 3;112,114,124;,
 4;114,113,125,126;,
 4;113,115,127,125;,
 4;115,116,128,127;,
 4;116,117,129,128;,
 4;117,118,130,129;,
 4;118,119,131,130;,
 4;119,120,132,131;,
 4;120,121,133,132;,
 4;121,122,134,133;,
 4;122,123,135,134;,
 4;123,124,136,135;,
 4;124,114,126,136;,
 4;126,125,137,138;,
 4;125,127,139,137;,
 4;127,128,140,139;,
 4;128,129,141,140;,
 4;129,130,142,141;,
 4;130,131,143,142;,
 4;131,132,144,143;,
 4;132,133,145,144;,
 4;133,134,146,145;,
 4;134,135,147,146;,
 4;135,136,148,147;,
 4;136,126,138,148;,
 4;138,137,149,150;,
 4;137,139,151,149;,
 4;139,140,152,151;,
 4;140,141,153,152;,
 4;141,142,154,153;,
 4;142,143,155,154;,
 4;143,144,156,155;,
 4;144,145,157,156;,
 4;145,146,158,157;,
 4;146,147,159,158;,
 4;147,148,160,159;,
 4;148,138,150,160;,
 4;161,162,163,164;,
 4;162,165,166,163;,
 4;165,167,168,166;,
 4;167,169,170,168;,
 4;169,171,172,170;,
 4;171,173,174,172;,
 4;173,175,176,174;,
 4;175,177,178,176;,
 4;177,179,180,178;,
 4;179,181,182,180;,
 4;181,183,184,182;,
 4;183,161,164,184;,
 4;164,163,185,186;,
 4;163,166,187,185;,
 4;166,168,188,187;,
 4;168,170,189,188;,
 4;170,172,190,189;,
 4;172,174,191,190;,
 4;174,176,192,191;,
 4;176,178,193,192;,
 4;178,180,194,193;,
 4;180,182,195,194;,
 4;182,184,196,195;,
 4;184,164,186,196;,
 3;197,198,199;,
 3;197,199,200;,
 3;197,200,201;,
 3;197,201,202;,
 3;197,202,203;,
 3;197,203,204;,
 3;197,204,205;,
 3;197,205,206;,
 3;197,206,207;,
 3;197,207,208;,
 3;197,208,209;,
 3;197,209,198;;
 
 MeshMaterialList {
  8;
  206;
  5,
  5,
  5,
  5,
  5,
  5,
  5,
  5,
  5,
  5,
  5,
  5,
  5,
  5,
  5,
  5,
  5,
  5,
  5,
  5,
  5,
  5,
  5,
  5,
  5,
  5,
  5,
  5,
  5,
  5,
  5,
  5,
  5,
  5,
  5,
  5,
  5,
  5,
  5,
  5,
  5,
  5,
  5,
  5,
  5,
  5,
  5,
  5,
  5,
  5,
  5,
  5,
  5,
  5,
  5,
  5,
  5,
  5,
  5,
  5,
  5,
  5,
  5,
  5,
  5,
  5,
  5,
  5,
  5,
  5,
  5,
  5,
  5,
  5,
  5,
  5,
  5,
  5,
  5,
  5,
  5,
  5,
  5,
  5,
  5,
  5,
  5,
  5,
  5,
  5,
  5,
  5,
  5,
  5,
  5,
  5,
  5,
  5,
  5,
  5,
  5,
  5,
  5,
  5,
  5,
  5,
  5,
  5,
  5,
  5,
  5,
  5,
  5,
  5,
  5,
  5,
  5,
  5,
  5,
  5,
  5,
  5,
  6,
  6,
  6,
  6,
  6,
  6,
  6,
  6,
  6,
  6,
  6,
  6,
  6,
  6,
  6,
  6,
  6,
  6,
  6,
  6,
  6,
  6,
  6,
  6,
  6,
  6,
  6,
  6,
  6,
  6,
  6,
  6,
  6,
  6,
  6,
  6,
  6,
  6,
  6,
  6,
  6,
  6,
  6,
  6,
  6,
  6,
  6,
  6,
  6,
  6,
  6,
  6,
  6,
  6,
  6,
  6,
  6,
  6,
  6,
  6,
  6,
  6,
  6,
  6,
  6,
  6,
  6,
  6,
  6,
  6,
  6,
  6,
  6,
  6,
  6,
  6,
  6,
  6,
  6,
  6,
  6,
  6,
  6,
  6;;
  Material {
   0.800000;0.800000;0.800000;1.000000;;
   5.000000;
   0.000000;0.000000;0.000000;;
   0.000000;0.000000;0.000000;;
   TextureFilename {
    "iztex01.png";
   }
  }
  Material {
   0.668000;0.633600;0.351200;1.000000;;
   5.000000;
   0.000000;0.000000;0.000000;;
   0.258850;0.245520;0.136090;;
   TextureFilename {
    "iztex01.png";
   }
  }
  Material {
   0.298400;0.125600;0.112800;1.000000;;
   18.000000;
   0.200000;0.200000;0.200000;;
   0.134280;0.056520;0.050760;;
   TextureFilename {
    "iztex01.png";
   }
  }
  Material {
   0.061410;0.011730;0.011730;1.000000;;
   30.000000;
   0.300000;0.300000;0.300000;;
   0.000000;0.000000;0.000000;;
   TextureFilename {
    "iztex01.png";
   }
  }
  Material {
   0.800000;0.166400;0.000000;1.000000;;
   5.000000;
   0.450000;0.450000;0.450000;;
   0.000000;0.000000;0.000000;;
   TextureFilename {
    "iztex01.png";
   }
  }
  Material {
   0.800000;0.800000;0.800000;1.000000;;
   5.000000;
   0.100000;0.100000;0.100000;;
   0.390000;0.390000;0.390000;;
   TextureFilename {
    "iztex01.png";
   }
  }
  Material {
   0.800000;0.800000;0.800000;1.000000;;
   26.000000;
   0.410000;0.410000;0.410000;;
   0.400000;0.400000;0.400000;;
   TextureFilename {
    "iztex01.png";
   }
  }
  Material {
   0.800000;0.800000;0.800000;0.300000;;
   54.000000;
   0.710000;0.710000;0.710000;;
   0.750000;0.750000;0.750000;;
   TextureFilename {
    "iztex01.png";
   }
  }
 }
 MeshNormals {
  173;
  -0.630816;-0.730022;0.262942;,
  -0.702834;-0.709324;-0.053703;,
  -0.702643;-0.708948;-0.060700;,
  -0.687359;-0.714460;-0.130706;,
  -0.627790;-0.533878;-0.566440;,
  -0.015996;-0.711473;-0.702531;,
  0.094695;-0.707107;-0.700737;,
  0.219182;-0.713076;-0.665944;,
  0.356154;-0.707230;-0.610722;,
  0.734561;-0.484035;-0.475532;,
  0.427570;-0.857940;-0.284819;,
  0.120375;-0.843610;-0.523290;,
  0.133211;-0.699009;-0.702596;,
  0.646342;-0.455233;-0.612377;,
  0.750153;-0.658370;-0.061797;,
  0.749771;-0.650530;0.121053;,
  0.371863;-0.651544;0.661218;,
  -0.437723;-0.722011;0.535816;,
  -0.030685;-0.831953;0.553996;,
  0.450612;-0.708626;0.542953;,
  0.323654;-0.709769;0.625681;,
  0.323160;-0.709733;0.625976;,
  0.239025;-0.707119;0.665470;,
  0.123378;-0.711645;0.691621;,
  -0.262878;-0.737948;0.621552;,
  0.000000;-1.000000;-0.000000;,
  0.203573;-0.895770;0.395163;,
  0.076756;-0.997019;0.007858;,
  0.080399;-0.996706;-0.010635;,
  -0.683480;-0.711482;-0.163242;,
  -0.099228;-0.832050;-0.545753;,
  -0.656682;0.688445;0.307915;,
  -0.759955;0.648142;-0.048788;,
  -0.728813;0.675396;-0.112571;,
  -0.687359;0.714460;-0.130706;,
  -0.627790;0.533878;-0.566440;,
  -0.015996;0.711473;-0.702531;,
  0.094695;0.707107;-0.700737;,
  0.219182;0.713076;-0.665944;,
  0.356154;0.707230;-0.610722;,
  0.734561;0.484035;-0.475532;,
  0.446809;0.843170;-0.299043;,
  0.120375;0.843610;-0.523290;,
  0.017695;0.720010;-0.693738;,
  0.559066;0.515094;-0.649710;,
  0.631067;0.774726;-0.039428;,
  0.639974;0.759403;0.117226;,
  0.189682;0.712110;0.675959;,
  -0.525601;0.693833;0.492279;,
  -0.030685;0.831953;0.553996;,
  0.450612;0.708626;0.542953;,
  0.381655;0.669741;0.637014;,
  0.424561;0.581232;0.694203;,
  0.239025;0.707119;0.665470;,
  0.123378;0.711645;0.691621;,
  -0.262878;0.737948;0.621552;,
  -0.040681;0.991554;0.123148;,
  -0.006032;0.986742;0.162186;,
  0.004069;0.988323;0.152318;,
  0.261418;0.791631;0.552250;,
  0.114120;0.992412;0.045766;,
  0.077800;0.996489;-0.030931;,
  0.000000;1.000000;0.000000;,
  -0.076756;0.997019;-0.007858;,
  -0.080399;0.996706;0.010635;,
  -0.683480;0.711482;-0.163242;,
  -0.060175;0.995510;-0.073073;,
  -0.020821;0.999147;-0.035676;,
  -0.008426;0.999961;0.002790;,
  0.008149;0.997241;-0.073788;,
  0.039784;0.998856;-0.026539;,
  -0.058431;0.998267;-0.006957;,
  -0.062700;0.996262;-0.059422;,
  0.003479;0.988897;-0.148562;,
  0.054352;0.995949;-0.071634;,
  0.038276;0.999142;0.015797;,
  0.044348;0.994147;-0.098516;,
  0.033310;0.984976;-0.169446;,
  0.011966;0.980934;-0.193971;,
  -0.008358;0.976817;-0.213912;,
  -0.045925;0.988615;-0.143288;,
  -0.037118;0.998649;-0.036360;,
  -0.081025;0.996494;0.020862;,
  -0.011292;0.998990;0.043491;,
  -0.004912;0.999334;0.036166;,
  0.002650;0.999964;0.008038;,
  -0.099228;0.832050;-0.545753;,
  0.000000;1.000000;0.000000;,
  0.000000;0.999839;-0.017949;,
  0.008974;0.999839;-0.015544;,
  0.015544;0.999839;-0.008974;,
  0.017949;0.999839;0.000000;,
  0.015544;0.999839;0.008974;,
  0.008974;0.999839;0.015544;,
  0.000000;0.999839;0.017949;,
  -0.008974;0.999839;0.015544;,
  -0.015544;0.999839;0.008974;,
  -0.017949;0.999839;0.000000;,
  -0.015544;0.999839;-0.008974;,
  -0.008974;0.999839;-0.015544;,
  0.000000;0.999814;0.019265;,
  -0.009633;0.999814;0.016684;,
  -0.016684;0.999814;0.009633;,
  -0.019265;0.999814;0.000000;,
  -0.016684;0.999814;-0.009633;,
  -0.009633;0.999814;-0.016684;,
  0.000000;0.999814;-0.019265;,
  0.009633;0.999814;-0.016684;,
  0.016684;0.999814;-0.009633;,
  0.019265;0.999814;0.000000;,
  0.016684;0.999814;0.009633;,
  0.009633;0.999814;0.016684;,
  0.000000;0.989296;-0.145919;,
  0.072957;0.989297;-0.126367;,
  0.126367;0.989297;-0.072957;,
  0.145919;0.989296;0.000000;,
  0.126367;0.989297;0.072957;,
  0.072957;0.989297;0.126367;,
  -0.000000;0.989296;0.145921;,
  -0.072960;0.989296;0.126372;,
  -0.126370;0.989296;0.072960;,
  -0.145921;0.989296;-0.000000;,
  -0.126372;0.989296;-0.072960;,
  -0.072960;0.989296;-0.126370;,
  0.000000;0.935903;-0.352258;,
  0.176125;0.935905;-0.305060;,
  0.305060;0.935905;-0.176125;,
  0.352258;0.935903;0.000000;,
  0.305060;0.935905;0.176125;,
  0.176125;0.935905;0.305060;,
  -0.000001;0.935902;0.352260;,
  -0.176130;0.935902;0.305068;,
  -0.305064;0.935903;0.176130;,
  -0.352260;0.935902;-0.000001;,
  -0.305068;0.935902;-0.176130;,
  -0.176130;0.935903;-0.305064;,
  0.000000;-0.825479;-0.564433;,
  0.282215;-0.825481;-0.488810;,
  0.488810;-0.825481;-0.282215;,
  0.564432;-0.825480;-0.000000;,
  0.488810;-0.825481;0.282215;,
  0.282215;-0.825481;0.488810;,
  -0.000000;-0.825479;0.564433;,
  -0.282217;-0.825478;0.488815;,
  -0.488813;-0.825479;0.282218;,
  -0.564433;-0.825479;-0.000001;,
  -0.488815;-0.825478;-0.282217;,
  -0.282218;-0.825479;-0.488813;,
  0.000000;-0.985363;-0.170472;,
  0.085237;-0.985362;-0.147634;,
  0.147634;-0.985362;-0.085237;,
  0.170472;-0.985363;-0.000000;,
  0.147634;-0.985362;0.085237;,
  0.085237;-0.985362;0.147634;,
  0.000000;-0.985363;0.170472;,
  -0.085236;-0.985362;0.147633;,
  -0.147633;-0.985363;0.085236;,
  -0.170472;-0.985363;-0.000000;,
  -0.147633;-0.985362;-0.085236;,
  -0.085236;-0.985363;-0.147633;,
  -0.000000;-1.000000;0.000000;,
  0.000000;-0.647279;-0.762253;,
  0.381123;-0.647287;-0.660125;,
  0.660125;-0.647287;-0.381123;,
  0.762251;-0.647281;-0.000000;,
  0.660125;-0.647287;0.381123;,
  0.381123;-0.647287;0.660125;,
  -0.000001;-0.647280;0.762253;,
  -0.381126;-0.647278;0.660132;,
  -0.660130;-0.647278;0.381129;,
  -0.762254;-0.647278;-0.000001;,
  -0.660132;-0.647278;-0.381126;,
  -0.381129;-0.647278;-0.660130;;
  206;
  3;28,11,12;,
  3;25,18,19;,
  3;0,25,24;,
  3;26,22,25;,
  3;25,21,26;,
  3;26,25,25;,
  3;25,25,25;,
  3;25,25,25;,
  3;25,25,25;,
  3;25,25,25;,
  3;25,25,25;,
  3;30,25,25;,
  4;25,25,0,1;,
  4;25,25,1,2;,
  4;25,25,2,3;,
  4;25,25,5,6;,
  4;25,25,6,7;,
  4;25,25,7,8;,
  4;10,25,8,9;,
  4;25,25,10,11;,
  4;14,28,12,13;,
  4;27,28,14,15;,
  4;17,27,15,16;,
  4;25,27,17,18;,
  4;25,25,19,20;,
  4;25,25,20,21;,
  4;25,25,22,23;,
  4;25,25,23,24;,
  4;25,25,25,25;,
  4;25,25,25,25;,
  4;25,25,25,26;,
  4;25,25,25,25;,
  4;11,28,27,25;,
  4;25,25,3,29;,
  4;4,30,25,29;,
  4;25,25,25,25;,
  4;25,25,25,25;,
  4;25,25,25,25;,
  4;25,25,25,25;,
  4;25,25,25,25;,
  4;25,25,25,25;,
  4;25,25,25,25;,
  4;25,25,25,25;,
  4;25,25,25,25;,
  4;25,25,25,25;,
  4;25,25,10,25;,
  4;25,30,5,25;,
  4;42,43,12,11;,
  3;43,42,64;,
  4;49,50,19,18;,
  3;50,49,62;,
  4;55,31,0,24;,
  3;55,56,31;,
  4;59,53,22,26;,
  3;58,53,59;,
  4;52,59,26,21;,
  3;59,52,60;,
  3;60,85,59;,
  3;62,70,61;,
  3;69,85,60;,
  3;70,62,75;,
  3;76,77,74;,
  3;78,79,73;,
  3;81,80,86;,
  4;31,32,1,0;,
  4;32,31,56,82;,
  4;32,33,2,1;,
  4;33,32,82,66;,
  4;33,34,3,2;,
  4;34,33,66,71;,
  4;36,37,6,5;,
  4;37,36,79,78;,
  4;37,38,7,6;,
  4;38,37,78,77;,
  4;38,39,8,7;,
  4;39,38,77,76;,
  4;39,40,9,8;,
  4;40,41,10,9;,
  4;40,39,76,41;,
  4;41,42,11,10;,
  4;42,41,75,62;,
  4;43,44,13,12;,
  4;44,45,14,13;,
  4;44,43,64,45;,
  4;45,46,15,14;,
  4;46,45,64,63;,
  4;46,47,16,15;,
  4;47,48,17,16;,
  4;47,46,63,48;,
  4;48,49,18,17;,
  4;49,48,63,62;,
  4;50,51,20,19;,
  4;51,50,62,61;,
  4;51,52,21,20;,
  4;52,51,61,60;,
  4;53,54,23,22;,
  4;54,53,58,57;,
  4;54,55,24,23;,
  4;55,54,57,56;,
  4;57,83,82,56;,
  4;58,84,83,57;,
  4;59,85,84,58;,
  4;61,70,69,60;,
  4;62,63,64,42;,
  4;34,65,29,3;,
  4;65,34,71,81;,
  4;35,86,30,4;,
  4;65,35,4,29;,
  4;65,81,86,35;,
  4;67,72,71,66;,
  4;67,66,82,83;,
  4;68,73,72,67;,
  4;68,67,83,84;,
  4;69,68,84,85;,
  4;69,74,73,68;,
  4;70,75,74,69;,
  4;72,80,81,71;,
  4;73,79,80,72;,
  4;74,77,78,73;,
  4;75,41,76,74;,
  4;86,36,5,30;,
  4;79,36,86,80;,
  3;87,89,88;,
  3;87,90,89;,
  3;87,91,90;,
  3;87,92,91;,
  3;87,93,92;,
  3;87,94,93;,
  3;87,95,94;,
  3;87,96,95;,
  3;87,97,96;,
  3;87,98,97;,
  3;87,99,98;,
  3;87,88,99;,
  4;88,89,101,100;,
  4;89,90,102,101;,
  4;90,91,103,102;,
  4;91,92,104,103;,
  4;92,93,105,104;,
  4;93,94,106,105;,
  4;94,95,107,106;,
  4;95,96,108,107;,
  4;96,97,109,108;,
  4;97,98,110,109;,
  4;98,99,111,110;,
  4;99,88,100,111;,
  4;100,101,113,112;,
  4;101,102,114,113;,
  4;102,103,115,114;,
  4;103,104,116,115;,
  4;104,105,117,116;,
  4;105,106,118,117;,
  4;106,107,119,118;,
  4;107,108,120,119;,
  4;108,109,121,120;,
  4;109,110,122,121;,
  4;110,111,123,122;,
  4;111,100,112,123;,
  4;112,113,125,124;,
  4;113,114,126,125;,
  4;114,115,127,126;,
  4;115,116,128,127;,
  4;116,117,129,128;,
  4;117,118,130,129;,
  4;118,119,131,130;,
  4;119,120,132,131;,
  4;120,121,133,132;,
  4;121,122,134,133;,
  4;122,123,135,134;,
  4;123,112,124,135;,
  4;161,162,137,136;,
  4;162,163,138,137;,
  4;163,164,139,138;,
  4;164,165,140,139;,
  4;165,166,141,140;,
  4;166,167,142,141;,
  4;167,168,143,142;,
  4;168,169,144,143;,
  4;169,170,145,144;,
  4;170,171,146,145;,
  4;171,172,147,146;,
  4;172,161,136,147;,
  4;136,137,149,148;,
  4;137,138,150,149;,
  4;138,139,151,150;,
  4;139,140,152,151;,
  4;140,141,153,152;,
  4;141,142,154,153;,
  4;142,143,155,154;,
  4;143,144,156,155;,
  4;144,145,157,156;,
  4;145,146,158,157;,
  4;146,147,159,158;,
  4;147,136,148,159;,
  3;160,148,149;,
  3;160,149,150;,
  3;160,150,151;,
  3;160,151,152;,
  3;160,152,153;,
  3;160,153,154;,
  3;160,154,155;,
  3;160,155,156;,
  3;160,156,157;,
  3;160,157,158;,
  3;160,158,159;,
  3;160,159,148;;
 }
 MeshTextureCoords {
  210;
  0.382070;0.664018;,
  0.364461;0.671781;,
  0.380650;0.673012;,
  0.371182;0.658337;,
  0.375064;0.648302;,
  0.365975;0.639213;,
  0.169812;0.602101;,
  0.191776;0.598693;,
  0.193291;0.577107;,
  0.297810;0.599071;,
  0.254639;0.583166;,
  0.251553;0.596426;,
  0.321479;0.633722;,
  0.331136;0.621793;,
  0.293550;0.625675;,
  0.344200;0.646503;,
  0.337100;0.657864;,
  0.297337;0.652657;,
  0.337100;0.671591;,
  0.292603;0.678219;,
  0.298757;0.698100;,
  0.322426;0.691946;,
  0.250474;0.684846;,
  0.249053;0.700940;,
  0.274142;0.700940;,
  0.213325;0.717493;,
  0.221598;0.698573;,
  0.198403;0.694786;,
  0.196983;0.620468;,
  0.169054;0.623308;,
  0.200296;0.647923;,
  0.172841;0.643189;,
  0.198876;0.675378;,
  0.172368;0.673012;,
  0.249337;0.724041;,
  0.277361;0.720254;,
  0.305384;0.716467;,
  0.328863;0.703591;,
  0.346283;0.682384;,
  0.344769;0.693745;,
  0.405265;0.654550;,
  0.401005;0.666858;,
  0.384437;0.652657;,
  0.402425;0.639402;,
  0.381123;0.640728;,
  0.400531;0.627095;,
  0.351585;0.629367;,
  0.235326;0.598219;,
  0.239491;0.577864;,
  0.235799;0.619521;,
  0.261834;0.619521;,
  0.181362;0.694786;,
  0.182687;0.711922;,
  0.230119;0.683426;,
  0.234379;0.649817;,
  0.258521;0.653130;,
  0.364461;0.671781;,
  0.380650;0.673012;,
  0.382070;0.664018;,
  0.375064;0.648302;,
  0.365975;0.639213;,
  0.371182;0.658337;,
  0.193291;0.577107;,
  0.169812;0.602101;,
  0.191776;0.598693;,
  0.297810;0.599071;,
  0.254639;0.583166;,
  0.251553;0.596426;,
  0.331136;0.621793;,
  0.321479;0.633722;,
  0.293550;0.625675;,
  0.337100;0.657864;,
  0.344200;0.646503;,
  0.297337;0.652657;,
  0.337100;0.671591;,
  0.322426;0.691946;,
  0.298757;0.698100;,
  0.292603;0.678219;,
  0.274142;0.700940;,
  0.249053;0.700940;,
  0.250474;0.684846;,
  0.198403;0.694786;,
  0.221598;0.698573;,
  0.213325;0.717493;,
  0.169054;0.623308;,
  0.196983;0.620468;,
  0.172841;0.643189;,
  0.200296;0.647923;,
  0.172368;0.673012;,
  0.198876;0.675378;,
  0.249337;0.724041;,
  0.277361;0.720254;,
  0.305384;0.716467;,
  0.328863;0.703591;,
  0.344769;0.693745;,
  0.346283;0.682384;,
  0.401005;0.666858;,
  0.405265;0.654550;,
  0.402425;0.639402;,
  0.384437;0.652657;,
  0.400531;0.627095;,
  0.381123;0.640728;,
  0.351585;0.629367;,
  0.239491;0.577864;,
  0.235326;0.598219;,
  0.235799;0.619521;,
  0.261834;0.619521;,
  0.181362;0.694786;,
  0.182687;0.711922;,
  0.234379;0.649817;,
  0.230119;0.683426;,
  0.258521;0.653130;,
  0.569310;0.696400;,
  0.586340;0.725900;,
  0.569310;0.730470;,
  0.598810;0.713430;,
  0.603380;0.696400;,
  0.598810;0.679360;,
  0.586340;0.666890;,
  0.569310;0.662330;,
  0.552280;0.666890;,
  0.539810;0.679360;,
  0.535240;0.696400;,
  0.539810;0.713430;,
  0.552280;0.725900;,
  0.600630;0.750640;,
  0.569310;0.759040;,
  0.623560;0.727720;,
  0.631950;0.696400;,
  0.623560;0.665080;,
  0.600630;0.642150;,
  0.569310;0.633760;,
  0.537990;0.642150;,
  0.515060;0.665080;,
  0.506670;0.696400;,
  0.515060;0.727720;,
  0.537990;0.750640;,
  0.609560;0.766120;,
  0.569310;0.776900;,
  0.639030;0.736650;,
  0.649820;0.696400;,
  0.639030;0.656140;,
  0.609560;0.626680;,
  0.569310;0.615890;,
  0.529060;0.626680;,
  0.499590;0.656140;,
  0.488800;0.696400;,
  0.499590;0.736650;,
  0.529060;0.766120;,
  0.611070;0.768730;,
  0.569310;0.779910;,
  0.641640;0.738160;,
  0.652830;0.696400;,
  0.641640;0.654640;,
  0.611070;0.624070;,
  0.569310;0.612880;,
  0.527550;0.624070;,
  0.496980;0.654640;,
  0.485790;0.696400;,
  0.496980;0.738160;,
  0.527550;0.768730;,
  0.677490;0.782150;,
  0.662160;0.782150;,
  0.654620;0.792400;,
  0.668780;0.792400;,
  0.620300;0.782150;,
  0.615940;0.792400;,
  0.563100;0.782150;,
  0.563100;0.792400;,
  0.505910;0.782150;,
  0.510270;0.792400;,
  0.464050;0.782150;,
  0.471590;0.792400;,
  0.448720;0.782150;,
  0.457430;0.792400;,
  0.464050;0.782150;,
  0.471590;0.792400;,
  0.505910;0.782150;,
  0.510270;0.792400;,
  0.563100;0.782150;,
  0.563100;0.792400;,
  0.620300;0.782150;,
  0.615940;0.792400;,
  0.662160;0.782150;,
  0.654620;0.792400;,
  0.633150;0.801090;,
  0.643980;0.801090;,
  0.603540;0.801090;,
  0.563100;0.801090;,
  0.522660;0.801090;,
  0.493060;0.801090;,
  0.482220;0.801090;,
  0.493060;0.801090;,
  0.522660;0.801090;,
  0.563100;0.801090;,
  0.603540;0.801090;,
  0.633150;0.801090;,
  0.569310;0.696400;,
  0.569310;0.755450;,
  0.598840;0.747540;,
  0.620450;0.725930;,
  0.628370;0.696400;,
  0.620450;0.666870;,
  0.598840;0.645250;,
  0.569310;0.637340;,
  0.539780;0.645250;,
  0.518170;0.666870;,
  0.510250;0.696400;,
  0.518170;0.725930;,
  0.539780;0.747540;;
 }
}
