xof 0302txt 0064
template Header {
 <3D82AB43-62DA-11cf-AB39-0020AF71E433>
 WORD major;
 WORD minor;
 DWORD flags;
}

template Vector {
 <3D82AB5E-62DA-11cf-AB39-0020AF71E433>
 FLOAT x;
 FLOAT y;
 FLOAT z;
}

template Coords2d {
 <F6F23F44-7686-11cf-8F52-0040333594A3>
 FLOAT u;
 FLOAT v;
}

template Matrix4x4 {
 <F6F23F45-7686-11cf-8F52-0040333594A3>
 array FLOAT matrix[16];
}

template ColorRGBA {
 <35FF44E0-6C7C-11cf-8F52-0040333594A3>
 FLOAT red;
 FLOAT green;
 FLOAT blue;
 FLOAT alpha;
}

template ColorRGB {
 <D3E16E81-7835-11cf-8F52-0040333594A3>
 FLOAT red;
 FLOAT green;
 FLOAT blue;
}

template IndexedColor {
 <1630B820-7842-11cf-8F52-0040333594A3>
 DWORD index;
 ColorRGBA indexColor;
}

template Boolean {
 <4885AE61-78E8-11cf-8F52-0040333594A3>
 WORD truefalse;
}

template Boolean2d {
 <4885AE63-78E8-11cf-8F52-0040333594A3>
 Boolean u;
 Boolean v;
}

template MaterialWrap {
 <4885AE60-78E8-11cf-8F52-0040333594A3>
 Boolean u;
 Boolean v;
}

template TextureFilename {
 <A42790E1-7810-11cf-8F52-0040333594A3>
 STRING filename;
}

template Material {
 <3D82AB4D-62DA-11cf-AB39-0020AF71E433>
 ColorRGBA faceColor;
 FLOAT power;
 ColorRGB specularColor;
 ColorRGB emissiveColor;
 [...]
}

template MeshFace {
 <3D82AB5F-62DA-11cf-AB39-0020AF71E433>
 DWORD nFaceVertexIndices;
 array DWORD faceVertexIndices[nFaceVertexIndices];
}

template MeshFaceWraps {
 <4885AE62-78E8-11cf-8F52-0040333594A3>
 DWORD nFaceWrapValues;
 Boolean2d faceWrapValues;
}

template MeshTextureCoords {
 <F6F23F40-7686-11cf-8F52-0040333594A3>
 DWORD nTextureCoords;
 array Coords2d textureCoords[nTextureCoords];
}

template MeshMaterialList {
 <F6F23F42-7686-11cf-8F52-0040333594A3>
 DWORD nMaterials;
 DWORD nFaceIndexes;
 array DWORD faceIndexes[nFaceIndexes];
 [Material]
}

template MeshNormals {
 <F6F23F43-7686-11cf-8F52-0040333594A3>
 DWORD nNormals;
 array Vector normals[nNormals];
 DWORD nFaceNormals;
 array MeshFace faceNormals[nFaceNormals];
}

template MeshVertexColors {
 <1630B821-7842-11cf-8F52-0040333594A3>
 DWORD nVertexColors;
 array IndexedColor vertexColors[nVertexColors];
}

template Mesh {
 <3D82AB44-62DA-11cf-AB39-0020AF71E433>
 DWORD nVertices;
 array Vector vertices[nVertices];
 DWORD nFaces;
 array MeshFace faces[nFaces];
 [...]
}

Header{
1;
0;
1;
}

Mesh {
 165;
 0.00000;0.10365;-0.08777;,
 0.05159;0.10365;-0.07101;,
 0.05584;0.10261;-0.07686;,
 0.00000;0.10261;-0.09500;,
 0.08347;0.10365;-0.02712;,
 0.09035;0.10261;-0.02936;,
 0.08347;0.10365;0.02712;,
 0.09035;0.10261;0.02936;,
 0.05159;0.10365;0.07101;,
 0.05584;0.10261;0.07686;,
 0.00000;0.10365;0.08777;,
 0.00000;0.10261;0.09500;,
 -0.05159;0.10365;0.07101;,
 -0.05584;0.10261;0.07686;,
 -0.08347;0.10365;0.02712;,
 -0.09035;0.10261;0.02936;,
 -0.08347;0.10365;-0.02712;,
 -0.09035;0.10261;-0.02936;,
 -0.05159;0.10365;-0.07101;,
 -0.05584;0.10261;-0.07686;,
 0.00000;0.10365;-0.08777;,
 0.00000;0.10261;-0.09500;,
 0.05159;0.06626;-0.07101;,
 0.00000;0.06626;-0.08777;,
 0.08347;0.06626;-0.02712;,
 0.08347;0.06626;0.02712;,
 0.05159;0.06626;0.07101;,
 0.00000;0.06626;0.08777;,
 -0.05159;0.06626;0.07101;,
 -0.08347;0.06626;0.02712;,
 -0.08347;0.06626;-0.02712;,
 -0.05159;0.06626;-0.07101;,
 0.00000;0.06626;-0.08777;,
 0.03948;0.03544;-0.05435;,
 0.00000;0.03544;-0.06718;,
 0.06389;0.03544;-0.02076;,
 0.06389;0.03544;0.02076;,
 0.03948;0.03544;0.05435;,
 0.00000;0.03544;0.06718;,
 -0.03948;0.03544;0.05435;,
 -0.06389;0.03544;0.02076;,
 -0.06389;0.03544;-0.02076;,
 -0.03948;0.03544;-0.05435;,
 0.00000;0.03544;-0.06718;,
 0.02137;0.01485;-0.02941;,
 0.00000;0.01485;-0.03635;,
 0.03458;0.01485;-0.01123;,
 0.03458;0.01485;0.01123;,
 0.02137;0.01485;0.02941;,
 0.00000;0.01485;0.03635;,
 -0.02137;0.01485;0.02941;,
 -0.03458;0.01485;0.01123;,
 -0.03458;0.01485;-0.01123;,
 -0.02137;0.01485;-0.02941;,
 0.00000;0.01485;-0.03635;,
 0.02379;0.00009;-0.03274;,
 0.00000;0.00009;-0.04047;,
 0.00000;0.00009;-0.04047;,
 0.02379;0.00009;-0.03274;,
 0.00000;0.00009;0.00000;,
 0.03849;0.00009;-0.01251;,
 0.03849;0.00009;-0.01251;,
 0.00000;0.00009;0.00000;,
 0.03849;0.00009;0.01251;,
 0.03849;0.00009;0.01251;,
 0.00000;0.00009;0.00000;,
 0.02379;0.00009;0.03274;,
 0.02379;0.00009;0.03274;,
 0.00000;0.00009;0.00000;,
 0.00000;0.00009;0.04047;,
 0.00000;0.00009;0.04047;,
 0.00000;0.00009;0.00000;,
 -0.02379;0.00009;0.03274;,
 -0.02379;0.00009;0.03274;,
 0.00000;0.00009;0.00000;,
 -0.03849;0.00009;0.01251;,
 -0.03849;0.00009;0.01251;,
 0.00000;0.00009;0.00000;,
 -0.03849;0.00009;-0.01251;,
 -0.03849;0.00009;-0.01251;,
 0.00000;0.00009;0.00000;,
 -0.02379;0.00009;-0.03274;,
 -0.02379;0.00009;-0.03274;,
 0.00000;0.00009;0.00000;,
 0.00000;0.00009;-0.04047;,
 0.00000;0.00009;-0.04047;,
 0.00000;0.00009;0.00000;,
 0.00000;0.03801;0.00000;,
 0.03183;0.04698;-0.04381;,
 0.00000;0.04698;-0.05416;,
 0.00000;0.03801;0.00000;,
 0.05150;0.04698;-0.01673;,
 0.00000;0.03801;0.00000;,
 0.05150;0.04698;0.01673;,
 0.00000;0.03801;0.00000;,
 0.03183;0.04698;0.04381;,
 0.00000;0.03801;0.00000;,
 0.00000;0.04698;0.05416;,
 0.00000;0.03801;0.00000;,
 -0.03183;0.04698;0.04381;,
 0.00000;0.03801;0.00000;,
 -0.05150;0.04698;0.01673;,
 0.00000;0.03801;0.00000;,
 -0.05150;0.04698;-0.01673;,
 0.00000;0.03801;0.00000;,
 -0.03183;0.04698;-0.04381;,
 0.00000;0.03801;0.00000;,
 0.00000;0.04698;-0.05416;,
 0.04470;0.06542;-0.06152;,
 0.00000;0.06542;-0.07605;,
 0.07232;0.06542;-0.02350;,
 0.07232;0.06542;0.02350;,
 0.04470;0.06542;0.06152;,
 0.00000;0.06542;0.07605;,
 -0.04470;0.06542;0.06152;,
 -0.07232;0.06542;0.02350;,
 -0.07232;0.06542;-0.02350;,
 -0.04470;0.06542;-0.06152;,
 0.00000;0.06542;-0.07605;,
 0.00000;0.08645;-0.08512;,
 0.05003;0.08645;-0.06886;,
 0.05159;0.10365;-0.07101;,
 0.00000;0.10365;-0.08777;,
 0.08096;0.08645;-0.02630;,
 0.08347;0.10365;-0.02712;,
 0.08096;0.08645;0.02630;,
 0.08347;0.10365;0.02712;,
 0.05003;0.08645;0.06886;,
 0.05159;0.10365;0.07101;,
 0.00000;0.08645;0.08512;,
 0.00000;0.10365;0.08777;,
 -0.05003;0.08645;0.06886;,
 -0.05159;0.10365;0.07101;,
 -0.08096;0.08645;0.02630;,
 -0.08347;0.10365;0.02712;,
 -0.08096;0.08645;-0.02630;,
 -0.08347;0.10365;-0.02712;,
 -0.05003;0.08645;-0.06886;,
 -0.05159;0.10365;-0.07101;,
 0.00000;0.08645;-0.08512;,
 0.00000;0.10365;-0.08777;,
 -0.00001;0.05868;-0.03593;,
 0.00000;0.07312;0.00000;,
 0.02112;0.05865;-0.02913;,
 0.03183;0.04512;-0.04381;,
 0.00000;0.04512;-0.05416;,
 0.03429;0.05859;-0.01119;,
 0.05150;0.04512;-0.01673;,
 0.03441;0.05853;0.01114;,
 0.05150;0.04512;0.01673;,
 0.02131;0.05849;0.02930;,
 0.03183;0.04512;0.04381;,
 -0.00001;0.05848;0.03623;,
 0.00000;0.04512;0.05416;,
 -0.02129;0.05852;0.02925;,
 -0.03183;0.04512;0.04381;,
 -0.03434;0.05857;0.01111;,
 -0.05150;0.04512;0.01673;,
 -0.03434;0.05857;0.01111;,
 0.00000;0.07312;0.00000;,
 -0.03422;0.05864;-0.01116;,
 -0.03422;0.05864;-0.01116;,
 -0.05150;0.04512;-0.01673;,
 -0.02111;0.05868;-0.02908;,
 -0.03183;0.04512;-0.04381;;
 
 120;
 4;0,1,2,3;,
 4;1,4,5,2;,
 4;4,6,7,5;,
 4;6,8,9,7;,
 4;8,10,11,9;,
 4;10,12,13,11;,
 4;12,14,15,13;,
 4;14,16,17,15;,
 4;16,18,19,17;,
 4;18,20,21,19;,
 4;3,2,22,23;,
 4;2,5,24,22;,
 4;5,7,25,24;,
 4;7,9,26,25;,
 4;9,11,27,26;,
 4;11,13,28,27;,
 4;13,15,29,28;,
 4;15,17,30,29;,
 4;17,19,31,30;,
 4;19,21,32,31;,
 4;23,22,33,34;,
 4;22,24,35,33;,
 4;24,25,36,35;,
 4;25,26,37,36;,
 4;26,27,38,37;,
 4;27,28,39,38;,
 4;28,29,40,39;,
 4;29,30,41,40;,
 4;30,31,42,41;,
 4;31,32,43,42;,
 4;34,33,44,45;,
 4;33,35,46,44;,
 4;35,36,47,46;,
 4;36,37,48,47;,
 4;37,38,49,48;,
 4;38,39,50,49;,
 4;39,40,51,50;,
 4;40,41,52,51;,
 4;41,42,53,52;,
 4;42,43,54,53;,
 4;55,56,45,44;,
 3;57,58,59;,
 4;60,55,44,46;,
 3;58,61,62;,
 4;63,60,46,47;,
 3;61,64,65;,
 4;66,63,47,48;,
 3;64,67,68;,
 4;69,66,48,49;,
 3;67,70,71;,
 4;72,69,49,50;,
 3;70,73,74;,
 4;75,72,50,51;,
 3;73,76,77;,
 4;78,75,51,52;,
 3;76,79,80;,
 4;81,78,52,53;,
 3;79,82,83;,
 4;84,81,53,54;,
 3;82,85,86;,
 3;87,88,89;,
 3;90,91,88;,
 3;92,93,91;,
 3;94,95,93;,
 3;96,97,95;,
 3;98,99,97;,
 3;100,101,99;,
 3;102,103,101;,
 3;104,105,103;,
 3;106,107,105;,
 4;89,88,108,109;,
 4;88,91,110,108;,
 4;91,93,111,110;,
 4;93,95,112,111;,
 4;95,97,113,112;,
 4;97,99,114,113;,
 4;99,101,115,114;,
 4;101,103,116,115;,
 4;103,105,117,116;,
 4;105,107,118,117;,
 4;119,120,121,122;,
 4;109,108,120,119;,
 4;120,123,124,121;,
 4;108,110,123,120;,
 4;123,125,126,124;,
 4;110,111,125,123;,
 4;125,127,128,126;,
 4;111,112,127,125;,
 4;127,129,130,128;,
 4;112,113,129,127;,
 4;129,131,132,130;,
 4;113,114,131,129;,
 4;131,133,134,132;,
 4;114,115,133,131;,
 4;133,135,136,134;,
 4;115,116,135,133;,
 4;135,137,138,136;,
 4;116,117,137,135;,
 4;137,139,140,138;,
 4;117,118,139,137;,
 3;141,142,143;,
 4;141,143,144,145;,
 3;143,142,146;,
 4;143,146,147,144;,
 3;146,142,148;,
 4;146,148,149,147;,
 3;148,142,150;,
 4;148,150,151,149;,
 3;150,142,152;,
 4;150,152,153,151;,
 3;152,142,154;,
 4;152,154,155,153;,
 3;154,142,156;,
 4;154,156,157,155;,
 3;158,159,160;,
 4;156,161,162,157;,
 3;161,142,163;,
 4;161,163,164,162;,
 3;163,142,141;,
 4;163,141,145,164;;
 
 MeshMaterialList {
  8;
  120;
  2,
  2,
  2,
  2,
  2,
  2,
  2,
  2,
  2,
  2,
  2,
  2,
  2,
  2,
  2,
  2,
  2,
  2,
  2,
  2,
  2,
  2,
  2,
  2,
  2,
  2,
  2,
  2,
  2,
  2,
  2,
  2,
  2,
  2,
  2,
  2,
  2,
  2,
  2,
  2,
  2,
  4,
  2,
  4,
  2,
  4,
  2,
  4,
  2,
  4,
  2,
  4,
  2,
  4,
  2,
  4,
  2,
  4,
  2,
  4,
  4,
  4,
  4,
  4,
  4,
  4,
  4,
  4,
  4,
  4,
  4,
  4,
  4,
  4,
  4,
  4,
  4,
  4,
  4,
  4,
  4,
  4,
  4,
  4,
  4,
  4,
  4,
  4,
  4,
  4,
  4,
  4,
  4,
  4,
  4,
  4,
  4,
  4,
  4,
  4,
  5,
  5,
  5,
  5,
  5,
  5,
  5,
  5,
  5,
  5,
  5,
  5,
  5,
  5,
  5,
  5,
  5,
  5,
  5,
  5;;
  Material {
   0.800000;0.800000;0.800000;1.000000;;
   5.000000;
   0.000000;0.000000;0.000000;;
   0.000000;0.000000;0.000000;;
   TextureFilename {
    "iztex01.png";
   }
  }
  Material {
   0.668000;0.633600;0.351200;1.000000;;
   5.000000;
   0.000000;0.000000;0.000000;;
   0.258850;0.245520;0.136090;;
   TextureFilename {
    "iztex01.png";
   }
  }
  Material {
   0.298400;0.125600;0.112800;1.000000;;
   18.000000;
   0.200000;0.200000;0.200000;;
   0.134280;0.056520;0.050760;;
   TextureFilename {
    "iztex01.png";
   }
  }
  Material {
   0.061410;0.011730;0.011730;1.000000;;
   30.000000;
   0.300000;0.300000;0.300000;;
   0.000000;0.000000;0.000000;;
   TextureFilename {
    "iztex01.png";
   }
  }
  Material {
   0.800000;0.166400;0.000000;1.000000;;
   5.000000;
   0.450000;0.450000;0.450000;;
   0.000000;0.000000;0.000000;;
   TextureFilename {
    "iztex01.png";
   }
  }
  Material {
   0.800000;0.800000;0.800000;1.000000;;
   5.000000;
   0.100000;0.100000;0.100000;;
   0.390000;0.390000;0.390000;;
   TextureFilename {
    "iztex01.png";
   }
  }
  Material {
   0.800000;0.800000;0.800000;1.000000;;
   26.000000;
   0.410000;0.410000;0.410000;;
   0.400000;0.400000;0.400000;;
   TextureFilename {
    "iztex01.png";
   }
  }
  Material {
   0.800000;0.800000;0.800000;0.300000;;
   54.000000;
   0.710000;0.710000;0.710000;;
   0.750000;0.750000;0.750000;;
   TextureFilename {
    "iztex01.png";
   }
  }
 }
 MeshNormals {
  113;
  0.000000;0.817406;0.576061;,
  -0.338603;0.817404;0.466046;,
  -0.547867;0.817405;0.178018;,
  -0.547867;0.817405;-0.178018;,
  -0.338603;0.817404;-0.466046;,
  0.000000;0.817406;-0.576061;,
  0.338603;0.817404;-0.466046;,
  0.547867;0.817405;-0.178018;,
  0.547867;0.817405;0.178018;,
  0.338603;0.817404;0.466046;,
  0.000000;0.597790;-0.801653;,
  0.471201;0.597790;-0.648550;,
  0.762418;0.597791;-0.247721;,
  0.762418;0.597791;0.247721;,
  0.471201;0.597790;0.648550;,
  0.000000;0.597790;0.801653;,
  -0.471201;0.597790;0.648550;,
  -0.762418;0.597791;0.247721;,
  -0.762418;0.597791;-0.247721;,
  -0.471201;0.597790;-0.648550;,
  0.000000;-0.383895;-0.923377;,
  0.542750;-0.383895;-0.747026;,
  0.878185;-0.383893;-0.285337;,
  0.878185;-0.383893;0.285337;,
  0.542750;-0.383895;0.747026;,
  0.000000;-0.383895;0.923377;,
  -0.542750;-0.383895;0.747026;,
  -0.878185;-0.383893;0.285337;,
  -0.878185;-0.383893;-0.285337;,
  -0.542750;-0.383895;-0.747026;,
  0.000000;-0.708459;-0.705752;,
  0.414832;-0.708460;-0.570963;,
  0.671211;-0.708459;-0.218086;,
  0.671211;-0.708459;0.218086;,
  0.414832;-0.708460;0.570963;,
  0.000000;-0.708459;0.705752;,
  -0.414832;-0.708460;0.570963;,
  -0.671211;-0.708459;0.218086;,
  -0.671211;-0.708459;-0.218086;,
  -0.414832;-0.708460;-0.570963;,
  0.000000;-0.357895;-0.933762;,
  0.548851;-0.357897;-0.755429;,
  0.888059;-0.357901;-0.288544;,
  0.888059;-0.357901;0.288544;,
  0.548851;-0.357897;0.755429;,
  0.000000;-0.357895;0.933762;,
  -0.548851;-0.357897;0.755429;,
  -0.888059;-0.357901;0.288544;,
  -0.888059;-0.357901;-0.288544;,
  -0.548851;-0.357897;-0.755429;,
  -0.000000;-0.628846;-0.777530;,
  0.457020;-0.628846;-0.629035;,
  0.739470;-0.628852;-0.240268;,
  0.739470;-0.628852;0.240268;,
  0.457020;-0.628847;0.629035;,
  -0.000000;-0.628846;0.777530;,
  -0.457020;-0.628846;0.629035;,
  -0.739470;-0.628852;0.240268;,
  -0.739470;-0.628852;-0.240268;,
  -0.457020;-0.628847;-0.629035;,
  0.000000;-1.000000;-0.000000;,
  -0.000000;1.000000;0.000000;,
  0.000000;0.909221;0.416313;,
  -0.244704;0.909221;0.336804;,
  -0.395935;0.909222;0.128648;,
  -0.395935;0.909222;-0.128648;,
  -0.244704;0.909221;-0.336804;,
  0.000000;0.909221;-0.416313;,
  0.244704;0.909221;-0.336804;,
  0.395935;0.909222;-0.128648;,
  0.395935;0.909222;0.128648;,
  0.244704;0.909221;0.336804;,
  0.000000;0.598443;0.801165;,
  -0.470915;0.598442;0.648156;,
  -0.761951;0.598446;0.247574;,
  -0.761951;0.598446;-0.247574;,
  -0.470915;0.598442;-0.648156;,
  0.000000;0.598443;-0.801165;,
  0.470915;0.598442;-0.648156;,
  0.761951;0.598446;-0.247574;,
  0.761951;0.598446;0.247574;,
  0.470915;0.598442;0.648156;,
  0.000000;0.276841;0.960916;,
  -0.564814;0.276838;0.777397;,
  -0.913885;0.276837;0.296942;,
  -0.913885;0.276837;-0.296942;,
  -0.564814;0.276838;-0.777397;,
  0.000000;0.276841;-0.960916;,
  0.564814;0.276838;-0.777397;,
  0.913885;0.276837;-0.296942;,
  0.913885;0.276837;0.296942;,
  0.564814;0.276838;0.777397;,
  0.000191;1.000000;0.000776;,
  -0.000109;0.802080;-0.597217;,
  0.350790;0.802049;-0.483388;,
  0.568103;0.801892;-0.185010;,
  0.568525;0.801747;0.184339;,
  0.351449;0.801735;0.483430;,
  -0.000112;0.801748;0.597662;,
  -0.351556;0.801764;0.483305;,
  -0.568421;0.801844;0.184241;,
  -0.567999;0.801989;-0.184909;,
  -0.350896;0.802085;-0.483252;,
  0.287286;0.872468;-0.395307;,
  0.000026;0.872556;-0.488514;,
  0.465115;0.872274;-0.151017;,
  0.465398;0.872074;0.151301;,
  0.287728;0.871975;0.396071;,
  0.000028;0.871969;0.489562;,
  -0.287613;0.872055;0.395978;,
  -0.465157;0.872215;0.151228;,
  -0.464875;0.872415;-0.150943;,
  -0.287172;0.872550;-0.395208;;
  120;
  4;0,1,11,10;,
  4;1,2,12,11;,
  4;2,3,13,12;,
  4;3,4,14,13;,
  4;4,5,15,14;,
  4;5,6,16,15;,
  4;6,7,17,16;,
  4;7,8,18,17;,
  4;8,9,19,18;,
  4;9,0,10,19;,
  4;10,11,21,20;,
  4;11,12,22,21;,
  4;12,13,23,22;,
  4;13,14,24,23;,
  4;14,15,25,24;,
  4;15,16,26,25;,
  4;16,17,27,26;,
  4;17,18,28,27;,
  4;18,19,29,28;,
  4;19,10,20,29;,
  4;20,21,31,30;,
  4;21,22,32,31;,
  4;22,23,33,32;,
  4;23,24,34,33;,
  4;24,25,35,34;,
  4;25,26,36,35;,
  4;26,27,37,36;,
  4;27,28,38,37;,
  4;28,29,39,38;,
  4;29,20,30,39;,
  4;30,31,41,40;,
  4;31,32,42,41;,
  4;32,33,43,42;,
  4;33,34,44,43;,
  4;34,35,45,44;,
  4;35,36,46,45;,
  4;36,37,47,46;,
  4;37,38,48,47;,
  4;38,39,49,48;,
  4;39,30,40,49;,
  4;51,50,40,41;,
  3;50,51,60;,
  4;52,51,41,42;,
  3;51,52,60;,
  4;53,52,42,43;,
  3;52,53,60;,
  4;54,53,43,44;,
  3;53,54,60;,
  4;55,54,44,45;,
  3;54,55,60;,
  4;56,55,45,46;,
  3;55,56,60;,
  4;57,56,46,47;,
  3;56,57,60;,
  4;58,57,47,48;,
  3;57,58,60;,
  4;59,58,48,49;,
  3;58,59,60;,
  4;50,59,49,40;,
  3;59,50,60;,
  3;61,63,62;,
  3;61,64,63;,
  3;61,65,64;,
  3;61,66,65;,
  3;61,67,66;,
  3;61,68,67;,
  3;61,69,68;,
  3;61,70,69;,
  3;61,71,70;,
  3;61,62,71;,
  4;62,63,73,72;,
  4;63,64,74,73;,
  4;64,65,75,74;,
  4;65,66,76,75;,
  4;66,67,77,76;,
  4;67,68,78,77;,
  4;68,69,79,78;,
  4;69,70,80,79;,
  4;70,71,81,80;,
  4;71,62,72,81;,
  4;82,83,1,0;,
  4;72,73,83,82;,
  4;83,84,2,1;,
  4;73,74,84,83;,
  4;84,85,3,2;,
  4;74,75,85,84;,
  4;85,86,4,3;,
  4;75,76,86,85;,
  4;86,87,5,4;,
  4;76,77,87,86;,
  4;87,88,6,5;,
  4;77,78,88,87;,
  4;88,89,7,6;,
  4;78,79,89,88;,
  4;89,90,8,7;,
  4;79,80,90,89;,
  4;90,91,9,8;,
  4;80,81,91,90;,
  4;91,82,0,9;,
  4;81,72,82,91;,
  3;104,92,103;,
  4;104,103,94,93;,
  3;103,92,105;,
  4;103,105,95,94;,
  3;105,92,106;,
  4;105,106,96,95;,
  3;106,92,107;,
  4;106,107,97,96;,
  3;107,92,108;,
  4;107,108,98,97;,
  3;108,92,109;,
  4;108,109,99,98;,
  3;109,92,110;,
  4;109,110,100,99;,
  3;110,92,111;,
  4;110,111,101,100;,
  3;111,92,112;,
  4;111,112,102,101;,
  3;112,92,104;,
  4;112,104,93,102;;
 }
 MeshTextureCoords {
  165;
  0.136620;0.232230;,
  0.136620;0.238810;,
  0.107380;0.238810;,
  0.107380;0.232230;,
  0.136620;0.245400;,
  0.107380;0.245400;,
  0.136620;0.251980;,
  0.107380;0.251980;,
  0.136620;0.258570;,
  0.107380;0.258570;,
  0.136620;0.265150;,
  0.107380;0.265150;,
  0.136620;0.271730;,
  0.107380;0.271730;,
  0.136620;0.278320;,
  0.107380;0.278320;,
  0.136620;0.284900;,
  0.107380;0.284900;,
  0.136620;0.291480;,
  0.107380;0.291480;,
  0.136620;0.298070;,
  0.107380;0.298070;,
  0.078130;0.238810;,
  0.078130;0.232230;,
  0.078130;0.245400;,
  0.078130;0.251980;,
  0.078130;0.258570;,
  0.078130;0.265150;,
  0.078130;0.271730;,
  0.078130;0.278320;,
  0.078130;0.284900;,
  0.078130;0.291480;,
  0.078130;0.298070;,
  0.048880;0.238810;,
  0.048880;0.232230;,
  0.048880;0.245400;,
  0.048880;0.251980;,
  0.048880;0.258570;,
  0.048880;0.265150;,
  0.048880;0.271730;,
  0.048880;0.278320;,
  0.048880;0.284900;,
  0.048880;0.291480;,
  0.048880;0.298070;,
  0.019640;0.238810;,
  0.019640;0.232230;,
  0.019640;0.245400;,
  0.019640;0.251980;,
  0.019640;0.258570;,
  0.019640;0.265150;,
  0.019640;0.271730;,
  0.019640;0.278320;,
  0.019640;0.284900;,
  0.019640;0.291480;,
  0.019640;0.298070;,
  0.019640;0.238810;,
  0.019640;0.232230;,
  0.129580;0.428200;,
  0.131400;0.428200;,
  0.130490;0.430470;,
  0.019640;0.245400;,
  0.133230;0.428200;,
  0.132320;0.430470;,
  0.019640;0.251980;,
  0.135060;0.428200;,
  0.134150;0.430470;,
  0.019640;0.258570;,
  0.136890;0.428200;,
  0.135970;0.430470;,
  0.019640;0.265150;,
  0.138710;0.428200;,
  0.137800;0.430470;,
  0.019640;0.271730;,
  0.140540;0.428200;,
  0.139630;0.430470;,
  0.019640;0.278320;,
  0.142370;0.428200;,
  0.141460;0.430470;,
  0.019640;0.284900;,
  0.144200;0.428200;,
  0.143280;0.430470;,
  0.019640;0.291480;,
  0.146030;0.428200;,
  0.145110;0.430470;,
  0.019640;0.298070;,
  0.147850;0.428200;,
  0.146940;0.430470;,
  0.130490;0.412270;,
  0.131400;0.414550;,
  0.129580;0.414550;,
  0.132320;0.412270;,
  0.133230;0.414550;,
  0.134150;0.412270;,
  0.135060;0.414550;,
  0.135970;0.412270;,
  0.136890;0.414550;,
  0.137800;0.412270;,
  0.138710;0.414550;,
  0.139630;0.412270;,
  0.140540;0.414550;,
  0.141460;0.412270;,
  0.142370;0.414550;,
  0.143280;0.412270;,
  0.144200;0.414550;,
  0.145110;0.412270;,
  0.146030;0.414550;,
  0.146940;0.412270;,
  0.147850;0.414550;,
  0.131400;0.416820;,
  0.129580;0.416820;,
  0.133230;0.416820;,
  0.135060;0.416820;,
  0.136890;0.416820;,
  0.138710;0.416820;,
  0.140540;0.416820;,
  0.142370;0.416820;,
  0.144200;0.416820;,
  0.146030;0.416820;,
  0.147850;0.416820;,
  0.129580;0.419100;,
  0.131400;0.419100;,
  0.131400;0.419100;,
  0.129580;0.419100;,
  0.133230;0.419100;,
  0.133230;0.419100;,
  0.135060;0.419100;,
  0.135060;0.419100;,
  0.136890;0.419100;,
  0.136890;0.419100;,
  0.138710;0.419100;,
  0.138710;0.419100;,
  0.140540;0.419100;,
  0.140540;0.419100;,
  0.142370;0.419100;,
  0.142370;0.419100;,
  0.144200;0.419100;,
  0.144200;0.419100;,
  0.146030;0.419100;,
  0.146030;0.419100;,
  0.147850;0.419100;,
  0.147850;0.419100;,
  0.059130;0.481160;,
  0.062750;0.453230;,
  0.077500;0.477810;,
  0.083600;0.488700;,
  0.057590;0.492520;,
  0.090340;0.464920;,
  0.100870;0.470540;,
  0.092690;0.447320;,
  0.100690;0.444690;,
  0.083570;0.431750;,
  0.090550;0.425360;,
  0.066160;0.427350;,
  0.068270;0.415980;,
  0.047920;0.427730;,
  0.045270;0.420580;,
  0.035160;0.440790;,
  0.028820;0.440300;,
  0.036470;0.440480;,
  0.050930;0.447010;,
  0.035340;0.449700;,
  0.033010;0.458360;,
  0.023800;0.460730;,
  0.042170;0.473750;,
  0.031750;0.481090;;
 }
}
