xof 0302txt 0064
template Header {
 <3D82AB43-62DA-11cf-AB39-0020AF71E433>
 WORD major;
 WORD minor;
 DWORD flags;
}

template Vector {
 <3D82AB5E-62DA-11cf-AB39-0020AF71E433>
 FLOAT x;
 FLOAT y;
 FLOAT z;
}

template Coords2d {
 <F6F23F44-7686-11cf-8F52-0040333594A3>
 FLOAT u;
 FLOAT v;
}

template Matrix4x4 {
 <F6F23F45-7686-11cf-8F52-0040333594A3>
 array FLOAT matrix[16];
}

template ColorRGBA {
 <35FF44E0-6C7C-11cf-8F52-0040333594A3>
 FLOAT red;
 FLOAT green;
 FLOAT blue;
 FLOAT alpha;
}

template ColorRGB {
 <D3E16E81-7835-11cf-8F52-0040333594A3>
 FLOAT red;
 FLOAT green;
 FLOAT blue;
}

template IndexedColor {
 <1630B820-7842-11cf-8F52-0040333594A3>
 DWORD index;
 ColorRGBA indexColor;
}

template Boolean {
 <4885AE61-78E8-11cf-8F52-0040333594A3>
 WORD truefalse;
}

template Boolean2d {
 <4885AE63-78E8-11cf-8F52-0040333594A3>
 Boolean u;
 Boolean v;
}

template MaterialWrap {
 <4885AE60-78E8-11cf-8F52-0040333594A3>
 Boolean u;
 Boolean v;
}

template TextureFilename {
 <A42790E1-7810-11cf-8F52-0040333594A3>
 STRING filename;
}

template Material {
 <3D82AB4D-62DA-11cf-AB39-0020AF71E433>
 ColorRGBA faceColor;
 FLOAT power;
 ColorRGB specularColor;
 ColorRGB emissiveColor;
 [...]
}

template MeshFace {
 <3D82AB5F-62DA-11cf-AB39-0020AF71E433>
 DWORD nFaceVertexIndices;
 array DWORD faceVertexIndices[nFaceVertexIndices];
}

template MeshFaceWraps {
 <4885AE62-78E8-11cf-8F52-0040333594A3>
 DWORD nFaceWrapValues;
 Boolean2d faceWrapValues;
}

template MeshTextureCoords {
 <F6F23F40-7686-11cf-8F52-0040333594A3>
 DWORD nTextureCoords;
 array Coords2d textureCoords[nTextureCoords];
}

template MeshMaterialList {
 <F6F23F42-7686-11cf-8F52-0040333594A3>
 DWORD nMaterials;
 DWORD nFaceIndexes;
 array DWORD faceIndexes[nFaceIndexes];
 [Material]
}

template MeshNormals {
 <F6F23F43-7686-11cf-8F52-0040333594A3>
 DWORD nNormals;
 array Vector normals[nNormals];
 DWORD nFaceNormals;
 array MeshFace faceNormals[nFaceNormals];
}

template MeshVertexColors {
 <1630B821-7842-11cf-8F52-0040333594A3>
 DWORD nVertexColors;
 array IndexedColor vertexColors[nVertexColors];
}

template Mesh {
 <3D82AB44-62DA-11cf-AB39-0020AF71E433>
 DWORD nVertices;
 array Vector vertices[nVertices];
 DWORD nFaces;
 array MeshFace faces[nFaces];
 [...]
}

Header{
1;
0;
1;
}

Mesh {
 163;
 -0.00001;0.05868;-0.03593;,
 0.00000;0.07312;0.00000;,
 0.02112;0.05865;-0.02913;,
 0.03183;0.04512;-0.04381;,
 0.00000;0.04512;-0.05416;,
 0.03429;0.05859;-0.01119;,
 0.05150;0.04512;-0.01673;,
 0.03441;0.05853;0.01114;,
 0.05150;0.04512;0.01673;,
 0.02131;0.05849;0.02930;,
 0.03183;0.04512;0.04381;,
 -0.00001;0.05848;0.03623;,
 0.00000;0.04512;0.05416;,
 -0.02129;0.05852;0.02925;,
 -0.03183;0.04512;0.04381;,
 -0.03434;0.05857;0.01111;,
 -0.05150;0.04512;0.01673;,
 -0.03434;0.05857;0.01111;,
 -0.03422;0.05864;-0.01116;,
 -0.05150;0.04512;-0.01673;,
 -0.02111;0.05868;-0.02908;,
 -0.03183;0.04512;-0.04381;,
 0.00000;0.08289;-0.08777;,
 0.05159;0.08289;-0.07101;,
 0.05584;0.08206;-0.07686;,
 0.00000;0.08206;-0.09500;,
 0.08347;0.08289;-0.02712;,
 0.09035;0.08206;-0.02936;,
 0.08347;0.08289;0.02712;,
 0.09035;0.08206;0.02936;,
 0.05159;0.08289;0.07101;,
 0.05584;0.08206;0.07686;,
 0.00000;0.08289;0.08777;,
 0.00000;0.08206;0.09500;,
 -0.05159;0.08289;0.07101;,
 -0.05584;0.08206;0.07686;,
 -0.08347;0.08289;0.02712;,
 -0.09035;0.08206;0.02936;,
 -0.08347;0.08289;-0.02712;,
 -0.09035;0.08206;-0.02936;,
 -0.05159;0.08289;-0.07101;,
 -0.05584;0.08206;-0.07686;,
 0.00000;0.08289;-0.08777;,
 0.00000;0.08206;-0.09500;,
 0.05159;0.05316;-0.07101;,
 0.00000;0.05316;-0.08777;,
 0.08347;0.05316;-0.02712;,
 0.08347;0.05316;0.02712;,
 0.05159;0.05316;0.07101;,
 0.00000;0.05316;0.08777;,
 -0.05159;0.05316;0.07101;,
 -0.08347;0.05316;0.02712;,
 -0.08347;0.05316;-0.02712;,
 -0.05159;0.05316;-0.07101;,
 0.00000;0.05316;-0.08777;,
 0.03948;0.02866;-0.05435;,
 0.00000;0.02866;-0.06718;,
 0.06389;0.02866;-0.02076;,
 0.06389;0.02866;0.02076;,
 0.03948;0.02866;0.05435;,
 0.00000;0.02866;0.06718;,
 -0.03948;0.02866;0.05435;,
 -0.06389;0.02866;0.02076;,
 -0.06389;0.02866;-0.02076;,
 -0.03948;0.02866;-0.05435;,
 0.00000;0.02866;-0.06718;,
 0.02137;0.01229;-0.02941;,
 0.00000;0.01229;-0.03635;,
 0.03458;0.01229;-0.01123;,
 0.03458;0.01229;0.01123;,
 0.02137;0.01229;0.02941;,
 0.00000;0.01229;0.03635;,
 -0.02137;0.01229;0.02941;,
 -0.03458;0.01229;0.01123;,
 -0.03458;0.01229;-0.01123;,
 -0.02137;0.01229;-0.02941;,
 0.00000;0.01229;-0.03635;,
 0.02379;0.00056;-0.03274;,
 0.00000;0.00056;-0.04047;,
 0.00000;0.00056;-0.04047;,
 0.02379;0.00056;-0.03274;,
 0.00000;0.00055;0.00000;,
 0.03849;0.00056;-0.01251;,
 0.03849;0.00056;-0.01251;,
 0.00000;0.00055;0.00000;,
 0.03849;0.00056;0.01251;,
 0.03849;0.00056;0.01251;,
 0.00000;0.00055;0.00000;,
 0.02379;0.00056;0.03274;,
 0.02379;0.00056;0.03274;,
 0.00000;0.00055;0.00000;,
 0.00000;0.00056;0.04047;,
 0.00000;0.00056;0.04047;,
 0.00000;0.00055;0.00000;,
 -0.02379;0.00056;0.03274;,
 -0.02379;0.00056;0.03274;,
 0.00000;0.00055;0.00000;,
 -0.03849;0.00056;0.01251;,
 -0.03849;0.00056;0.01251;,
 0.00000;0.00055;0.00000;,
 -0.03849;0.00056;-0.01251;,
 -0.03849;0.00056;-0.01251;,
 0.00000;0.00055;0.00000;,
 -0.02379;0.00056;-0.03274;,
 -0.02379;0.00056;-0.03274;,
 0.00000;0.00055;0.00000;,
 0.00000;0.00056;-0.04047;,
 0.00000;0.00056;-0.04047;,
 0.00000;0.00055;0.00000;,
 0.00000;0.03071;0.00000;,
 0.03183;0.03783;-0.04381;,
 0.00000;0.03783;-0.05416;,
 0.00000;0.03071;0.00000;,
 0.05150;0.03783;-0.01673;,
 0.00000;0.03071;0.00000;,
 0.05150;0.03783;0.01673;,
 0.00000;0.03071;0.00000;,
 0.03183;0.03783;0.04381;,
 0.00000;0.03071;0.00000;,
 0.00000;0.03783;0.05416;,
 0.00000;0.03071;0.00000;,
 -0.03183;0.03783;0.04381;,
 0.00000;0.03071;0.00000;,
 -0.05150;0.03783;0.01673;,
 0.00000;0.03071;0.00000;,
 -0.05150;0.03783;-0.01673;,
 0.00000;0.03071;0.00000;,
 -0.03183;0.03783;-0.04381;,
 0.00000;0.03071;0.00000;,
 0.00000;0.03783;-0.05416;,
 0.04470;0.05250;-0.06152;,
 0.00000;0.05250;-0.07605;,
 0.07232;0.05250;-0.02350;,
 0.07232;0.05250;0.02350;,
 0.04470;0.05250;0.06152;,
 0.00000;0.05250;0.07605;,
 -0.04470;0.05250;0.06152;,
 -0.07232;0.05250;0.02350;,
 -0.07232;0.05250;-0.02350;,
 -0.04470;0.05250;-0.06152;,
 0.00000;0.05250;-0.07605;,
 0.00000;0.06921;-0.08512;,
 0.05003;0.06921;-0.06886;,
 0.05159;0.08289;-0.07101;,
 0.00000;0.08289;-0.08777;,
 0.08096;0.06921;-0.02630;,
 0.08347;0.08289;-0.02712;,
 0.08096;0.06921;0.02630;,
 0.08347;0.08289;0.02712;,
 0.05003;0.06921;0.06886;,
 0.05159;0.08289;0.07101;,
 0.00000;0.06921;0.08512;,
 0.00000;0.08289;0.08777;,
 -0.05003;0.06921;0.06886;,
 -0.05159;0.08289;0.07101;,
 -0.08096;0.06921;0.02630;,
 -0.08347;0.08289;0.02712;,
 -0.08096;0.06921;-0.02630;,
 -0.08347;0.08289;-0.02712;,
 -0.05003;0.06921;-0.06886;,
 -0.05159;0.08289;-0.07101;,
 0.00000;0.06921;-0.08512;,
 0.00000;0.08289;-0.08777;;
 
 120;
 3;0,1,2;,
 4;0,2,3,4;,
 3;2,1,5;,
 4;2,5,6,3;,
 3;5,1,7;,
 4;5,7,8,6;,
 3;7,1,9;,
 4;7,9,10,8;,
 3;9,1,11;,
 4;9,11,12,10;,
 3;11,1,13;,
 4;11,13,14,12;,
 3;13,1,15;,
 4;13,15,16,14;,
 3;17,1,18;,
 4;15,18,19,16;,
 3;18,1,20;,
 4;18,20,21,19;,
 3;20,1,0;,
 4;20,0,4,21;,
 4;22,23,24,25;,
 4;23,26,27,24;,
 4;26,28,29,27;,
 4;28,30,31,29;,
 4;30,32,33,31;,
 4;32,34,35,33;,
 4;34,36,37,35;,
 4;36,38,39,37;,
 4;38,40,41,39;,
 4;40,42,43,41;,
 4;25,24,44,45;,
 4;24,27,46,44;,
 4;27,29,47,46;,
 4;29,31,48,47;,
 4;31,33,49,48;,
 4;33,35,50,49;,
 4;35,37,51,50;,
 4;37,39,52,51;,
 4;39,41,53,52;,
 4;41,43,54,53;,
 4;45,44,55,56;,
 4;44,46,57,55;,
 4;46,47,58,57;,
 4;47,48,59,58;,
 4;48,49,60,59;,
 4;49,50,61,60;,
 4;50,51,62,61;,
 4;51,52,63,62;,
 4;52,53,64,63;,
 4;53,54,65,64;,
 4;56,55,66,67;,
 4;55,57,68,66;,
 4;57,58,69,68;,
 4;58,59,70,69;,
 4;59,60,71,70;,
 4;60,61,72,71;,
 4;61,62,73,72;,
 4;62,63,74,73;,
 4;63,64,75,74;,
 4;64,65,76,75;,
 4;77,78,67,66;,
 3;79,80,81;,
 4;82,77,66,68;,
 3;80,83,84;,
 4;85,82,68,69;,
 3;83,86,87;,
 4;88,85,69,70;,
 3;86,89,90;,
 4;91,88,70,71;,
 3;89,92,93;,
 4;94,91,71,72;,
 3;92,95,96;,
 4;97,94,72,73;,
 3;95,98,99;,
 4;100,97,73,74;,
 3;98,101,102;,
 4;103,100,74,75;,
 3;101,104,105;,
 4;106,103,75,76;,
 3;104,107,108;,
 3;109,110,111;,
 3;112,113,110;,
 3;114,115,113;,
 3;116,117,115;,
 3;118,119,117;,
 3;120,121,119;,
 3;122,123,121;,
 3;124,125,123;,
 3;126,127,125;,
 3;128,129,127;,
 4;111,110,130,131;,
 4;110,113,132,130;,
 4;113,115,133,132;,
 4;115,117,134,133;,
 4;117,119,135,134;,
 4;119,121,136,135;,
 4;121,123,137,136;,
 4;123,125,138,137;,
 4;125,127,139,138;,
 4;127,129,140,139;,
 4;141,142,143,144;,
 4;131,130,142,141;,
 4;142,145,146,143;,
 4;130,132,145,142;,
 4;145,147,148,146;,
 4;132,133,147,145;,
 4;147,149,150,148;,
 4;133,134,149,147;,
 4;149,151,152,150;,
 4;134,135,151,149;,
 4;151,153,154,152;,
 4;135,136,153,151;,
 4;153,155,156,154;,
 4;136,137,155,153;,
 4;155,157,158,156;,
 4;137,138,157,155;,
 4;157,159,160,158;,
 4;138,139,159,157;,
 4;159,161,162,160;,
 4;139,140,161,159;;
 
 MeshMaterialList {
  8;
  120;
  5,
  5,
  5,
  5,
  5,
  5,
  5,
  5,
  5,
  5,
  5,
  5,
  5,
  5,
  5,
  5,
  5,
  5,
  5,
  5,
  3,
  3,
  3,
  3,
  3,
  3,
  3,
  3,
  3,
  3,
  3,
  3,
  3,
  3,
  3,
  3,
  3,
  3,
  3,
  3,
  3,
  3,
  3,
  3,
  3,
  3,
  3,
  3,
  3,
  3,
  3,
  3,
  3,
  3,
  3,
  3,
  3,
  3,
  3,
  3,
  3,
  4,
  3,
  4,
  3,
  4,
  3,
  4,
  3,
  4,
  3,
  4,
  3,
  4,
  3,
  4,
  3,
  4,
  3,
  4,
  4,
  4,
  4,
  4,
  4,
  4,
  4,
  4,
  4,
  4,
  4,
  4,
  4,
  4,
  4,
  4,
  4,
  4,
  4,
  4,
  4,
  4,
  4,
  4,
  4,
  4,
  4,
  4,
  4,
  4,
  4,
  4,
  4,
  4,
  4,
  4,
  4,
  4,
  4,
  4;;
  Material {
   0.800000;0.800000;0.800000;1.000000;;
   5.000000;
   0.000000;0.000000;0.000000;;
   0.000000;0.000000;0.000000;;
   TextureFilename {
    "iztex01.png";
   }
  }
  Material {
   0.668000;0.633600;0.351200;1.000000;;
   5.000000;
   0.000000;0.000000;0.000000;;
   0.258850;0.245520;0.136090;;
   TextureFilename {
    "iztex01.png";
   }
  }
  Material {
   0.298400;0.125600;0.112800;1.000000;;
   18.000000;
   0.200000;0.200000;0.200000;;
   0.134280;0.056520;0.050760;;
   TextureFilename {
    "iztex01.png";
   }
  }
  Material {
   0.061410;0.011730;0.011730;1.000000;;
   30.000000;
   0.300000;0.300000;0.300000;;
   0.000000;0.000000;0.000000;;
   TextureFilename {
    "iztex01.png";
   }
  }
  Material {
   0.800000;0.166400;0.000000;1.000000;;
   5.000000;
   0.450000;0.450000;0.450000;;
   0.000000;0.000000;0.000000;;
   TextureFilename {
    "iztex01.png";
   }
  }
  Material {
   0.800000;0.800000;0.800000;1.000000;;
   5.000000;
   0.100000;0.100000;0.100000;;
   0.390000;0.390000;0.390000;;
   TextureFilename {
    "iztex01.png";
   }
  }
  Material {
   0.800000;0.800000;0.800000;1.000000;;
   26.000000;
   0.410000;0.410000;0.410000;;
   0.400000;0.400000;0.400000;;
   TextureFilename {
    "iztex01.png";
   }
  }
  Material {
   0.800000;0.800000;0.800000;0.300000;;
   54.000000;
   0.710000;0.710000;0.710000;;
   0.750000;0.750000;0.750000;;
   TextureFilename {
    "iztex01.png";
   }
  }
 }
 MeshNormals {
  133;
  0.000191;1.000000;0.000776;,
  -0.000109;0.802080;-0.597217;,
  0.350790;0.802049;-0.483388;,
  0.568103;0.801892;-0.185010;,
  0.568525;0.801747;0.184339;,
  0.351449;0.801735;0.483430;,
  -0.000112;0.801748;0.597662;,
  -0.351556;0.801764;0.483305;,
  -0.568421;0.801844;0.184241;,
  -0.567999;0.801989;-0.184909;,
  -0.350896;0.802085;-0.483252;,
  0.287286;0.872468;-0.395307;,
  0.000026;0.872556;-0.488514;,
  0.465115;0.872274;-0.151017;,
  0.465398;0.872074;0.151301;,
  0.287728;0.871975;0.396071;,
  0.000028;0.871969;0.489562;,
  -0.287613;0.872055;0.395978;,
  -0.465157;0.872215;0.151228;,
  -0.464875;0.872415;-0.150943;,
  -0.287172;0.872550;-0.395208;,
  0.000000;0.993524;-0.113618;,
  0.066782;0.993525;-0.091918;,
  0.108062;0.993524;-0.035109;,
  0.108062;0.993524;0.035109;,
  0.066782;0.993525;0.091918;,
  0.000000;0.993524;0.113618;,
  -0.066782;0.993525;0.091918;,
  -0.108062;0.993524;0.035109;,
  -0.108062;0.993524;-0.035109;,
  -0.066782;0.993525;-0.091918;,
  0.000000;-0.456512;-0.889718;,
  0.522965;-0.456512;-0.719795;,
  0.846173;-0.456510;-0.274936;,
  0.846173;-0.456510;0.274936;,
  0.522965;-0.456512;0.719795;,
  0.000000;-0.456512;0.889718;,
  -0.522965;-0.456512;0.719795;,
  -0.846173;-0.456510;0.274936;,
  -0.846173;-0.456510;-0.274936;,
  -0.522965;-0.456512;-0.719795;,
  0.000000;-0.778658;-0.627449;,
  0.368807;-0.778658;-0.507615;,
  0.596740;-0.778658;-0.193890;,
  0.596740;-0.778658;0.193890;,
  0.368807;-0.778658;0.507615;,
  0.000000;-0.778658;0.627449;,
  -0.368807;-0.778658;0.507615;,
  -0.596740;-0.778658;0.193890;,
  -0.596740;-0.778658;-0.193890;,
  -0.368807;-0.778658;-0.507615;,
  0.000000;-0.883129;-0.469130;,
  0.275748;-0.883130;-0.379532;,
  0.446175;-0.883127;-0.144967;,
  0.446175;-0.883127;0.144967;,
  0.275748;-0.883130;0.379532;,
  0.000000;-0.883129;0.469130;,
  -0.275748;-0.883130;0.379532;,
  -0.446175;-0.883127;0.144967;,
  -0.446175;-0.883127;-0.144967;,
  -0.275748;-0.883130;-0.379532;,
  0.000000;0.331022;-0.943623;,
  0.554647;0.331021;-0.763408;,
  0.897446;0.331003;-0.291596;,
  0.897446;0.331003;0.291596;,
  0.554647;0.331021;0.763408;,
  0.000000;0.331022;0.943623;,
  -0.554647;0.331021;0.763408;,
  -0.897446;0.331003;0.291596;,
  -0.897446;0.331003;-0.291596;,
  -0.554647;0.331021;-0.763408;,
  -0.000000;-1.000000;0.000000;,
  0.000000;1.000000;0.000000;,
  0.000000;0.936329;0.351124;,
  -0.206387;0.936329;0.284065;,
  -0.333937;0.936330;0.108504;,
  -0.333937;0.936330;-0.108504;,
  -0.206387;0.936329;-0.284065;,
  0.000000;0.936329;-0.351124;,
  0.206387;0.936329;-0.284065;,
  0.333937;0.936330;-0.108504;,
  0.333937;0.936330;0.108504;,
  0.206387;0.936329;0.284065;,
  0.000000;0.675667;0.737207;,
  -0.433322;0.675666;0.596413;,
  -0.701123;0.675670;0.227810;,
  -0.701123;0.675670;-0.227810;,
  -0.433322;0.675666;-0.596413;,
  0.000000;0.675667;-0.737207;,
  0.433322;0.675666;-0.596413;,
  0.701123;0.675670;-0.227810;,
  0.701123;0.675670;0.227810;,
  0.433322;0.675666;0.596413;,
  0.000000;0.338224;0.941066;,
  -0.553146;0.338221;0.761338;,
  -0.895007;0.338219;0.290808;,
  -0.895008;0.338219;-0.290808;,
  -0.553146;0.338221;-0.761338;,
  0.000000;0.338224;-0.941066;,
  0.553146;0.338221;-0.761338;,
  0.895007;0.338219;-0.290808;,
  0.895008;0.338219;0.290808;,
  0.553146;0.338221;0.761338;,
  0.000000;-0.242728;-0.970094;,
  0.570208;-0.242730;-0.784821;,
  0.922617;-0.242719;-0.299774;,
  0.922617;-0.242719;0.299774;,
  0.570208;-0.242730;0.784821;,
  0.000000;-0.242728;0.970094;,
  -0.570208;-0.242730;0.784821;,
  -0.922617;-0.242719;0.299774;,
  -0.922617;-0.242719;-0.299774;,
  -0.570208;-0.242730;-0.784821;,
  0.000000;-1.000000;-0.000173;,
  0.000102;-1.000000;-0.000140;,
  0.000165;-1.000000;-0.000053;,
  0.000165;-1.000000;0.000053;,
  0.000102;-1.000000;0.000140;,
  0.000000;-1.000000;0.000173;,
  -0.000102;-1.000000;0.000140;,
  -0.000165;-1.000000;0.000053;,
  -0.000165;-1.000000;-0.000053;,
  -0.000102;-1.000000;-0.000140;,
  -0.577083;0.189967;0.794285;,
  0.000000;0.189970;0.981790;,
  -0.933739;0.189958;0.303394;,
  -0.933739;0.189958;-0.303394;,
  -0.577083;0.189967;-0.794285;,
  0.000000;0.189970;-0.981790;,
  0.577083;0.189967;-0.794285;,
  0.933739;0.189958;-0.303394;,
  0.933739;0.189958;0.303394;,
  0.577083;0.189967;0.794285;;
  120;
  3;12,0,11;,
  4;12,11,2,1;,
  3;11,0,13;,
  4;11,13,3,2;,
  3;13,0,14;,
  4;13,14,4,3;,
  3;14,0,15;,
  4;14,15,5,4;,
  3;15,0,16;,
  4;15,16,6,5;,
  3;16,0,17;,
  4;16,17,7,6;,
  3;17,0,18;,
  4;17,18,8,7;,
  3;18,0,19;,
  4;18,19,9,8;,
  3;19,0,20;,
  4;19,20,10,9;,
  3;20,0,12;,
  4;20,12,1,10;,
  4;21,22,22,21;,
  4;22,23,23,22;,
  4;23,24,24,23;,
  4;24,25,25,24;,
  4;25,26,26,25;,
  4;26,27,27,26;,
  4;27,28,28,27;,
  4;28,29,29,28;,
  4;29,30,30,29;,
  4;30,21,21,30;,
  4;103,104,32,31;,
  4;104,105,33,32;,
  4;105,106,34,33;,
  4;106,107,35,34;,
  4;107,108,36,35;,
  4;108,109,37,36;,
  4;109,110,38,37;,
  4;110,111,39,38;,
  4;111,112,40,39;,
  4;112,103,31,40;,
  4;31,32,42,41;,
  4;32,33,43,42;,
  4;33,34,44,43;,
  4;34,35,45,44;,
  4;35,36,46,45;,
  4;36,37,47,46;,
  4;37,38,48,47;,
  4;38,39,49,48;,
  4;39,40,50,49;,
  4;40,31,41,50;,
  4;41,42,52,51;,
  4;42,43,53,52;,
  4;43,44,54,53;,
  4;44,45,55,54;,
  4;45,46,56,55;,
  4;46,47,57,56;,
  4;47,48,58,57;,
  4;48,49,59,58;,
  4;49,50,60,59;,
  4;50,41,51,60;,
  4;62,61,61,62;,
  3;113,114,71;,
  4;63,62,62,63;,
  3;114,115,71;,
  4;64,63,63,64;,
  3;115,116,71;,
  4;65,64,64,65;,
  3;116,117,71;,
  4;66,65,65,66;,
  3;117,118,71;,
  4;67,66,66,67;,
  3;118,119,71;,
  4;68,67,67,68;,
  3;119,120,71;,
  4;69,68,68,69;,
  3;120,121,71;,
  4;70,69,69,70;,
  3;121,122,71;,
  4;61,70,70,61;,
  3;122,113,71;,
  3;72,74,73;,
  3;72,75,74;,
  3;72,76,75;,
  3;72,77,76;,
  3;72,78,77;,
  3;72,79,78;,
  3;72,80,79;,
  3;72,81,80;,
  3;72,82,81;,
  3;72,73,82;,
  4;73,74,84,83;,
  4;74,75,85,84;,
  4;75,76,86,85;,
  4;76,77,87,86;,
  4;77,78,88,87;,
  4;78,79,89,88;,
  4;79,80,90,89;,
  4;80,81,91,90;,
  4;81,82,92,91;,
  4;82,73,83,92;,
  4;93,94,123,124;,
  4;83,84,94,93;,
  4;94,95,125,123;,
  4;84,85,95,94;,
  4;95,96,126,125;,
  4;85,86,96,95;,
  4;96,97,127,126;,
  4;86,87,97,96;,
  4;97,98,128,127;,
  4;87,88,98,97;,
  4;98,99,129,128;,
  4;88,89,99,98;,
  4;99,100,130,129;,
  4;89,90,100,99;,
  4;100,101,131,130;,
  4;90,91,101,100;,
  4;101,102,132,131;,
  4;91,92,102,101;,
  4;102,93,124,132;,
  4;92,83,93,102;;
 }
 MeshTextureCoords {
  163;
  0.059130;0.481160;,
  0.062750;0.453230;,
  0.077500;0.477810;,
  0.083600;0.488700;,
  0.057590;0.492520;,
  0.090340;0.464920;,
  0.100870;0.470540;,
  0.092690;0.447320;,
  0.100690;0.444690;,
  0.083570;0.431750;,
  0.090550;0.425360;,
  0.066160;0.427350;,
  0.068270;0.415980;,
  0.047920;0.427730;,
  0.045270;0.420580;,
  0.035160;0.440790;,
  0.028820;0.440300;,
  0.035166;0.440772;,
  0.033010;0.458360;,
  0.023800;0.460730;,
  0.042170;0.473750;,
  0.031750;0.481090;,
  0.150370;0.209410;,
  0.150370;0.221180;,
  0.115170;0.221180;,
  0.115170;0.209410;,
  0.150370;0.232950;,
  0.115170;0.232950;,
  0.150370;0.244720;,
  0.115170;0.244720;,
  0.150370;0.256490;,
  0.115170;0.256490;,
  0.150370;0.268260;,
  0.115170;0.268260;,
  0.150370;0.280030;,
  0.115170;0.280030;,
  0.150370;0.291800;,
  0.115170;0.291800;,
  0.150370;0.303560;,
  0.115170;0.303560;,
  0.150370;0.315330;,
  0.115170;0.315330;,
  0.150370;0.327100;,
  0.115170;0.327100;,
  0.079960;0.221180;,
  0.079960;0.209410;,
  0.079960;0.232950;,
  0.079960;0.244720;,
  0.079960;0.256490;,
  0.079960;0.268260;,
  0.079960;0.280030;,
  0.079960;0.291800;,
  0.079960;0.303560;,
  0.079960;0.315330;,
  0.079960;0.327100;,
  0.044760;0.221180;,
  0.044760;0.209410;,
  0.044760;0.232950;,
  0.044760;0.244720;,
  0.044760;0.256490;,
  0.044760;0.268260;,
  0.044760;0.280030;,
  0.044760;0.291800;,
  0.044760;0.303560;,
  0.044760;0.315330;,
  0.044760;0.327100;,
  0.009550;0.221180;,
  0.009550;0.209410;,
  0.009550;0.232950;,
  0.009550;0.244720;,
  0.009550;0.256490;,
  0.009550;0.268260;,
  0.009550;0.280030;,
  0.009550;0.291800;,
  0.009550;0.303560;,
  0.009550;0.315330;,
  0.009550;0.327100;,
  0.009550;0.221180;,
  0.009550;0.209410;,
  0.134120;0.412410;,
  0.135040;0.412410;,
  0.134580;0.413560;,
  0.009550;0.232950;,
  0.135960;0.412410;,
  0.135500;0.413560;,
  0.009550;0.244720;,
  0.136880;0.412410;,
  0.136420;0.413560;,
  0.009550;0.256490;,
  0.137810;0.412410;,
  0.137350;0.413560;,
  0.009550;0.268260;,
  0.138730;0.412410;,
  0.138270;0.413560;,
  0.009550;0.280030;,
  0.139650;0.412410;,
  0.139190;0.413560;,
  0.009550;0.291800;,
  0.140570;0.412410;,
  0.140110;0.413560;,
  0.009550;0.303560;,
  0.141490;0.412410;,
  0.141030;0.413560;,
  0.009550;0.315330;,
  0.142410;0.412410;,
  0.141950;0.413560;,
  0.009550;0.327100;,
  0.143340;0.412410;,
  0.142880;0.413560;,
  0.134580;0.404340;,
  0.135040;0.405500;,
  0.134120;0.405500;,
  0.135500;0.404340;,
  0.135960;0.405500;,
  0.136420;0.404340;,
  0.136880;0.405500;,
  0.137350;0.404340;,
  0.137810;0.405500;,
  0.138270;0.404340;,
  0.138730;0.405500;,
  0.139190;0.404340;,
  0.139650;0.405500;,
  0.140110;0.404340;,
  0.140570;0.405500;,
  0.141030;0.404340;,
  0.141490;0.405500;,
  0.141950;0.404340;,
  0.142410;0.405500;,
  0.142880;0.404340;,
  0.143340;0.405500;,
  0.135040;0.406650;,
  0.134120;0.406650;,
  0.135960;0.406650;,
  0.136880;0.406650;,
  0.137810;0.406650;,
  0.138730;0.406650;,
  0.139650;0.406650;,
  0.140570;0.406650;,
  0.141490;0.406650;,
  0.142410;0.406650;,
  0.143340;0.406650;,
  0.134120;0.407800;,
  0.135040;0.407800;,
  0.135040;0.407800;,
  0.134120;0.407800;,
  0.135960;0.407800;,
  0.135960;0.407800;,
  0.136880;0.407800;,
  0.136880;0.407800;,
  0.137810;0.407800;,
  0.137810;0.407800;,
  0.138730;0.407800;,
  0.138730;0.407800;,
  0.139650;0.407800;,
  0.139650;0.407800;,
  0.140570;0.407800;,
  0.140570;0.407800;,
  0.141490;0.407800;,
  0.141490;0.407800;,
  0.142410;0.407800;,
  0.142410;0.407800;,
  0.143340;0.407800;,
  0.143340;0.407800;;
 }
}
