xof 0302txt 0064
template Header {
 <3D82AB43-62DA-11cf-AB39-0020AF71E433>
 WORD major;
 WORD minor;
 DWORD flags;
}

template Vector {
 <3D82AB5E-62DA-11cf-AB39-0020AF71E433>
 FLOAT x;
 FLOAT y;
 FLOAT z;
}

template Coords2d {
 <F6F23F44-7686-11cf-8F52-0040333594A3>
 FLOAT u;
 FLOAT v;
}

template Matrix4x4 {
 <F6F23F45-7686-11cf-8F52-0040333594A3>
 array FLOAT matrix[16];
}

template ColorRGBA {
 <35FF44E0-6C7C-11cf-8F52-0040333594A3>
 FLOAT red;
 FLOAT green;
 FLOAT blue;
 FLOAT alpha;
}

template ColorRGB {
 <D3E16E81-7835-11cf-8F52-0040333594A3>
 FLOAT red;
 FLOAT green;
 FLOAT blue;
}

template IndexedColor {
 <1630B820-7842-11cf-8F52-0040333594A3>
 DWORD index;
 ColorRGBA indexColor;
}

template Boolean {
 <4885AE61-78E8-11cf-8F52-0040333594A3>
 WORD truefalse;
}

template Boolean2d {
 <4885AE63-78E8-11cf-8F52-0040333594A3>
 Boolean u;
 Boolean v;
}

template MaterialWrap {
 <4885AE60-78E8-11cf-8F52-0040333594A3>
 Boolean u;
 Boolean v;
}

template TextureFilename {
 <A42790E1-7810-11cf-8F52-0040333594A3>
 STRING filename;
}

template Material {
 <3D82AB4D-62DA-11cf-AB39-0020AF71E433>
 ColorRGBA faceColor;
 FLOAT power;
 ColorRGB specularColor;
 ColorRGB emissiveColor;
 [...]
}

template MeshFace {
 <3D82AB5F-62DA-11cf-AB39-0020AF71E433>
 DWORD nFaceVertexIndices;
 array DWORD faceVertexIndices[nFaceVertexIndices];
}

template MeshFaceWraps {
 <4885AE62-78E8-11cf-8F52-0040333594A3>
 DWORD nFaceWrapValues;
 Boolean2d faceWrapValues;
}

template MeshTextureCoords {
 <F6F23F40-7686-11cf-8F52-0040333594A3>
 DWORD nTextureCoords;
 array Coords2d textureCoords[nTextureCoords];
}

template MeshMaterialList {
 <F6F23F42-7686-11cf-8F52-0040333594A3>
 DWORD nMaterials;
 DWORD nFaceIndexes;
 array DWORD faceIndexes[nFaceIndexes];
 [Material]
}

template MeshNormals {
 <F6F23F43-7686-11cf-8F52-0040333594A3>
 DWORD nNormals;
 array Vector normals[nNormals];
 DWORD nFaceNormals;
 array MeshFace faceNormals[nFaceNormals];
}

template MeshVertexColors {
 <1630B821-7842-11cf-8F52-0040333594A3>
 DWORD nVertexColors;
 array IndexedColor vertexColors[nVertexColors];
}

template Mesh {
 <3D82AB44-62DA-11cf-AB39-0020AF71E433>
 DWORD nVertices;
 array Vector vertices[nVertices];
 DWORD nFaces;
 array MeshFace faces[nFaces];
 [...]
}

Header{
1;
0;
1;
}

Mesh {
 141;
 0.00000;0.08289;-0.08777;,
 0.05159;0.08289;-0.07101;,
 0.05584;0.08206;-0.07686;,
 0.00000;0.08206;-0.09500;,
 0.08347;0.08289;-0.02712;,
 0.09035;0.08206;-0.02936;,
 0.08347;0.08289;0.02712;,
 0.09035;0.08206;0.02936;,
 0.05159;0.08289;0.07101;,
 0.05584;0.08206;0.07686;,
 0.00000;0.08289;0.08777;,
 0.00000;0.08206;0.09500;,
 -0.05159;0.08289;0.07101;,
 -0.05584;0.08206;0.07686;,
 -0.08347;0.08289;0.02712;,
 -0.09035;0.08206;0.02936;,
 -0.08347;0.08289;-0.02712;,
 -0.09035;0.08206;-0.02936;,
 -0.05159;0.08289;-0.07101;,
 -0.05584;0.08206;-0.07686;,
 0.00000;0.08289;-0.08777;,
 0.00000;0.08206;-0.09500;,
 0.05159;0.05316;-0.07101;,
 0.00000;0.05316;-0.08777;,
 0.08347;0.05316;-0.02712;,
 0.08347;0.05316;0.02712;,
 0.05159;0.05316;0.07101;,
 0.00000;0.05316;0.08777;,
 -0.05159;0.05316;0.07101;,
 -0.08347;0.05316;0.02712;,
 -0.08347;0.05316;-0.02712;,
 -0.05159;0.05316;-0.07101;,
 0.00000;0.05316;-0.08777;,
 0.03948;0.02866;-0.05435;,
 0.00000;0.02866;-0.06718;,
 0.06389;0.02866;-0.02076;,
 0.06389;0.02866;0.02076;,
 0.03948;0.02866;0.05435;,
 0.00000;0.02866;0.06718;,
 -0.03948;0.02866;0.05435;,
 -0.06389;0.02866;0.02076;,
 -0.06389;0.02866;-0.02076;,
 -0.03948;0.02866;-0.05435;,
 0.00000;0.02866;-0.06718;,
 0.02137;0.01229;-0.02941;,
 0.00000;0.01229;-0.03635;,
 0.03458;0.01229;-0.01123;,
 0.03458;0.01229;0.01123;,
 0.02137;0.01229;0.02941;,
 0.00000;0.01229;0.03635;,
 -0.02137;0.01229;0.02941;,
 -0.03458;0.01229;0.01123;,
 -0.03458;0.01229;-0.01123;,
 -0.02137;0.01229;-0.02941;,
 0.00000;0.01229;-0.03635;,
 0.02379;0.00056;-0.03274;,
 0.00000;0.00056;-0.04047;,
 0.00000;0.00056;-0.04047;,
 0.02379;0.00056;-0.03274;,
 0.00000;0.00055;0.00000;,
 0.03849;0.00056;-0.01251;,
 0.03849;0.00056;-0.01251;,
 0.00000;0.00055;0.00000;,
 0.03849;0.00056;0.01251;,
 0.03849;0.00056;0.01251;,
 0.00000;0.00055;0.00000;,
 0.02379;0.00056;0.03274;,
 0.02379;0.00056;0.03274;,
 0.00000;0.00055;0.00000;,
 0.00000;0.00056;0.04047;,
 0.00000;0.00056;0.04047;,
 0.00000;0.00055;0.00000;,
 -0.02379;0.00056;0.03274;,
 -0.02379;0.00056;0.03274;,
 0.00000;0.00055;0.00000;,
 -0.03849;0.00056;0.01251;,
 -0.03849;0.00056;0.01251;,
 0.00000;0.00055;0.00000;,
 -0.03849;0.00056;-0.01251;,
 -0.03849;0.00056;-0.01251;,
 0.00000;0.00055;0.00000;,
 -0.02379;0.00056;-0.03274;,
 -0.02379;0.00056;-0.03274;,
 0.00000;0.00055;0.00000;,
 0.00000;0.00056;-0.04047;,
 0.00000;0.00056;-0.04047;,
 0.00000;0.00055;0.00000;,
 0.00000;0.03071;0.00000;,
 0.03183;0.03783;-0.04381;,
 0.00000;0.03783;-0.05416;,
 0.00000;0.03071;0.00000;,
 0.05150;0.03783;-0.01673;,
 0.00000;0.03071;0.00000;,
 0.05150;0.03783;0.01673;,
 0.00000;0.03071;0.00000;,
 0.03183;0.03783;0.04381;,
 0.00000;0.03071;0.00000;,
 0.00000;0.03783;0.05416;,
 0.00000;0.03071;0.00000;,
 -0.03183;0.03783;0.04381;,
 0.00000;0.03071;0.00000;,
 -0.05150;0.03783;0.01673;,
 0.00000;0.03071;0.00000;,
 -0.05150;0.03783;-0.01673;,
 0.00000;0.03071;0.00000;,
 -0.03183;0.03783;-0.04381;,
 0.00000;0.03071;0.00000;,
 0.00000;0.03783;-0.05416;,
 0.04470;0.05250;-0.06152;,
 0.00000;0.05250;-0.07605;,
 0.07232;0.05250;-0.02350;,
 0.07232;0.05250;0.02350;,
 0.04470;0.05250;0.06152;,
 0.00000;0.05250;0.07605;,
 -0.04470;0.05250;0.06152;,
 -0.07232;0.05250;0.02350;,
 -0.07232;0.05250;-0.02350;,
 -0.04470;0.05250;-0.06152;,
 0.00000;0.05250;-0.07605;,
 0.00000;0.06921;-0.08512;,
 0.05003;0.06921;-0.06886;,
 0.05159;0.08289;-0.07101;,
 0.00000;0.08289;-0.08777;,
 0.08096;0.06921;-0.02630;,
 0.08347;0.08289;-0.02712;,
 0.08096;0.06921;0.02630;,
 0.08347;0.08289;0.02712;,
 0.05003;0.06921;0.06886;,
 0.05159;0.08289;0.07101;,
 0.00000;0.06921;0.08512;,
 0.00000;0.08289;0.08777;,
 -0.05003;0.06921;0.06886;,
 -0.05159;0.08289;0.07101;,
 -0.08096;0.06921;0.02630;,
 -0.08347;0.08289;0.02712;,
 -0.08096;0.06921;-0.02630;,
 -0.08347;0.08289;-0.02712;,
 -0.05003;0.06921;-0.06886;,
 -0.05159;0.08289;-0.07101;,
 0.00000;0.06921;-0.08512;,
 0.00000;0.08289;-0.08777;;
 
 100;
 4;0,1,2,3;,
 4;1,4,5,2;,
 4;4,6,7,5;,
 4;6,8,9,7;,
 4;8,10,11,9;,
 4;10,12,13,11;,
 4;12,14,15,13;,
 4;14,16,17,15;,
 4;16,18,19,17;,
 4;18,20,21,19;,
 4;3,2,22,23;,
 4;2,5,24,22;,
 4;5,7,25,24;,
 4;7,9,26,25;,
 4;9,11,27,26;,
 4;11,13,28,27;,
 4;13,15,29,28;,
 4;15,17,30,29;,
 4;17,19,31,30;,
 4;19,21,32,31;,
 4;23,22,33,34;,
 4;22,24,35,33;,
 4;24,25,36,35;,
 4;25,26,37,36;,
 4;26,27,38,37;,
 4;27,28,39,38;,
 4;28,29,40,39;,
 4;29,30,41,40;,
 4;30,31,42,41;,
 4;31,32,43,42;,
 4;34,33,44,45;,
 4;33,35,46,44;,
 4;35,36,47,46;,
 4;36,37,48,47;,
 4;37,38,49,48;,
 4;38,39,50,49;,
 4;39,40,51,50;,
 4;40,41,52,51;,
 4;41,42,53,52;,
 4;42,43,54,53;,
 4;55,56,45,44;,
 3;57,58,59;,
 4;60,55,44,46;,
 3;58,61,62;,
 4;63,60,46,47;,
 3;61,64,65;,
 4;66,63,47,48;,
 3;64,67,68;,
 4;69,66,48,49;,
 3;67,70,71;,
 4;72,69,49,50;,
 3;70,73,74;,
 4;75,72,50,51;,
 3;73,76,77;,
 4;78,75,51,52;,
 3;76,79,80;,
 4;81,78,52,53;,
 3;79,82,83;,
 4;84,81,53,54;,
 3;82,85,86;,
 3;87,88,89;,
 3;90,91,88;,
 3;92,93,91;,
 3;94,95,93;,
 3;96,97,95;,
 3;98,99,97;,
 3;100,101,99;,
 3;102,103,101;,
 3;104,105,103;,
 3;106,107,105;,
 4;89,88,108,109;,
 4;88,91,110,108;,
 4;91,93,111,110;,
 4;93,95,112,111;,
 4;95,97,113,112;,
 4;97,99,114,113;,
 4;99,101,115,114;,
 4;101,103,116,115;,
 4;103,105,117,116;,
 4;105,107,118,117;,
 4;119,120,121,122;,
 4;109,108,120,119;,
 4;120,123,124,121;,
 4;108,110,123,120;,
 4;123,125,126,124;,
 4;110,111,125,123;,
 4;125,127,128,126;,
 4;111,112,127,125;,
 4;127,129,130,128;,
 4;112,113,129,127;,
 4;129,131,132,130;,
 4;113,114,131,129;,
 4;131,133,134,132;,
 4;114,115,133,131;,
 4;133,135,136,134;,
 4;115,116,135,133;,
 4;135,137,138,136;,
 4;116,117,137,135;,
 4;137,139,140,138;,
 4;117,118,139,137;;
 
 MeshMaterialList {
  8;
  100;
  3,
  3,
  3,
  3,
  3,
  3,
  3,
  3,
  3,
  3,
  3,
  3,
  3,
  3,
  3,
  3,
  3,
  3,
  3,
  3,
  3,
  3,
  3,
  3,
  3,
  3,
  3,
  3,
  3,
  3,
  3,
  3,
  3,
  3,
  3,
  3,
  3,
  3,
  3,
  3,
  3,
  4,
  3,
  4,
  3,
  4,
  3,
  4,
  3,
  4,
  3,
  4,
  3,
  4,
  3,
  4,
  3,
  4,
  3,
  4,
  4,
  4,
  4,
  4,
  4,
  4,
  4,
  4,
  4,
  4,
  4,
  4,
  4,
  4,
  4,
  4,
  4,
  4,
  4,
  4,
  4,
  4,
  4,
  4,
  4,
  4,
  4,
  4,
  4,
  4,
  4,
  4,
  4,
  4,
  4,
  4,
  4,
  4,
  4,
  4;;
  Material {
   0.800000;0.800000;0.800000;1.000000;;
   5.000000;
   0.000000;0.000000;0.000000;;
   0.000000;0.000000;0.000000;;
   TextureFilename {
    "iztex01.png";
   }
  }
  Material {
   0.668000;0.633600;0.351200;1.000000;;
   5.000000;
   0.000000;0.000000;0.000000;;
   0.258850;0.245520;0.136090;;
   TextureFilename {
    "iztex01.png";
   }
  }
  Material {
   0.298400;0.125600;0.112800;1.000000;;
   18.000000;
   0.200000;0.200000;0.200000;;
   0.134280;0.056520;0.050760;;
   TextureFilename {
    "iztex01.png";
   }
  }
  Material {
   0.061410;0.011730;0.011730;1.000000;;
   30.000000;
   0.300000;0.300000;0.300000;;
   0.000000;0.000000;0.000000;;
   TextureFilename {
    "iztex01.png";
   }
  }
  Material {
   0.800000;0.166400;0.000000;1.000000;;
   5.000000;
   0.450000;0.450000;0.450000;;
   0.000000;0.000000;0.000000;;
   TextureFilename {
    "iztex01.png";
   }
  }
  Material {
   0.800000;0.800000;0.800000;1.000000;;
   5.000000;
   0.100000;0.100000;0.100000;;
   0.390000;0.390000;0.390000;;
   TextureFilename {
    "iztex01.png";
   }
  }
  Material {
   0.800000;0.800000;0.800000;1.000000;;
   26.000000;
   0.410000;0.410000;0.410000;;
   0.400000;0.400000;0.400000;;
   TextureFilename {
    "iztex01.png";
   }
  }
  Material {
   0.800000;0.800000;0.800000;0.300000;;
   54.000000;
   0.710000;0.710000;0.710000;;
   0.750000;0.750000;0.750000;;
   TextureFilename {
    "iztex01.png";
   }
  }
 }
 MeshNormals {
  112;
  0.000000;0.993524;-0.113618;,
  0.066782;0.993525;-0.091918;,
  0.108062;0.993524;-0.035109;,
  0.108062;0.993524;0.035109;,
  0.066782;0.993525;0.091918;,
  0.000000;0.993524;0.113618;,
  -0.066782;0.993525;0.091918;,
  -0.108062;0.993524;0.035109;,
  -0.108062;0.993524;-0.035109;,
  -0.066782;0.993525;-0.091918;,
  0.000000;-0.456512;-0.889718;,
  0.522965;-0.456512;-0.719795;,
  0.846173;-0.456510;-0.274936;,
  0.846173;-0.456510;0.274936;,
  0.522965;-0.456512;0.719795;,
  0.000000;-0.456512;0.889718;,
  -0.522965;-0.456512;0.719795;,
  -0.846173;-0.456510;0.274936;,
  -0.846173;-0.456510;-0.274936;,
  -0.522965;-0.456512;-0.719795;,
  0.000000;-0.778658;-0.627449;,
  0.368807;-0.778658;-0.507615;,
  0.596740;-0.778658;-0.193890;,
  0.596740;-0.778658;0.193890;,
  0.368807;-0.778658;0.507615;,
  0.000000;-0.778658;0.627449;,
  -0.368807;-0.778658;0.507615;,
  -0.596740;-0.778658;0.193890;,
  -0.596740;-0.778658;-0.193890;,
  -0.368807;-0.778658;-0.507615;,
  0.000000;-0.883129;-0.469130;,
  0.275748;-0.883130;-0.379532;,
  0.446175;-0.883127;-0.144967;,
  0.446175;-0.883127;0.144967;,
  0.275748;-0.883130;0.379532;,
  0.000000;-0.883129;0.469130;,
  -0.275748;-0.883130;0.379532;,
  -0.446175;-0.883127;0.144967;,
  -0.446175;-0.883127;-0.144967;,
  -0.275748;-0.883130;-0.379532;,
  0.000000;0.331022;-0.943623;,
  0.554647;0.331021;-0.763408;,
  0.897446;0.331003;-0.291596;,
  0.897446;0.331003;0.291596;,
  0.554647;0.331021;0.763408;,
  0.000000;0.331022;0.943623;,
  -0.554647;0.331021;0.763408;,
  -0.897446;0.331003;0.291596;,
  -0.897446;0.331003;-0.291596;,
  -0.554647;0.331021;-0.763408;,
  -0.000000;-1.000000;0.000000;,
  0.000000;1.000000;0.000000;,
  0.000000;0.936329;0.351124;,
  -0.206387;0.936329;0.284065;,
  -0.333937;0.936330;0.108504;,
  -0.333937;0.936330;-0.108504;,
  -0.206387;0.936329;-0.284065;,
  0.000000;0.936329;-0.351124;,
  0.206387;0.936329;-0.284065;,
  0.333937;0.936330;-0.108504;,
  0.333937;0.936330;0.108504;,
  0.206387;0.936329;0.284065;,
  0.000000;0.675667;0.737207;,
  -0.433322;0.675666;0.596413;,
  -0.701123;0.675670;0.227810;,
  -0.701123;0.675670;-0.227810;,
  -0.433322;0.675666;-0.596413;,
  0.000000;0.675667;-0.737207;,
  0.433322;0.675666;-0.596413;,
  0.701123;0.675670;-0.227810;,
  0.701123;0.675670;0.227810;,
  0.433322;0.675666;0.596413;,
  0.000000;0.338224;0.941066;,
  -0.553146;0.338221;0.761338;,
  -0.895007;0.338219;0.290808;,
  -0.895008;0.338219;-0.290808;,
  -0.553146;0.338221;-0.761338;,
  0.000000;0.338224;-0.941066;,
  0.553146;0.338221;-0.761338;,
  0.895007;0.338219;-0.290808;,
  0.895008;0.338219;0.290808;,
  0.553146;0.338221;0.761338;,
  0.000000;-0.242728;-0.970094;,
  0.570208;-0.242730;-0.784821;,
  0.922617;-0.242719;-0.299774;,
  0.922617;-0.242719;0.299774;,
  0.570208;-0.242730;0.784821;,
  0.000000;-0.242728;0.970094;,
  -0.570208;-0.242730;0.784821;,
  -0.922617;-0.242719;0.299774;,
  -0.922617;-0.242719;-0.299774;,
  -0.570208;-0.242730;-0.784821;,
  0.000000;-1.000000;-0.000173;,
  0.000102;-1.000000;-0.000140;,
  0.000165;-1.000000;-0.000053;,
  0.000165;-1.000000;0.000053;,
  0.000102;-1.000000;0.000140;,
  0.000000;-1.000000;0.000173;,
  -0.000102;-1.000000;0.000140;,
  -0.000165;-1.000000;0.000053;,
  -0.000165;-1.000000;-0.000053;,
  -0.000102;-1.000000;-0.000140;,
  -0.577083;0.189967;0.794285;,
  0.000000;0.189970;0.981790;,
  -0.933739;0.189958;0.303394;,
  -0.933739;0.189958;-0.303394;,
  -0.577083;0.189967;-0.794285;,
  0.000000;0.189970;-0.981790;,
  0.577083;0.189967;-0.794285;,
  0.933739;0.189958;-0.303394;,
  0.933739;0.189958;0.303394;,
  0.577083;0.189967;0.794285;;
  100;
  4;0,1,1,0;,
  4;1,2,2,1;,
  4;2,3,3,2;,
  4;3,4,4,3;,
  4;4,5,5,4;,
  4;5,6,6,5;,
  4;6,7,7,6;,
  4;7,8,8,7;,
  4;8,9,9,8;,
  4;9,0,0,9;,
  4;82,83,11,10;,
  4;83,84,12,11;,
  4;84,85,13,12;,
  4;85,86,14,13;,
  4;86,87,15,14;,
  4;87,88,16,15;,
  4;88,89,17,16;,
  4;89,90,18,17;,
  4;90,91,19,18;,
  4;91,82,10,19;,
  4;10,11,21,20;,
  4;11,12,22,21;,
  4;12,13,23,22;,
  4;13,14,24,23;,
  4;14,15,25,24;,
  4;15,16,26,25;,
  4;16,17,27,26;,
  4;17,18,28,27;,
  4;18,19,29,28;,
  4;19,10,20,29;,
  4;20,21,31,30;,
  4;21,22,32,31;,
  4;22,23,33,32;,
  4;23,24,34,33;,
  4;24,25,35,34;,
  4;25,26,36,35;,
  4;26,27,37,36;,
  4;27,28,38,37;,
  4;28,29,39,38;,
  4;29,20,30,39;,
  4;41,40,40,41;,
  3;92,93,50;,
  4;42,41,41,42;,
  3;93,94,50;,
  4;43,42,42,43;,
  3;94,95,50;,
  4;44,43,43,44;,
  3;95,96,50;,
  4;45,44,44,45;,
  3;96,97,50;,
  4;46,45,45,46;,
  3;97,98,50;,
  4;47,46,46,47;,
  3;98,99,50;,
  4;48,47,47,48;,
  3;99,100,50;,
  4;49,48,48,49;,
  3;100,101,50;,
  4;40,49,49,40;,
  3;101,92,50;,
  3;51,53,52;,
  3;51,54,53;,
  3;51,55,54;,
  3;51,56,55;,
  3;51,57,56;,
  3;51,58,57;,
  3;51,59,58;,
  3;51,60,59;,
  3;51,61,60;,
  3;51,52,61;,
  4;52,53,63,62;,
  4;53,54,64,63;,
  4;54,55,65,64;,
  4;55,56,66,65;,
  4;56,57,67,66;,
  4;57,58,68,67;,
  4;58,59,69,68;,
  4;59,60,70,69;,
  4;60,61,71,70;,
  4;61,52,62,71;,
  4;72,73,102,103;,
  4;62,63,73,72;,
  4;73,74,104,102;,
  4;63,64,74,73;,
  4;74,75,105,104;,
  4;64,65,75,74;,
  4;75,76,106,105;,
  4;65,66,76,75;,
  4;76,77,107,106;,
  4;66,67,77,76;,
  4;77,78,108,107;,
  4;67,68,78,77;,
  4;78,79,109,108;,
  4;68,69,79,78;,
  4;79,80,110,109;,
  4;69,70,80,79;,
  4;80,81,111,110;,
  4;70,71,81,80;,
  4;81,72,103,111;,
  4;71,62,72,81;;
 }
 MeshTextureCoords {
  141;
  0.150370;0.209410;,
  0.150370;0.221180;,
  0.115170;0.221180;,
  0.115170;0.209410;,
  0.150370;0.232950;,
  0.115170;0.232950;,
  0.150370;0.244720;,
  0.115170;0.244720;,
  0.150370;0.256490;,
  0.115170;0.256490;,
  0.150370;0.268260;,
  0.115170;0.268260;,
  0.150370;0.280030;,
  0.115170;0.280030;,
  0.150370;0.291800;,
  0.115170;0.291800;,
  0.150370;0.303560;,
  0.115170;0.303560;,
  0.150370;0.315330;,
  0.115170;0.315330;,
  0.150370;0.327100;,
  0.115170;0.327100;,
  0.079960;0.221180;,
  0.079960;0.209410;,
  0.079960;0.232950;,
  0.079960;0.244720;,
  0.079960;0.256490;,
  0.079960;0.268260;,
  0.079960;0.280030;,
  0.079960;0.291800;,
  0.079960;0.303560;,
  0.079960;0.315330;,
  0.079960;0.327100;,
  0.044760;0.221180;,
  0.044760;0.209410;,
  0.044760;0.232950;,
  0.044760;0.244720;,
  0.044760;0.256490;,
  0.044760;0.268260;,
  0.044760;0.280030;,
  0.044760;0.291800;,
  0.044760;0.303560;,
  0.044760;0.315330;,
  0.044760;0.327100;,
  0.009550;0.221180;,
  0.009550;0.209410;,
  0.009550;0.232950;,
  0.009550;0.244720;,
  0.009550;0.256490;,
  0.009550;0.268260;,
  0.009550;0.280030;,
  0.009550;0.291800;,
  0.009550;0.303560;,
  0.009550;0.315330;,
  0.009550;0.327100;,
  0.009550;0.221180;,
  0.009550;0.209410;,
  0.134120;0.412410;,
  0.135040;0.412410;,
  0.134580;0.413560;,
  0.009550;0.232950;,
  0.135960;0.412410;,
  0.135500;0.413560;,
  0.009550;0.244720;,
  0.136880;0.412410;,
  0.136420;0.413560;,
  0.009550;0.256490;,
  0.137810;0.412410;,
  0.137350;0.413560;,
  0.009550;0.268260;,
  0.138730;0.412410;,
  0.138270;0.413560;,
  0.009550;0.280030;,
  0.139650;0.412410;,
  0.139190;0.413560;,
  0.009550;0.291800;,
  0.140570;0.412410;,
  0.140110;0.413560;,
  0.009550;0.303560;,
  0.141490;0.412410;,
  0.141030;0.413560;,
  0.009550;0.315330;,
  0.142410;0.412410;,
  0.141950;0.413560;,
  0.009550;0.327100;,
  0.143340;0.412410;,
  0.142880;0.413560;,
  0.134580;0.404340;,
  0.135040;0.405500;,
  0.134120;0.405500;,
  0.135500;0.404340;,
  0.135960;0.405500;,
  0.136420;0.404340;,
  0.136880;0.405500;,
  0.137350;0.404340;,
  0.137810;0.405500;,
  0.138270;0.404340;,
  0.138730;0.405500;,
  0.139190;0.404340;,
  0.139650;0.405500;,
  0.140110;0.404340;,
  0.140570;0.405500;,
  0.141030;0.404340;,
  0.141490;0.405500;,
  0.141950;0.404340;,
  0.142410;0.405500;,
  0.142880;0.404340;,
  0.143340;0.405500;,
  0.135040;0.406650;,
  0.134120;0.406650;,
  0.135960;0.406650;,
  0.136880;0.406650;,
  0.137810;0.406650;,
  0.138730;0.406650;,
  0.139650;0.406650;,
  0.140570;0.406650;,
  0.141490;0.406650;,
  0.142410;0.406650;,
  0.143340;0.406650;,
  0.134120;0.407800;,
  0.135040;0.407800;,
  0.135040;0.407800;,
  0.134120;0.407800;,
  0.135960;0.407800;,
  0.135960;0.407800;,
  0.136880;0.407800;,
  0.136880;0.407800;,
  0.137810;0.407800;,
  0.137810;0.407800;,
  0.138730;0.407800;,
  0.138730;0.407800;,
  0.139650;0.407800;,
  0.139650;0.407800;,
  0.140570;0.407800;,
  0.140570;0.407800;,
  0.141490;0.407800;,
  0.141490;0.407800;,
  0.142410;0.407800;,
  0.142410;0.407800;,
  0.143340;0.407800;,
  0.143340;0.407800;;
 }
}
