xof 0302txt 0064
template Header {
 <3D82AB43-62DA-11cf-AB39-0020AF71E433>
 WORD major;
 WORD minor;
 DWORD flags;
}

template Vector {
 <3D82AB5E-62DA-11cf-AB39-0020AF71E433>
 FLOAT x;
 FLOAT y;
 FLOAT z;
}

template Coords2d {
 <F6F23F44-7686-11cf-8F52-0040333594A3>
 FLOAT u;
 FLOAT v;
}

template Matrix4x4 {
 <F6F23F45-7686-11cf-8F52-0040333594A3>
 array FLOAT matrix[16];
}

template ColorRGBA {
 <35FF44E0-6C7C-11cf-8F52-0040333594A3>
 FLOAT red;
 FLOAT green;
 FLOAT blue;
 FLOAT alpha;
}

template ColorRGB {
 <D3E16E81-7835-11cf-8F52-0040333594A3>
 FLOAT red;
 FLOAT green;
 FLOAT blue;
}

template IndexedColor {
 <1630B820-7842-11cf-8F52-0040333594A3>
 DWORD index;
 ColorRGBA indexColor;
}

template Boolean {
 <4885AE61-78E8-11cf-8F52-0040333594A3>
 WORD truefalse;
}

template Boolean2d {
 <4885AE63-78E8-11cf-8F52-0040333594A3>
 Boolean u;
 Boolean v;
}

template MaterialWrap {
 <4885AE60-78E8-11cf-8F52-0040333594A3>
 Boolean u;
 Boolean v;
}

template TextureFilename {
 <A42790E1-7810-11cf-8F52-0040333594A3>
 STRING filename;
}

template Material {
 <3D82AB4D-62DA-11cf-AB39-0020AF71E433>
 ColorRGBA faceColor;
 FLOAT power;
 ColorRGB specularColor;
 ColorRGB emissiveColor;
 [...]
}

template MeshFace {
 <3D82AB5F-62DA-11cf-AB39-0020AF71E433>
 DWORD nFaceVertexIndices;
 array DWORD faceVertexIndices[nFaceVertexIndices];
}

template MeshFaceWraps {
 <4885AE62-78E8-11cf-8F52-0040333594A3>
 DWORD nFaceWrapValues;
 Boolean2d faceWrapValues;
}

template MeshTextureCoords {
 <F6F23F40-7686-11cf-8F52-0040333594A3>
 DWORD nTextureCoords;
 array Coords2d textureCoords[nTextureCoords];
}

template MeshMaterialList {
 <F6F23F42-7686-11cf-8F52-0040333594A3>
 DWORD nMaterials;
 DWORD nFaceIndexes;
 array DWORD faceIndexes[nFaceIndexes];
 [Material]
}

template MeshNormals {
 <F6F23F43-7686-11cf-8F52-0040333594A3>
 DWORD nNormals;
 array Vector normals[nNormals];
 DWORD nFaceNormals;
 array MeshFace faceNormals[nFaceNormals];
}

template MeshVertexColors {
 <1630B821-7842-11cf-8F52-0040333594A3>
 DWORD nVertexColors;
 array IndexedColor vertexColors[nVertexColors];
}

template Mesh {
 <3D82AB44-62DA-11cf-AB39-0020AF71E433>
 DWORD nVertices;
 array Vector vertices[nVertices];
 DWORD nFaces;
 array MeshFace faces[nFaces];
 [...]
}

Header{
1;
0;
1;
}

Mesh {
 83;
 0.00217;0.00052;0.00000;,
 0.00217;0.00052;-0.05379;,
 0.03378;0.00052;-0.04352;,
 0.05332;0.00052;-0.01662;,
 0.05332;0.00052;0.01662;,
 0.05332;0.00052;0.01662;,
 0.03378;0.00052;0.04352;,
 0.00217;0.00052;0.05379;,
 -0.02945;0.00052;0.04352;,
 -0.04899;0.00052;0.01662;,
 -0.04899;0.00052;-0.01662;,
 -0.02945;0.00052;-0.04352;,
 0.00217;0.21956;-0.05515;,
 0.03458;0.21956;-0.04461;,
 0.03963;0.21792;-0.05156;,
 0.00217;0.21792;-0.06373;,
 0.05462;0.21956;-0.01704;,
 0.06278;0.21792;-0.01969;,
 0.05462;0.21956;0.01704;,
 0.06278;0.21792;0.01969;,
 0.03458;0.21956;0.04461;,
 0.03963;0.21792;0.05156;,
 0.00217;0.21956;0.05515;,
 0.00217;0.21792;0.06373;,
 -0.03025;0.21956;0.04461;,
 -0.03529;0.21792;0.05156;,
 -0.05028;0.21956;0.01704;,
 -0.05844;0.21792;0.01969;,
 -0.05028;0.21956;-0.01704;,
 -0.05844;0.21792;-0.01969;,
 -0.03025;0.21956;-0.04461;,
 -0.03529;0.21792;-0.05156;,
 0.00217;0.01969;-0.04654;,
 0.02953;0.01969;-0.03766;,
 0.03458;0.21956;-0.04461;,
 0.00217;0.21956;-0.05515;,
 0.00217;0.01969;0.00000;,
 0.02953;0.01969;-0.03766;,
 0.00217;0.01969;-0.04654;,
 0.04644;0.01969;-0.01438;,
 0.05462;0.21956;-0.01704;,
 0.04644;0.01969;-0.01438;,
 0.04644;0.01969;0.01438;,
 0.05462;0.21956;0.01704;,
 0.04644;0.01969;0.01438;,
 0.02953;0.01969;0.03766;,
 0.03458;0.21956;0.04461;,
 0.02953;0.01969;0.03766;,
 0.00217;0.01969;0.04654;,
 0.00217;0.21956;0.05515;,
 0.00217;0.01969;0.04654;,
 -0.02519;0.01969;0.03766;,
 -0.03025;0.21956;0.04461;,
 -0.02519;0.01969;0.03766;,
 -0.04210;0.01969;0.01438;,
 -0.05028;0.21956;0.01704;,
 -0.04210;0.01969;0.01438;,
 -0.04210;0.01969;-0.01438;,
 -0.05028;0.21956;-0.01704;,
 -0.04210;0.01969;-0.01438;,
 -0.02519;0.01969;-0.03766;,
 -0.03025;0.21956;-0.04461;,
 -0.02519;0.01969;-0.03766;,
 0.00217;0.21792;-0.06373;,
 0.03963;0.21792;-0.05156;,
 0.03378;0.00052;-0.04352;,
 0.00217;0.00052;-0.05379;,
 0.06278;0.21792;-0.01969;,
 0.05332;0.00052;-0.01662;,
 0.06278;0.21792;0.01969;,
 0.05332;0.00052;0.01662;,
 0.03963;0.21792;0.05156;,
 0.03378;0.00052;0.04352;,
 0.00217;0.21792;0.06373;,
 0.00217;0.00052;0.05379;,
 -0.03529;0.21792;0.05156;,
 -0.02945;0.00052;0.04352;,
 -0.05844;0.21792;0.01969;,
 -0.04899;0.00052;0.01662;,
 -0.05844;0.21792;-0.01969;,
 -0.04899;0.00052;-0.01662;,
 -0.03529;0.21792;-0.05156;,
 -0.02945;0.00052;-0.04352;;
 
 50;
 3;0,1,2;,
 3;0,2,3;,
 3;0,3,4;,
 3;0,5,6;,
 3;0,6,7;,
 3;0,7,8;,
 3;0,8,9;,
 3;0,9,10;,
 3;0,10,11;,
 3;0,11,1;,
 4;12,13,14,15;,
 4;13,16,17,14;,
 4;16,18,19,17;,
 4;18,20,21,19;,
 4;20,22,23,21;,
 4;22,24,25,23;,
 4;24,26,27,25;,
 4;26,28,29,27;,
 4;28,30,31,29;,
 4;30,12,15,31;,
 4;32,33,34,35;,
 3;36,37,38;,
 4;33,39,40,34;,
 3;36,41,37;,
 4;39,42,43,40;,
 3;36,44,41;,
 4;42,45,46,43;,
 3;36,47,44;,
 4;45,48,49,46;,
 3;36,50,47;,
 4;48,51,52,49;,
 3;36,53,50;,
 4;51,54,55,52;,
 3;36,56,53;,
 4;54,57,58,55;,
 3;36,59,56;,
 4;57,60,61,58;,
 3;36,62,59;,
 4;60,32,35,61;,
 3;36,38,62;,
 4;63,64,65,66;,
 4;64,67,68,65;,
 4;67,69,70,68;,
 4;69,71,72,70;,
 4;71,73,74,72;,
 4;73,75,76,74;,
 4;75,77,78,76;,
 4;77,79,80,78;,
 4;79,81,82,80;,
 4;81,63,66,82;;
 
 MeshMaterialList {
  8;
  50;
  7,
  7,
  7,
  7,
  7,
  7,
  7,
  7,
  7,
  7,
  7,
  7,
  7,
  7,
  7,
  7,
  7,
  7,
  7,
  7,
  7,
  7,
  7,
  7,
  7,
  7,
  7,
  7,
  7,
  7,
  7,
  7,
  7,
  7,
  7,
  7,
  7,
  7,
  7,
  7,
  7,
  7,
  7,
  7,
  7,
  7,
  7,
  7,
  7,
  7;;
  Material {
   0.800000;0.800000;0.800000;1.000000;;
   5.000000;
   0.000000;0.000000;0.000000;;
   0.000000;0.000000;0.000000;;
   TextureFilename {
    "iztex01.png";
   }
  }
  Material {
   0.668000;0.633600;0.351200;1.000000;;
   5.000000;
   0.000000;0.000000;0.000000;;
   0.258850;0.245520;0.136090;;
   TextureFilename {
    "iztex01.png";
   }
  }
  Material {
   0.298400;0.125600;0.112800;1.000000;;
   18.000000;
   0.200000;0.200000;0.200000;;
   0.134280;0.056520;0.050760;;
   TextureFilename {
    "iztex01.png";
   }
  }
  Material {
   0.061410;0.011730;0.011730;1.000000;;
   30.000000;
   0.300000;0.300000;0.300000;;
   0.000000;0.000000;0.000000;;
   TextureFilename {
    "iztex01.png";
   }
  }
  Material {
   0.800000;0.166400;0.000000;1.000000;;
   5.000000;
   0.450000;0.450000;0.450000;;
   0.000000;0.000000;0.000000;;
   TextureFilename {
    "iztex01.png";
   }
  }
  Material {
   0.800000;0.800000;0.800000;1.000000;;
   5.000000;
   0.100000;0.100000;0.100000;;
   0.390000;0.390000;0.390000;;
   TextureFilename {
    "iztex01.png";
   }
  }
  Material {
   0.800000;0.800000;0.800000;1.000000;;
   26.000000;
   0.410000;0.410000;0.410000;;
   0.400000;0.400000;0.400000;;
   TextureFilename {
    "iztex01.png";
   }
  }
  Material {
   0.800000;0.800000;0.800000;0.300000;;
   54.000000;
   0.710000;0.710000;0.710000;;
   0.750000;0.750000;0.750000;;
   TextureFilename {
    "iztex01.png";
   }
  }
 }
 MeshNormals {
  32;
  0.000000;0.982361;-0.186993;,
  0.109916;0.982360;-0.151283;,
  0.177851;0.982359;-0.057787;,
  0.177851;0.982359;0.057787;,
  0.109916;0.982360;0.151283;,
  0.000000;0.982361;0.186993;,
  -0.109915;0.982360;0.151283;,
  -0.177850;0.982359;0.057787;,
  -0.177850;0.982359;-0.057787;,
  -0.109915;0.982360;-0.151283;,
  0.000000;-1.000000;0.000000;,
  0.000000;1.000000;0.000000;,
  -0.000003;0.042998;0.999075;,
  -0.587242;0.042998;0.808268;,
  -0.950176;0.042998;0.308734;,
  -0.950176;0.042998;-0.308734;,
  -0.587242;0.042998;-0.808268;,
  -0.000003;0.042998;-0.999075;,
  0.587239;0.042998;-0.808271;,
  0.950176;0.042998;-0.308735;,
  0.950176;0.042998;0.308735;,
  0.587239;0.042998;0.808271;,
  0.000002;-0.045675;-0.998956;,
  0.587177;-0.045675;-0.808169;,
  0.950065;-0.045675;-0.308692;,
  0.950065;-0.045675;0.308692;,
  0.587177;-0.045675;0.808169;,
  0.000002;-0.045675;0.998956;,
  -0.587173;-0.045675;0.808172;,
  -0.950064;-0.045675;0.308693;,
  -0.950064;-0.045675;-0.308693;,
  -0.587173;-0.045675;-0.808172;;
  50;
  3;10,10,10;,
  3;10,10,10;,
  3;10,10,10;,
  3;10,10,10;,
  3;10,10,10;,
  3;10,10,10;,
  3;10,10,10;,
  3;10,10,10;,
  3;10,10,10;,
  3;10,10,10;,
  4;0,1,1,0;,
  4;1,2,2,1;,
  4;2,3,3,2;,
  4;3,4,4,3;,
  4;4,5,5,4;,
  4;5,6,6,5;,
  4;6,7,7,6;,
  4;7,8,8,7;,
  4;8,9,9,8;,
  4;9,0,0,9;,
  4;12,13,13,12;,
  3;11,11,11;,
  4;13,14,14,13;,
  3;11,11,11;,
  4;14,15,15,14;,
  3;11,11,11;,
  4;15,16,16,15;,
  3;11,11,11;,
  4;16,17,17,16;,
  3;11,11,11;,
  4;17,18,18,17;,
  3;11,11,11;,
  4;18,19,19,18;,
  3;11,11,11;,
  4;19,20,20,19;,
  3;11,11,11;,
  4;20,21,21,20;,
  3;11,11,11;,
  4;21,12,12,21;,
  3;11,11,11;,
  4;22,23,23,22;,
  4;23,24,24,23;,
  4;24,25,25,24;,
  4;25,26,26,25;,
  4;26,27,27,26;,
  4;27,28,28,27;,
  4;28,29,29,28;,
  4;29,30,30,29;,
  4;30,31,31,30;,
  4;31,22,22,31;;
 }
 MeshTextureCoords {
  83;
  0.056550;0.558100;,
  0.020990;0.564470;,
  0.012790;0.558220;,
  0.020390;0.551930;,
  0.042350;0.547990;,
  0.042360;0.547990;,
  0.069750;0.547920;,
  0.094350;0.551730;,
  0.100870;0.557970;,
  0.092710;0.564260;,
  0.070730;0.568200;,
  0.043340;0.568280;,
  0.097380;0.524200;,
  0.101360;0.523710;,
  0.107810;0.523990;,
  0.103200;0.524550;,
  0.089530;0.523260;,
  0.094130;0.523470;,
  0.066400;0.523040;,
  0.067400;0.523210;,
  0.040810;0.523120;,
  0.037830;0.523300;,
  0.022540;0.523470;,
  0.016710;0.523710;,
  0.018550;0.523960;,
  0.012110;0.524280;,
  0.030380;0.524410;,
  0.025780;0.524800;,
  0.053510;0.524630;,
  0.052510;0.525060;,
  0.079110;0.524550;,
  0.082090;0.524960;,
  0.016320;0.546590;,
  0.025540;0.546540;,
  0.025540;0.525700;,
  0.016320;0.525750;,
  0.072560;0.544460;,
  0.064070;0.542920;,
  0.069420;0.542000;,
  0.047470;0.546510;,
  0.047470;0.525660;,
  0.061960;0.544420;,
  0.073770;0.546510;,
  0.073770;0.525670;,
  0.063910;0.545940;,
  0.094370;0.546540;,
  0.094370;0.525700;,
  0.069150;0.546900;,
  0.101420;0.546600;,
  0.101420;0.525760;,
  0.075700;0.546920;,
  0.092210;0.546650;,
  0.092210;0.525810;,
  0.081050;0.546000;,
  0.070270;0.546680;,
  0.070270;0.525840;,
  0.083160;0.544490;,
  0.043980;0.546680;,
  0.043980;0.525840;,
  0.081220;0.542970;,
  0.023380;0.546640;,
  0.023380;0.525800;,
  0.075970;0.542020;,
  0.014240;0.525700;,
  0.007020;0.525700;,
  0.007020;0.573240;,
  0.014240;0.573240;,
  0.044430;0.525700;,
  0.044430;0.573240;,
  0.071450;0.525700;,
  0.071450;0.573240;,
  0.093300;0.525700;,
  0.093300;0.573240;,
  0.103870;0.525700;,
  0.103870;0.573240;,
  0.093300;0.525700;,
  0.093300;0.573240;,
  0.071450;0.525700;,
  0.071450;0.573240;,
  0.044430;0.525700;,
  0.044430;0.573240;,
  0.022580;0.525700;,
  0.022580;0.573240;;
 }
}
