xof 0302txt 0064
template Header {
 <3D82AB43-62DA-11cf-AB39-0020AF71E433>
 WORD major;
 WORD minor;
 DWORD flags;
}

template Vector {
 <3D82AB5E-62DA-11cf-AB39-0020AF71E433>
 FLOAT x;
 FLOAT y;
 FLOAT z;
}

template Coords2d {
 <F6F23F44-7686-11cf-8F52-0040333594A3>
 FLOAT u;
 FLOAT v;
}

template Matrix4x4 {
 <F6F23F45-7686-11cf-8F52-0040333594A3>
 array FLOAT matrix[16];
}

template ColorRGBA {
 <35FF44E0-6C7C-11cf-8F52-0040333594A3>
 FLOAT red;
 FLOAT green;
 FLOAT blue;
 FLOAT alpha;
}

template ColorRGB {
 <D3E16E81-7835-11cf-8F52-0040333594A3>
 FLOAT red;
 FLOAT green;
 FLOAT blue;
}

template IndexedColor {
 <1630B820-7842-11cf-8F52-0040333594A3>
 DWORD index;
 ColorRGBA indexColor;
}

template Boolean {
 <4885AE61-78E8-11cf-8F52-0040333594A3>
 WORD truefalse;
}

template Boolean2d {
 <4885AE63-78E8-11cf-8F52-0040333594A3>
 Boolean u;
 Boolean v;
}

template MaterialWrap {
 <4885AE60-78E8-11cf-8F52-0040333594A3>
 Boolean u;
 Boolean v;
}

template TextureFilename {
 <A42790E1-7810-11cf-8F52-0040333594A3>
 STRING filename;
}

template Material {
 <3D82AB4D-62DA-11cf-AB39-0020AF71E433>
 ColorRGBA faceColor;
 FLOAT power;
 ColorRGB specularColor;
 ColorRGB emissiveColor;
 [...]
}

template MeshFace {
 <3D82AB5F-62DA-11cf-AB39-0020AF71E433>
 DWORD nFaceVertexIndices;
 array DWORD faceVertexIndices[nFaceVertexIndices];
}

template MeshFaceWraps {
 <4885AE62-78E8-11cf-8F52-0040333594A3>
 DWORD nFaceWrapValues;
 Boolean2d faceWrapValues;
}

template MeshTextureCoords {
 <F6F23F40-7686-11cf-8F52-0040333594A3>
 DWORD nTextureCoords;
 array Coords2d textureCoords[nTextureCoords];
}

template MeshMaterialList {
 <F6F23F42-7686-11cf-8F52-0040333594A3>
 DWORD nMaterials;
 DWORD nFaceIndexes;
 array DWORD faceIndexes[nFaceIndexes];
 [Material]
}

template MeshNormals {
 <F6F23F43-7686-11cf-8F52-0040333594A3>
 DWORD nNormals;
 array Vector normals[nNormals];
 DWORD nFaceNormals;
 array MeshFace faceNormals[nFaceNormals];
}

template MeshVertexColors {
 <1630B821-7842-11cf-8F52-0040333594A3>
 DWORD nVertexColors;
 array IndexedColor vertexColors[nVertexColors];
}

template Mesh {
 <3D82AB44-62DA-11cf-AB39-0020AF71E433>
 DWORD nVertices;
 array Vector vertices[nVertices];
 DWORD nFaces;
 array MeshFace faces[nFaces];
 [...]
}

Header{
1;
0;
1;
}

Mesh {
 115;
 0.00217;0.16658;-0.05325;,
 0.03347;0.16658;-0.04308;,
 0.02953;0.01514;-0.03766;,
 0.00217;0.01514;-0.04655;,
 0.05282;0.16658;-0.01646;,
 0.04644;0.01514;-0.01438;,
 0.05282;0.16658;0.01646;,
 0.04644;0.01514;0.01438;,
 0.03347;0.16658;0.04308;,
 0.02953;0.01514;0.03766;,
 0.00217;0.16658;0.05325;,
 0.00217;0.01514;0.04655;,
 -0.02913;0.16658;0.04308;,
 -0.02519;0.01514;0.03766;,
 -0.04848;0.16658;0.01646;,
 -0.04210;0.01514;0.01438;,
 -0.04848;0.16658;-0.01646;,
 -0.04210;0.01514;-0.01438;,
 -0.02913;0.16658;-0.04308;,
 -0.02519;0.01514;-0.03766;,
 0.00217;0.17086;-0.00000;,
 0.03347;0.16658;-0.04308;,
 0.00217;0.16658;-0.05325;,
 0.05282;0.16658;-0.01646;,
 0.05282;0.16658;0.01646;,
 0.03347;0.16658;0.04308;,
 0.00217;0.16658;0.05325;,
 -0.02913;0.16658;0.04308;,
 -0.04848;0.16658;0.01646;,
 -0.02913;0.16658;0.04308;,
 -0.04848;0.16658;-0.01646;,
 -0.02913;0.16658;-0.04308;,
 0.00217;0.01011;0.00000;,
 0.00217;0.00052;-0.05379;,
 0.03378;0.00052;-0.04352;,
 0.05332;0.00052;-0.01662;,
 0.05332;0.00052;0.01662;,
 0.05332;0.00052;0.01662;,
 0.03378;0.00052;0.04352;,
 0.00217;0.00052;0.05379;,
 -0.02945;0.00052;0.04352;,
 -0.04899;0.00052;0.01662;,
 -0.04899;0.00052;-0.01662;,
 -0.02945;0.00052;-0.04352;,
 0.00217;0.21956;-0.05515;,
 0.03458;0.21956;-0.04461;,
 0.03963;0.21792;-0.05156;,
 0.00217;0.21792;-0.06373;,
 0.05462;0.21956;-0.01704;,
 0.06278;0.21792;-0.01969;,
 0.05462;0.21956;0.01704;,
 0.06278;0.21792;0.01969;,
 0.03458;0.21956;0.04461;,
 0.03963;0.21792;0.05156;,
 0.00217;0.21956;0.05515;,
 0.00217;0.21792;0.06373;,
 -0.03025;0.21956;0.04461;,
 -0.03529;0.21792;0.05156;,
 -0.05028;0.21956;0.01704;,
 -0.05844;0.21792;0.01969;,
 -0.05028;0.21956;-0.01704;,
 -0.05844;0.21792;-0.01969;,
 -0.03025;0.21956;-0.04461;,
 -0.03529;0.21792;-0.05156;,
 0.00217;0.01969;-0.04654;,
 0.02953;0.01969;-0.03766;,
 0.03458;0.21956;-0.04461;,
 0.00217;0.21956;-0.05515;,
 0.00217;0.01011;0.00000;,
 0.02953;0.01969;-0.03766;,
 0.00217;0.01969;-0.04654;,
 0.04644;0.01969;-0.01438;,
 0.05462;0.21956;-0.01704;,
 0.04644;0.01969;-0.01438;,
 0.04644;0.01969;0.01438;,
 0.05462;0.21956;0.01704;,
 0.04644;0.01969;0.01438;,
 0.02953;0.01969;0.03766;,
 0.03458;0.21956;0.04461;,
 0.02953;0.01969;0.03766;,
 0.00217;0.01969;0.04654;,
 0.00217;0.21956;0.05515;,
 0.00217;0.01969;0.04654;,
 -0.02519;0.01969;0.03766;,
 -0.03025;0.21956;0.04461;,
 -0.02519;0.01969;0.03766;,
 -0.04210;0.01969;0.01438;,
 -0.05028;0.21956;0.01704;,
 -0.04210;0.01969;0.01438;,
 -0.04210;0.01969;-0.01438;,
 -0.05028;0.21956;-0.01704;,
 -0.04210;0.01969;-0.01438;,
 -0.02519;0.01969;-0.03766;,
 -0.03025;0.21956;-0.04461;,
 -0.02519;0.01969;-0.03766;,
 0.00217;0.21792;-0.06373;,
 0.03963;0.21792;-0.05156;,
 0.03378;0.00052;-0.04352;,
 0.00217;0.00052;-0.05379;,
 0.06278;0.21792;-0.01969;,
 0.05332;0.00052;-0.01662;,
 0.06278;0.21792;0.01969;,
 0.05332;0.00052;0.01662;,
 0.03963;0.21792;0.05156;,
 0.03378;0.00052;0.04352;,
 0.00217;0.21792;0.06373;,
 0.00217;0.00052;0.05379;,
 -0.03529;0.21792;0.05156;,
 -0.02945;0.00052;0.04352;,
 -0.05844;0.21792;0.01969;,
 -0.04899;0.00052;0.01662;,
 -0.05844;0.21792;-0.01969;,
 -0.04899;0.00052;-0.01662;,
 -0.03529;0.21792;-0.05156;,
 -0.02945;0.00052;-0.04352;;
 
 70;
 4;0,1,2,3;,
 4;1,4,5,2;,
 4;4,6,7,5;,
 4;6,8,9,7;,
 4;8,10,11,9;,
 4;10,12,13,11;,
 4;12,14,15,13;,
 4;14,16,17,15;,
 4;16,18,19,17;,
 4;18,0,3,19;,
 3;20,21,22;,
 3;20,23,21;,
 3;20,24,23;,
 3;20,25,24;,
 3;20,26,25;,
 3;20,27,26;,
 3;20,28,29;,
 3;20,30,28;,
 3;20,31,30;,
 3;20,22,31;,
 3;32,33,34;,
 3;32,34,35;,
 3;32,35,36;,
 3;32,37,38;,
 3;32,38,39;,
 3;32,39,40;,
 3;32,40,41;,
 3;32,41,42;,
 3;32,42,43;,
 3;32,43,33;,
 4;44,45,46,47;,
 4;45,48,49,46;,
 4;48,50,51,49;,
 4;50,52,53,51;,
 4;52,54,55,53;,
 4;54,56,57,55;,
 4;56,58,59,57;,
 4;58,60,61,59;,
 4;60,62,63,61;,
 4;62,44,47,63;,
 4;64,65,66,67;,
 3;68,69,70;,
 4;65,71,72,66;,
 3;68,73,69;,
 4;71,74,75,72;,
 3;68,76,73;,
 4;74,77,78,75;,
 3;68,79,76;,
 4;77,80,81,78;,
 3;68,82,79;,
 4;80,83,84,81;,
 3;68,85,82;,
 4;83,86,87,84;,
 3;68,88,85;,
 4;86,89,90,87;,
 3;68,91,88;,
 4;89,92,93,90;,
 3;68,94,91;,
 4;92,64,67,93;,
 3;68,70,94;,
 4;95,96,97,98;,
 4;96,99,100,97;,
 4;99,101,102,100;,
 4;101,103,104,102;,
 4;103,105,106,104;,
 4;105,107,108,106;,
 4;107,109,110,108;,
 4;109,111,112,110;,
 4;111,113,114,112;,
 4;113,95,98,114;;
 
 MeshMaterialList {
  8;
  70;
  7,
  7,
  7,
  7,
  7,
  7,
  7,
  7,
  7,
  7,
  7,
  7,
  7,
  7,
  7,
  7,
  7,
  7,
  7,
  7,
  7,
  7,
  7,
  7,
  7,
  7,
  7,
  7,
  7,
  7,
  7,
  7,
  7,
  7,
  7,
  7,
  7,
  7,
  7,
  7,
  7,
  7,
  7,
  7,
  7,
  7,
  7,
  7,
  7,
  7,
  7,
  7,
  7,
  7,
  7,
  7,
  7,
  7,
  7,
  7,
  7,
  7,
  7,
  7,
  7,
  7,
  7,
  7,
  7,
  7;;
  Material {
   0.800000;0.800000;0.800000;1.000000;;
   5.000000;
   0.000000;0.000000;0.000000;;
   0.000000;0.000000;0.000000;;
   TextureFilename {
    "iztex01.png";
   }
  }
  Material {
   0.668000;0.633600;0.351200;1.000000;;
   5.000000;
   0.000000;0.000000;0.000000;;
   0.258850;0.245520;0.136090;;
   TextureFilename {
    "iztex01.png";
   }
  }
  Material {
   0.298400;0.125600;0.112800;1.000000;;
   18.000000;
   0.200000;0.200000;0.200000;;
   0.134280;0.056520;0.050760;;
   TextureFilename {
    "iztex01.png";
   }
  }
  Material {
   0.061410;0.011730;0.011730;1.000000;;
   30.000000;
   0.300000;0.300000;0.300000;;
   0.000000;0.000000;0.000000;;
   TextureFilename {
    "iztex01.png";
   }
  }
  Material {
   0.800000;0.166400;0.000000;1.000000;;
   5.000000;
   0.450000;0.450000;0.450000;;
   0.000000;0.000000;0.000000;;
   TextureFilename {
    "iztex01.png";
   }
  }
  Material {
   0.800000;0.800000;0.800000;1.000000;;
   5.000000;
   0.100000;0.100000;0.100000;;
   0.390000;0.390000;0.390000;;
   TextureFilename {
    "iztex01.png";
   }
  }
  Material {
   0.800000;0.800000;0.800000;1.000000;;
   26.000000;
   0.410000;0.410000;0.410000;;
   0.400000;0.400000;0.400000;;
   TextureFilename {
    "iztex01.png";
   }
  }
  Material {
   0.800000;0.800000;0.800000;0.300000;;
   54.000000;
   0.710000;0.710000;0.710000;;
   0.750000;0.750000;0.750000;;
   TextureFilename {
    "iztex01.png";
   }
  }
 }
 MeshNormals {
  73;
  0.000002;-0.044264;-0.999020;,
  0.587214;-0.044264;-0.808221;,
  0.950125;-0.044264;-0.308711;,
  0.950125;-0.044264;0.308711;,
  0.587214;-0.044264;0.808221;,
  0.000002;-0.044264;0.999020;,
  -0.587211;-0.044264;0.808223;,
  -0.950125;-0.044264;0.308713;,
  -0.950125;-0.044264;-0.308713;,
  -0.587211;-0.044264;-0.808223;,
  0.000000;1.000000;-0.000000;,
  0.047152;0.996777;-0.064898;,
  0.000000;0.996777;-0.080218;,
  0.076293;0.996777;-0.024789;,
  0.076293;0.996777;0.024789;,
  0.047152;0.996777;0.064898;,
  0.000000;0.996777;0.080218;,
  -0.047152;0.996777;0.064898;,
  -0.076293;0.996777;0.024789;,
  -0.076293;0.996777;-0.024789;,
  -0.047152;0.996777;-0.064898;,
  0.000000;0.982361;-0.186993;,
  0.109916;0.982360;-0.151283;,
  0.177851;0.982359;-0.057787;,
  0.177851;0.982359;0.057787;,
  0.109916;0.982360;0.151283;,
  0.000000;0.982361;0.186993;,
  -0.109915;0.982360;0.151283;,
  -0.177850;0.982359;0.057787;,
  -0.177850;0.982359;-0.057787;,
  -0.109915;0.982360;-0.151283;,
  -0.000000;-0.984482;0.175486;,
  -0.103150;-0.984482;0.141971;,
  -0.166899;-0.984482;0.054228;,
  -0.166899;-0.984482;-0.054228;,
  -0.103150;-0.984482;-0.141971;,
  -0.000000;-0.984482;-0.175486;,
  0.103148;-0.984482;-0.141971;,
  0.166897;-0.984482;-0.054228;,
  0.166897;-0.984482;0.054228;,
  0.103148;-0.984482;0.141971;,
  -0.000001;-1.000000;-0.000000;,
  -0.000003;0.042998;0.999075;,
  -0.587242;0.042998;0.808268;,
  -0.950176;0.042998;0.308734;,
  -0.950176;0.042998;-0.308734;,
  -0.587242;0.042998;-0.808268;,
  -0.000003;0.042998;-0.999075;,
  0.587239;0.042998;-0.808271;,
  0.950176;0.042998;-0.308735;,
  0.950176;0.042998;0.308735;,
  0.587239;0.042998;0.808271;,
  -0.000001;1.000000;0.000000;,
  -0.118590;0.979435;0.163225;,
  -0.000001;0.979436;0.201757;,
  -0.191882;0.979436;0.062347;,
  -0.191882;0.979436;-0.062347;,
  -0.118590;0.979435;-0.163225;,
  -0.000001;0.979436;-0.201757;,
  0.118589;0.979436;-0.163225;,
  0.191880;0.979436;-0.062347;,
  0.191880;0.979436;0.062347;,
  0.118589;0.979436;0.163225;,
  0.000002;-0.045675;-0.998956;,
  0.587177;-0.045675;-0.808169;,
  0.950065;-0.045675;-0.308692;,
  0.950065;-0.045675;0.308692;,
  0.587177;-0.045675;0.808169;,
  0.000002;-0.045675;0.998956;,
  -0.587173;-0.045675;0.808172;,
  -0.950064;-0.045675;0.308693;,
  -0.950064;-0.045675;-0.308693;,
  -0.587173;-0.045675;-0.808172;;
  70;
  4;0,1,1,0;,
  4;1,2,2,1;,
  4;2,3,3,2;,
  4;3,4,4,3;,
  4;4,5,5,4;,
  4;5,6,6,5;,
  4;6,7,7,6;,
  4;7,8,8,7;,
  4;8,9,9,8;,
  4;9,0,0,9;,
  3;10,11,12;,
  3;10,13,11;,
  3;10,14,13;,
  3;10,15,14;,
  3;10,16,15;,
  3;10,17,16;,
  3;10,18,17;,
  3;10,19,18;,
  3;10,20,19;,
  3;10,12,20;,
  3;41,31,32;,
  3;41,32,33;,
  3;41,33,34;,
  3;41,34,35;,
  3;41,35,36;,
  3;41,36,37;,
  3;41,37,38;,
  3;41,38,39;,
  3;41,39,40;,
  3;41,40,31;,
  4;21,22,22,21;,
  4;22,23,23,22;,
  4;23,24,24,23;,
  4;24,25,25,24;,
  4;25,26,26,25;,
  4;26,27,27,26;,
  4;27,28,28,27;,
  4;28,29,29,28;,
  4;29,30,30,29;,
  4;30,21,21,30;,
  4;42,43,43,42;,
  3;52,53,54;,
  4;43,44,44,43;,
  3;52,55,53;,
  4;44,45,45,44;,
  3;52,56,55;,
  4;45,46,46,45;,
  3;52,57,56;,
  4;46,47,47,46;,
  3;52,58,57;,
  4;47,48,48,47;,
  3;52,59,58;,
  4;48,49,49,48;,
  3;52,60,59;,
  4;49,50,50,49;,
  3;52,61,60;,
  4;50,51,51,50;,
  3;52,62,61;,
  4;51,42,42,51;,
  3;52,54,62;,
  4;63,64,64,63;,
  4;64,65,65,64;,
  4;65,66,66,65;,
  4;66,67,67,66;,
  4;67,68,68,67;,
  4;68,69,69,68;,
  4;69,70,70,69;,
  4;70,71,71,70;,
  4;71,72,72,71;,
  4;72,63,63,72;;
 }
 MeshTextureCoords {
  115;
  0.014240;0.525700;,
  0.007020;0.525700;,
  0.007020;0.573240;,
  0.014240;0.573240;,
  0.044430;0.525700;,
  0.044430;0.573240;,
  0.071450;0.525700;,
  0.071450;0.573240;,
  0.093300;0.525700;,
  0.093300;0.573240;,
  0.103870;0.525700;,
  0.103870;0.573240;,
  0.093300;0.525700;,
  0.093300;0.573240;,
  0.071450;0.525700;,
  0.071450;0.573240;,
  0.044430;0.525700;,
  0.044430;0.573240;,
  0.022580;0.525700;,
  0.022580;0.573240;,
  0.050130;0.542912;,
  0.036219;0.534989;,
  0.043685;0.528376;,
  0.034067;0.544726;,
  0.038050;0.553868;,
  0.046647;0.558924;,
  0.056575;0.557732;,
  0.064038;0.551143;,
  0.066193;0.541612;,
  0.064041;0.551349;,
  0.062210;0.532470;,
  0.053613;0.527414;,
  0.056550;0.558100;,
  0.020990;0.564470;,
  0.012790;0.558220;,
  0.020390;0.551930;,
  0.042350;0.547990;,
  0.042360;0.547990;,
  0.069750;0.547920;,
  0.094350;0.551730;,
  0.100870;0.557970;,
  0.092710;0.564260;,
  0.070730;0.568200;,
  0.043340;0.568280;,
  0.097380;0.524200;,
  0.101360;0.523710;,
  0.107810;0.523990;,
  0.103200;0.524550;,
  0.089530;0.523260;,
  0.094130;0.523470;,
  0.066400;0.523040;,
  0.067400;0.523210;,
  0.040810;0.523120;,
  0.037830;0.523300;,
  0.022540;0.523470;,
  0.016710;0.523710;,
  0.018550;0.523960;,
  0.012110;0.524280;,
  0.030380;0.524410;,
  0.025780;0.524800;,
  0.053510;0.524630;,
  0.052510;0.525060;,
  0.079110;0.524550;,
  0.082090;0.524960;,
  0.016320;0.546590;,
  0.025540;0.546540;,
  0.025540;0.525700;,
  0.016320;0.525750;,
  0.072560;0.544460;,
  0.064070;0.542920;,
  0.069420;0.542000;,
  0.047470;0.546510;,
  0.047470;0.525660;,
  0.061960;0.544420;,
  0.073770;0.546510;,
  0.073770;0.525670;,
  0.063910;0.545940;,
  0.094370;0.546540;,
  0.094370;0.525700;,
  0.069150;0.546900;,
  0.101420;0.546600;,
  0.101420;0.525760;,
  0.075700;0.546920;,
  0.092210;0.546650;,
  0.092210;0.525810;,
  0.081050;0.546000;,
  0.070270;0.546680;,
  0.070270;0.525840;,
  0.083160;0.544490;,
  0.043980;0.546680;,
  0.043980;0.525840;,
  0.081220;0.542970;,
  0.023380;0.546640;,
  0.023380;0.525800;,
  0.075970;0.542020;,
  0.014240;0.525700;,
  0.007020;0.525700;,
  0.007020;0.573240;,
  0.014240;0.573240;,
  0.044430;0.525700;,
  0.044430;0.573240;,
  0.071450;0.525700;,
  0.071450;0.573240;,
  0.093300;0.525700;,
  0.093300;0.573240;,
  0.103870;0.525700;,
  0.103870;0.573240;,
  0.093300;0.525700;,
  0.093300;0.573240;,
  0.071450;0.525700;,
  0.071450;0.573240;,
  0.044430;0.525700;,
  0.044430;0.573240;,
  0.022580;0.525700;,
  0.022580;0.573240;;
 }
}
