xof 0302txt 0064
template Header {
 <3D82AB43-62DA-11cf-AB39-0020AF71E433>
 WORD major;
 WORD minor;
 DWORD flags;
}

template Vector {
 <3D82AB5E-62DA-11cf-AB39-0020AF71E433>
 FLOAT x;
 FLOAT y;
 FLOAT z;
}

template Coords2d {
 <F6F23F44-7686-11cf-8F52-0040333594A3>
 FLOAT u;
 FLOAT v;
}

template Matrix4x4 {
 <F6F23F45-7686-11cf-8F52-0040333594A3>
 array FLOAT matrix[16];
}

template ColorRGBA {
 <35FF44E0-6C7C-11cf-8F52-0040333594A3>
 FLOAT red;
 FLOAT green;
 FLOAT blue;
 FLOAT alpha;
}

template ColorRGB {
 <D3E16E81-7835-11cf-8F52-0040333594A3>
 FLOAT red;
 FLOAT green;
 FLOAT blue;
}

template IndexedColor {
 <1630B820-7842-11cf-8F52-0040333594A3>
 DWORD index;
 ColorRGBA indexColor;
}

template Boolean {
 <4885AE61-78E8-11cf-8F52-0040333594A3>
 WORD truefalse;
}

template Boolean2d {
 <4885AE63-78E8-11cf-8F52-0040333594A3>
 Boolean u;
 Boolean v;
}

template MaterialWrap {
 <4885AE60-78E8-11cf-8F52-0040333594A3>
 Boolean u;
 Boolean v;
}

template TextureFilename {
 <A42790E1-7810-11cf-8F52-0040333594A3>
 STRING filename;
}

template Material {
 <3D82AB4D-62DA-11cf-AB39-0020AF71E433>
 ColorRGBA faceColor;
 FLOAT power;
 ColorRGB specularColor;
 ColorRGB emissiveColor;
 [...]
}

template MeshFace {
 <3D82AB5F-62DA-11cf-AB39-0020AF71E433>
 DWORD nFaceVertexIndices;
 array DWORD faceVertexIndices[nFaceVertexIndices];
}

template MeshFaceWraps {
 <4885AE62-78E8-11cf-8F52-0040333594A3>
 DWORD nFaceWrapValues;
 Boolean2d faceWrapValues;
}

template MeshTextureCoords {
 <F6F23F40-7686-11cf-8F52-0040333594A3>
 DWORD nTextureCoords;
 array Coords2d textureCoords[nTextureCoords];
}

template MeshMaterialList {
 <F6F23F42-7686-11cf-8F52-0040333594A3>
 DWORD nMaterials;
 DWORD nFaceIndexes;
 array DWORD faceIndexes[nFaceIndexes];
 [Material]
}

template MeshNormals {
 <F6F23F43-7686-11cf-8F52-0040333594A3>
 DWORD nNormals;
 array Vector normals[nNormals];
 DWORD nFaceNormals;
 array MeshFace faceNormals[nFaceNormals];
}

template MeshVertexColors {
 <1630B821-7842-11cf-8F52-0040333594A3>
 DWORD nVertexColors;
 array IndexedColor vertexColors[nVertexColors];
}

template Mesh {
 <3D82AB44-62DA-11cf-AB39-0020AF71E433>
 DWORD nVertices;
 array Vector vertices[nVertices];
 DWORD nFaces;
 array MeshFace faces[nFaces];
 [...]
}

Header{
1;
0;
1;
}

Mesh {
 211;
 0.00000;0.18116;0.00000;,
 0.03053;0.18116;-0.04202;,
 0.00000;0.18116;-0.05194;,
 0.00000;0.18116;0.00000;,
 0.04940;0.18116;-0.01605;,
 0.00000;0.18116;0.00000;,
 0.04940;0.18116;0.01605;,
 0.00000;0.18116;0.00000;,
 0.03053;0.18116;0.04202;,
 0.00000;0.18116;0.00000;,
 0.00000;0.18116;0.05194;,
 0.00000;0.18116;0.00000;,
 -0.03053;0.18116;0.04202;,
 0.00000;0.18116;0.00000;,
 -0.04940;0.18116;0.01605;,
 0.00000;0.18116;0.00000;,
 -0.04940;0.18116;-0.01605;,
 0.00000;0.18116;0.00000;,
 -0.03053;0.18116;-0.04202;,
 0.00000;0.18116;0.00000;,
 0.00000;0.18116;-0.05194;,
 0.00000;0.00313;0.00000;,
 0.00000;0.00313;-0.05194;,
 0.03053;0.00313;-0.04202;,
 0.00000;0.00313;0.00000;,
 0.04940;0.00313;-0.01605;,
 0.00000;0.00313;0.00000;,
 0.04940;0.00313;0.01605;,
 0.00000;0.00313;0.00000;,
 0.03053;0.00313;0.04202;,
 0.00000;0.00313;0.00000;,
 0.00000;0.00313;0.05194;,
 0.00000;0.00313;0.00000;,
 -0.03053;0.00313;0.04202;,
 0.00000;0.00313;0.00000;,
 -0.04940;0.00313;0.01605;,
 0.00000;0.00313;0.00000;,
 -0.04940;0.00313;-0.01605;,
 0.00000;0.00313;0.00000;,
 -0.03053;0.00313;-0.04202;,
 0.00000;0.00313;0.00000;,
 0.00000;0.00313;-0.05194;,
 0.03681;0.18116;-0.05067;,
 0.00000;0.18116;-0.06263;,
 0.00000;0.18116;-0.05194;,
 0.03053;0.18116;-0.04202;,
 0.00000;0.00313;-0.06263;,
 0.03681;0.00313;-0.05067;,
 0.05957;0.18116;-0.01935;,
 0.04940;0.18116;-0.01605;,
 0.05957;0.00313;-0.01935;,
 0.05957;0.18116;0.01935;,
 0.04940;0.18116;0.01605;,
 0.05957;0.00313;0.01935;,
 0.03681;0.18116;0.05067;,
 0.03053;0.18116;0.04202;,
 0.03681;0.00313;0.05067;,
 0.00000;0.18116;0.06263;,
 0.00000;0.18116;0.05194;,
 0.00000;0.00313;0.06263;,
 -0.03681;0.18116;0.05067;,
 -0.03053;0.18116;0.04202;,
 -0.03681;0.00313;0.05067;,
 -0.05957;0.18116;0.01935;,
 -0.04940;0.18116;0.01605;,
 -0.05957;0.00313;0.01935;,
 -0.05957;0.18116;-0.01935;,
 -0.04940;0.18116;-0.01605;,
 -0.05957;0.00313;-0.01935;,
 -0.03681;0.18116;-0.05067;,
 -0.03053;0.18116;-0.04202;,
 -0.03681;0.00313;-0.05067;,
 0.00000;0.18116;-0.06263;,
 0.00000;0.18116;-0.05194;,
 0.00000;0.00313;-0.06263;,
 -0.00093;0.28309;0.00000;,
 0.01895;0.28309;-0.03358;,
 -0.00093;0.28309;-0.04150;,
 -0.00093;0.28309;0.00000;,
 0.03124;0.28309;-0.01282;,
 -0.00093;0.28309;0.00000;,
 0.03124;0.28309;0.01282;,
 0.01895;0.28309;0.03358;,
 0.01638;0.13497;0.02905;,
 0.02701;0.13497;0.01110;,
 -0.00093;0.28309;0.00000;,
 -0.00093;0.28309;0.04150;,
 -0.00082;0.13497;0.03591;,
 -0.00093;0.28309;0.00000;,
 -0.02082;0.28309;0.03358;,
 -0.01803;0.13497;0.02905;,
 -0.00093;0.28309;0.00000;,
 -0.00093;0.28309;0.00000;,
 -0.03310;0.28309;0.01282;,
 -0.03310;0.28309;-0.01282;,
 -0.02866;0.13497;-0.01110;,
 -0.02866;0.13497;0.01110;,
 -0.00093;0.28309;0.00000;,
 -0.00093;0.28309;0.00000;,
 -0.02082;0.28309;-0.03358;,
 -0.00093;0.28309;0.00000;,
 -0.00093;0.28309;-0.04150;,
 0.04181;0.28309;-0.01909;,
 0.02953;0.28309;-0.03984;,
 0.03617;0.13497;-0.01652;,
 0.02701;0.13497;-0.01110;,
 0.02554;0.13497;-0.03447;,
 0.01638;0.13497;-0.02905;,
 -0.04204;0.28309;0.01812;,
 -0.02976;0.28309;0.03887;,
 -0.03640;0.13497;0.01568;,
 -0.02576;0.13497;0.03364;,
 -0.02730;0.28285;-0.03742;,
 -0.03959;0.28285;-0.01667;,
 -0.02452;0.13473;-0.03290;,
 -0.01803;0.13497;-0.02905;,
 -0.03515;0.13473;-0.01494;,
 0.03770;0.28291;0.01282;,
 0.03770;0.28291;-0.01282;,
 0.03348;0.13479;0.01110;,
 0.03348;0.13479;-0.01110;,
 0.02292;0.28272;-0.04355;,
 0.00304;0.28272;-0.05148;,
 0.02036;0.13460;-0.03903;,
 0.00315;0.13460;-0.04589;,
 -0.00082;0.13497;-0.03591;,
 -0.00530;0.28268;-0.05245;,
 -0.02518;0.28268;-0.04452;,
 -0.00519;0.13455;-0.04686;,
 -0.00082;0.13497;-0.03591;,
 -0.02239;0.13455;-0.04000;,
 0.00157;0.02824;-0.01002;,
 0.00521;0.02834;-0.01044;,
 0.00598;0.02862;-0.00119;,
 0.00234;0.02852;-0.00078;,
 0.00521;0.02834;-0.01044;,
 0.00144;0.29171;0.01021;,
 0.00243;0.29185;0.02128;,
 0.00598;0.02862;-0.00119;,
 0.00144;0.29171;0.01021;,
 -0.00469;0.29154;0.01092;,
 -0.00371;0.29168;0.02198;,
 0.00243;0.29185;0.02128;,
 -0.00469;0.29154;0.01092;,
 0.00157;0.02824;-0.01002;,
 0.00234;0.02852;-0.00078;,
 -0.00371;0.29168;0.02198;,
 0.00521;0.02834;-0.01044;,
 0.00157;0.02824;-0.01002;,
 0.00234;0.02852;-0.00078;,
 0.00598;0.02862;-0.00119;,
 0.00047;0.03077;-0.01654;,
 0.00410;0.03087;-0.01696;,
 0.00774;0.03056;-0.00632;,
 0.00410;0.03045;-0.00590;,
 0.00410;0.03087;-0.01696;,
 -0.00389;0.29448;-0.03293;,
 -0.00004;0.29427;-0.02047;,
 0.00774;0.03056;-0.00632;,
 -0.00389;0.29448;-0.03293;,
 -0.01002;0.29430;-0.03223;,
 -0.00618;0.29410;-0.01976;,
 -0.00004;0.29427;-0.02047;,
 -0.01002;0.29430;-0.03223;,
 0.00047;0.03077;-0.01654;,
 0.00410;0.03045;-0.00590;,
 -0.00618;0.29410;-0.01976;,
 0.00410;0.03087;-0.01696;,
 0.00047;0.03077;-0.01654;,
 0.00410;0.03045;-0.00590;,
 0.00774;0.03056;-0.00632;,
 0.01084;0.02825;-0.02437;,
 0.01378;0.02835;-0.02655;,
 0.01907;0.02863;-0.01893;,
 0.01613;0.02853;-0.01676;,
 0.01378;0.02835;-0.02655;,
 0.02085;0.29173;-0.00679;,
 0.02723;0.29186;0.00230;,
 0.01907;0.02863;-0.01893;,
 0.02085;0.29173;-0.00679;,
 0.01589;0.29155;-0.00311;,
 0.02227;0.29169;0.00598;,
 0.02723;0.29186;0.00230;,
 0.01589;0.29155;-0.00311;,
 0.01084;0.02825;-0.02437;,
 0.01613;0.02853;-0.01676;,
 0.02227;0.29169;0.00598;,
 0.01378;0.02835;-0.02655;,
 0.01084;0.02825;-0.02437;,
 0.01613;0.02853;-0.01676;,
 0.01907;0.02863;-0.01893;,
 0.02123;0.02020;0.00166;,
 0.02487;0.01996;0.00200;,
 0.02620;0.01958;0.01316;,
 0.02257;0.01982;0.01282;,
 0.02487;0.01996;0.00200;,
 0.04579;0.28266;-0.01687;,
 0.04697;0.28242;-0.00387;,
 0.02620;0.01958;0.01316;,
 0.04579;0.28266;-0.01687;,
 0.03966;0.28308;-0.01744;,
 0.04083;0.28284;-0.00445;,
 0.04697;0.28242;-0.00387;,
 0.03966;0.28308;-0.01744;,
 0.02123;0.02020;0.00166;,
 0.02257;0.01982;0.01282;,
 0.04083;0.28284;-0.00445;,
 0.02487;0.01996;0.00200;,
 0.02123;0.02020;0.00166;,
 0.02257;0.01982;0.01282;,
 0.02620;0.01958;0.01316;;
 
 118;
 3;0,1,2;,
 3;3,4,1;,
 3;5,6,4;,
 3;7,8,6;,
 3;9,10,8;,
 3;11,12,10;,
 3;13,14,12;,
 3;15,16,14;,
 3;17,18,16;,
 3;19,20,18;,
 3;21,22,23;,
 3;24,23,25;,
 3;26,25,27;,
 3;28,27,29;,
 3;30,29,31;,
 3;32,31,33;,
 3;34,33,35;,
 3;36,35,37;,
 3;38,37,39;,
 3;40,39,41;,
 4;42,43,44,45;,
 4;46,47,23,22;,
 4;43,42,47,46;,
 4;48,42,45,49;,
 4;47,50,25,23;,
 4;42,48,50,47;,
 4;51,48,49,52;,
 4;50,53,27,25;,
 4;48,51,53,50;,
 4;54,51,52,55;,
 4;53,56,29,27;,
 4;51,54,56,53;,
 4;57,54,55,58;,
 4;56,59,31,29;,
 4;54,57,59,56;,
 4;60,57,58,61;,
 4;59,62,33,31;,
 4;57,60,62,59;,
 4;63,60,61,64;,
 4;62,65,35,33;,
 4;60,63,65,62;,
 4;66,63,64,67;,
 4;65,68,37,35;,
 4;63,66,68,65;,
 4;69,66,67,70;,
 4;68,71,39,37;,
 4;66,69,71,68;,
 4;72,69,70,73;,
 4;71,74,41,39;,
 4;69,72,74,71;,
 3;75,76,77;,
 3;78,79,76;,
 3;80,81,79;,
 4;81,82,83,84;,
 3;85,82,81;,
 4;82,86,87,83;,
 3;88,86,82;,
 4;86,89,90,87;,
 3;91,89,86;,
 3;92,93,89;,
 4;93,94,95,96;,
 3;97,94,93;,
 3;98,99,94;,
 3;100,101,99;,
 4;102,103,76,79;,
 4;104,102,79,105;,
 4;106,104,105,107;,
 4;103,106,107,76;,
 4;103,102,104,106;,
 4;108,109,89,93;,
 4;110,108,93,96;,
 4;111,110,96,90;,
 4;109,111,90,89;,
 4;109,108,110,111;,
 4;112,113,94,99;,
 4;114,112,99,115;,
 4;116,114,115,95;,
 4;113,116,95,94;,
 4;113,112,114,116;,
 4;117,118,79,81;,
 4;119,117,81,84;,
 4;120,119,84,105;,
 4;118,120,105,79;,
 4;118,117,119,120;,
 4;121,122,77,76;,
 4;123,121,76,107;,
 4;124,123,107,125;,
 4;122,124,125,77;,
 4;122,121,123,124;,
 4;126,127,99,101;,
 4;128,126,101,129;,
 4;130,128,129,115;,
 4;127,130,115,99;,
 4;127,126,128,130;,
 4;131,132,133,134;,
 4;135,136,137,138;,
 4;139,140,141,142;,
 4;143,144,145,146;,
 4;143,136,147,148;,
 4;149,150,137,146;,
 4;151,152,153,154;,
 4;155,156,157,158;,
 4;159,160,161,162;,
 4;163,164,165,166;,
 4;163,156,167,168;,
 4;169,170,157,166;,
 4;171,172,173,174;,
 4;175,176,177,178;,
 4;179,180,181,182;,
 4;183,184,185,186;,
 4;183,176,187,188;,
 4;189,190,177,186;,
 4;191,192,193,194;,
 4;195,196,197,198;,
 4;199,200,201,202;,
 4;203,204,205,206;,
 4;203,196,207,208;,
 4;209,210,197,206;;
 
 MeshMaterialList {
  8;
  118;
  3,
  3,
  3,
  3,
  3,
  3,
  3,
  3,
  3,
  3,
  2,
  2,
  2,
  2,
  2,
  2,
  2,
  2,
  2,
  2,
  2,
  2,
  2,
  2,
  2,
  2,
  2,
  2,
  2,
  2,
  2,
  2,
  2,
  2,
  2,
  2,
  2,
  2,
  2,
  2,
  2,
  2,
  2,
  2,
  2,
  2,
  2,
  2,
  2,
  2,
  1,
  1,
  1,
  1,
  1,
  1,
  1,
  1,
  1,
  1,
  1,
  1,
  1,
  1,
  1,
  1,
  1,
  1,
  1,
  1,
  1,
  1,
  1,
  1,
  1,
  1,
  1,
  1,
  1,
  1,
  1,
  1,
  1,
  1,
  1,
  1,
  1,
  1,
  1,
  1,
  1,
  1,
  1,
  1,
  1,
  1,
  1,
  1,
  1,
  1,
  1,
  1,
  1,
  1,
  1,
  1,
  1,
  1,
  1,
  1,
  1,
  1,
  1,
  1,
  1,
  1,
  1,
  1;;
  Material {
   0.800000;0.800000;0.800000;1.000000;;
   5.000000;
   0.000000;0.000000;0.000000;;
   0.000000;0.000000;0.000000;;
   TextureFilename {
    "iztex01.png";
   }
  }
  Material {
   0.668000;0.633600;0.351200;1.000000;;
   5.000000;
   0.000000;0.000000;0.000000;;
   0.258850;0.245520;0.136090;;
   TextureFilename {
    "iztex01.png";
   }
  }
  Material {
   0.298400;0.125600;0.112800;1.000000;;
   18.000000;
   0.200000;0.200000;0.200000;;
   0.134280;0.056520;0.050760;;
   TextureFilename {
    "iztex01.png";
   }
  }
  Material {
   0.061410;0.011730;0.011730;1.000000;;
   30.000000;
   0.300000;0.300000;0.300000;;
   0.000000;0.000000;0.000000;;
   TextureFilename {
    "iztex01.png";
   }
  }
  Material {
   0.800000;0.166400;0.000000;1.000000;;
   5.000000;
   0.450000;0.450000;0.450000;;
   0.000000;0.000000;0.000000;;
   TextureFilename {
    "iztex01.png";
   }
  }
  Material {
   0.800000;0.800000;0.800000;1.000000;;
   5.000000;
   0.100000;0.100000;0.100000;;
   0.390000;0.390000;0.390000;;
   TextureFilename {
    "iztex01.png";
   }
  }
  Material {
   0.800000;0.800000;0.800000;1.000000;;
   26.000000;
   0.410000;0.410000;0.410000;;
   0.400000;0.400000;0.400000;;
   TextureFilename {
    "iztex01.png";
   }
  }
  Material {
   0.800000;0.800000;0.800000;0.300000;;
   54.000000;
   0.710000;0.710000;0.710000;;
   0.750000;0.750000;0.750000;;
   TextureFilename {
    "iztex01.png";
   }
  }
 }
 MeshNormals {
  69;
  0.000000;1.000000;0.000000;,
  0.000000;-1.000000;-0.000000;,
  0.000000;0.000000;-1.000000;,
  0.587781;0.000000;-0.809020;,
  0.951055;0.000000;-0.309023;,
  0.951055;0.000000;0.309023;,
  0.587781;0.000000;0.809020;,
  0.000000;0.000000;1.000000;,
  -0.587781;0.000000;0.809020;,
  -0.951055;0.000000;0.309023;,
  -0.951055;0.000000;-0.309023;,
  -0.587781;0.000000;-0.809020;,
  -0.012889;-0.999394;0.032331;,
  0.000000;-1.000000;-0.000000;,
  0.509530;-0.004489;0.860441;,
  0.860053;-0.030453;0.509295;,
  0.370081;-0.034750;0.928349;,
  -0.370065;-0.035302;0.928335;,
  -0.999550;-0.029982;0.000000;,
  0.509939;-0.016657;-0.860049;,
  0.000000;1.000000;0.000000;,
  0.000000;1.000000;0.000000;,
  -0.509578;-0.005252;-0.860409;,
  0.027369;-0.999494;0.016207;,
  -0.027373;0.999494;-0.016210;,
  -0.028599;-0.999591;0.000000;,
  -0.000333;-0.011649;0.999932;,
  0.028599;0.999591;0.000000;,
  0.928828;-0.004788;0.370481;,
  0.012888;0.999394;-0.032330;,
  0.929001;-0.013256;-0.369840;,
  0.013095;-0.999375;0.032848;,
  -0.013095;0.999375;-0.032850;,
  0.031222;-0.999130;0.027664;,
  0.996040;0.020914;-0.086417;,
  -0.029275;0.999526;-0.009497;,
  0.023832;-0.999002;-0.037784;,
  0.950980;0.010831;-0.309064;,
  -0.025382;0.999383;0.024268;,
  0.041020;-0.999124;0.008309;,
  0.819411;0.020908;-0.572824;,
  -0.030007;0.999529;0.006403;,
  -0.065621;-0.997506;-0.026011;,
  0.990609;-0.085807;-0.106445;,
  0.066867;0.997685;0.012412;,
  -0.509428;-0.017436;-0.860337;,
  0.859702;-0.041605;-0.509099;,
  0.509478;-0.016674;0.860322;,
  -0.859718;-0.041155;0.509109;,
  -0.509452;-0.005247;0.860483;,
  -0.860014;-0.031727;-0.509284;,
  -0.000333;-0.011649;-0.999932;,
  0.999594;-0.028492;-0.000000;,
  -0.929005;-0.014644;-0.369777;,
  0.370069;-0.034751;-0.928354;,
  -0.928805;-0.006172;0.370518;,
  -0.370085;-0.035300;-0.928327;,
  -0.995786;-0.030479;0.086499;,
  -0.116076;0.075970;-0.990331;,
  0.116180;-0.082919;0.989761;,
  -0.950908;-0.020210;0.308813;,
  -0.112295;-0.063486;-0.991645;,
  0.112608;0.056529;0.992030;,
  -0.819094;-0.030486;0.572849;,
  -0.595719;0.075969;-0.799592;,
  0.595549;-0.082919;0.799028;,
  -0.991387;0.076464;0.106323;,
  0.087234;-0.078283;-0.993107;,
  -0.087758;0.071343;0.993584;;
  118;
  3;0,0,0;,
  3;0,0,0;,
  3;0,0,0;,
  3;0,0,0;,
  3;0,0,0;,
  3;0,0,0;,
  3;0,0,0;,
  3;0,0,0;,
  3;0,0,0;,
  3;0,0,0;,
  3;1,1,1;,
  3;1,1,1;,
  3;1,1,1;,
  3;1,1,1;,
  3;1,1,1;,
  3;1,1,1;,
  3;1,1,1;,
  3;1,1,1;,
  3;1,1,1;,
  3;1,1,1;,
  4;0,0,0,0;,
  4;1,1,1,1;,
  4;2,3,3,2;,
  4;0,0,0,0;,
  4;1,1,1,1;,
  4;3,4,4,3;,
  4;0,0,0,0;,
  4;1,1,1,1;,
  4;4,5,5,4;,
  4;0,0,0,0;,
  4;1,1,1,1;,
  4;5,6,6,5;,
  4;0,0,0,0;,
  4;1,1,1,1;,
  4;6,7,7,6;,
  4;0,0,0,0;,
  4;1,1,1,1;,
  4;7,8,8,7;,
  4;0,0,0,0;,
  4;1,1,1,1;,
  4;8,9,9,8;,
  4;0,0,0,0;,
  4;1,1,1,1;,
  4;9,10,10,9;,
  4;0,0,0,0;,
  4;1,1,1,1;,
  4;10,11,11,10;,
  4;0,0,0,0;,
  4;1,1,1,1;,
  4;11,2,2,11;,
  3;20,20,20;,
  3;20,20,20;,
  3;21,21,21;,
  4;15,15,15,15;,
  3;20,20,20;,
  4;16,16,16,16;,
  3;20,20,20;,
  4;17,17,17,17;,
  3;20,20,20;,
  3;20,20,20;,
  4;18,18,18,18;,
  3;21,21,21;,
  3;20,20,20;,
  3;20,20,20;,
  4;21,21,21,21;,
  4;14,14,14,14;,
  4;13,13,13,13;,
  4;45,45,45,45;,
  4;46,46,46,46;,
  4;21,21,21,21;,
  4;22,22,22,22;,
  4;13,13,13,13;,
  4;47,47,47,47;,
  4;48,48,48,48;,
  4;24,24,24,24;,
  4;19,19,19,19;,
  4;23,23,23,23;,
  4;49,49,49,49;,
  4;50,50,50,50;,
  4;27,27,27,27;,
  4;26,26,26,26;,
  4;25,25,25,25;,
  4;51,51,51,51;,
  4;52,52,52,52;,
  4;29,29,29,29;,
  4;28,28,28,28;,
  4;12,12,12,12;,
  4;53,53,53,53;,
  4;54,54,54,54;,
  4;32,32,32,32;,
  4;30,30,30,30;,
  4;31,31,31,31;,
  4;55,55,55,55;,
  4;56,56,56,56;,
  4;33,33,33,33;,
  4;34,34,34,34;,
  4;35,35,35,35;,
  4;57,57,57,57;,
  4;58,58,58,58;,
  4;59,59,59,59;,
  4;36,36,36,36;,
  4;37,37,37,37;,
  4;38,38,38,38;,
  4;60,60,60,60;,
  4;61,61,61,61;,
  4;62,62,62,62;,
  4;39,39,39,39;,
  4;40,40,40,40;,
  4;41,41,41,41;,
  4;63,63,63,63;,
  4;64,64,64,64;,
  4;65,65,65,65;,
  4;42,42,42,42;,
  4;43,43,43,43;,
  4;44,44,44,44;,
  4;66,66,66,66;,
  4;67,67,67,67;,
  4;68,68,68,68;;
 }
 MeshTextureCoords {
  211;
  0.050000;0.000000;,
  0.100000;0.000000;,
  0.000000;0.000000;,
  0.150000;0.000000;,
  0.200000;0.000000;,
  0.250000;0.000000;,
  0.300000;0.000000;,
  0.350000;0.000000;,
  0.400000;0.000000;,
  0.450000;0.000000;,
  0.500000;0.000000;,
  0.550000;0.000000;,
  0.600000;0.000000;,
  0.650000;0.000000;,
  0.700000;0.000000;,
  0.750000;0.000000;,
  0.800000;0.000000;,
  0.850000;0.000000;,
  0.900000;0.000000;,
  0.950000;0.000000;,
  1.000000;0.000000;,
  0.013240;0.356550;,
  0.006090;0.356550;,
  0.020390;0.356550;,
  0.027540;0.356550;,
  0.034690;0.356550;,
  0.041840;0.356550;,
  0.048990;0.356550;,
  0.056140;0.356550;,
  0.063290;0.356550;,
  0.070430;0.356550;,
  0.077580;0.356550;,
  0.084730;0.356550;,
  0.091880;0.356550;,
  0.099030;0.356550;,
  0.106180;0.356550;,
  0.113330;0.356550;,
  0.120480;0.356550;,
  0.127630;0.356550;,
  0.134780;0.356550;,
  0.141930;0.356550;,
  0.149070;0.356550;,
  0.020390;0.003850;,
  0.006090;0.003850;,
  0.006090;0.003850;,
  0.020390;0.003850;,
  0.006090;0.356550;,
  0.020390;0.356550;,
  0.034690;0.003850;,
  0.034690;0.003850;,
  0.034690;0.356550;,
  0.048990;0.003850;,
  0.048990;0.003850;,
  0.048990;0.356550;,
  0.063290;0.003850;,
  0.063290;0.003850;,
  0.063290;0.356550;,
  0.077580;0.003850;,
  0.077580;0.003850;,
  0.077580;0.356550;,
  0.091880;0.003850;,
  0.091880;0.003850;,
  0.091880;0.356550;,
  0.106180;0.003850;,
  0.106180;0.003850;,
  0.106180;0.356550;,
  0.120480;0.003850;,
  0.120480;0.003850;,
  0.120480;0.356550;,
  0.134780;0.003850;,
  0.134780;0.003850;,
  0.134780;0.356550;,
  0.149070;0.003850;,
  0.149070;0.003850;,
  0.149070;0.356550;,
  0.131100;0.392910;,
  0.132770;0.392910;,
  0.129420;0.392910;,
  0.134450;0.392910;,
  0.136130;0.392910;,
  0.137800;0.392910;,
  0.139480;0.392910;,
  0.142830;0.392910;,
  0.142830;0.392910;,
  0.139480;0.392910;,
  0.141160;0.392910;,
  0.146190;0.392910;,
  0.146190;0.392910;,
  0.144510;0.392910;,
  0.149540;0.392910;,
  0.149540;0.392910;,
  0.147860;0.392910;,
  0.151220;0.392910;,
  0.152890;0.392910;,
  0.156250;0.392910;,
  0.156250;0.392910;,
  0.152890;0.392910;,
  0.154570;0.392910;,
  0.157920;0.392910;,
  0.159600;0.392910;,
  0.161280;0.392910;,
  0.162950;0.392910;,
  0.136130;0.392910;,
  0.132770;0.392910;,
  0.136130;0.392910;,
  0.136130;0.392910;,
  0.132770;0.392910;,
  0.132770;0.392910;,
  0.152890;0.392910;,
  0.149540;0.392910;,
  0.152890;0.392910;,
  0.149540;0.392910;,
  0.159600;0.392910;,
  0.156250;0.392910;,
  0.159600;0.392910;,
  0.159600;0.392910;,
  0.156250;0.392910;,
  0.139480;0.392910;,
  0.136130;0.392910;,
  0.139480;0.392910;,
  0.136130;0.392910;,
  0.132770;0.392910;,
  0.129420;0.392910;,
  0.132770;0.392910;,
  0.129420;0.392910;,
  0.129420;0.392910;,
  0.162950;0.392910;,
  0.159600;0.392910;,
  0.162950;0.392910;,
  0.162950;0.392910;,
  0.159600;0.392910;,
  0.129420;0.392910;,
  0.162950;0.392910;,
  0.162950;0.426440;,
  0.129420;0.426440;,
  0.129420;0.392910;,
  0.162950;0.392910;,
  0.162950;0.426440;,
  0.129420;0.426440;,
  0.129420;0.392910;,
  0.162950;0.392910;,
  0.162950;0.426440;,
  0.129420;0.426440;,
  0.129420;0.392910;,
  0.162950;0.392910;,
  0.162950;0.426440;,
  0.129420;0.426440;,
  0.162950;0.426440;,
  0.129420;0.426440;,
  0.129420;0.392910;,
  0.162950;0.392910;,
  0.129420;0.392910;,
  0.162950;0.392910;,
  0.162950;0.426440;,
  0.129420;0.426440;,
  0.129420;0.392910;,
  0.162950;0.392910;,
  0.162950;0.426440;,
  0.129420;0.426440;,
  0.129420;0.392910;,
  0.162950;0.392910;,
  0.162950;0.426440;,
  0.129420;0.426440;,
  0.129420;0.392910;,
  0.162950;0.392910;,
  0.162950;0.426440;,
  0.129420;0.426440;,
  0.162950;0.426440;,
  0.129420;0.426440;,
  0.129420;0.392910;,
  0.162950;0.392910;,
  0.129420;0.392910;,
  0.162950;0.392910;,
  0.162950;0.426440;,
  0.129420;0.426440;,
  0.129420;0.392910;,
  0.162950;0.392910;,
  0.162950;0.426440;,
  0.129420;0.426440;,
  0.129420;0.392910;,
  0.162950;0.392910;,
  0.162950;0.426440;,
  0.129420;0.426440;,
  0.129420;0.392910;,
  0.162950;0.392910;,
  0.162950;0.426440;,
  0.129420;0.426440;,
  0.162950;0.426440;,
  0.129420;0.426440;,
  0.129420;0.392910;,
  0.162950;0.392910;,
  0.129420;0.392910;,
  0.162950;0.392910;,
  0.162950;0.426440;,
  0.129420;0.426440;,
  0.129420;0.392910;,
  0.162950;0.392910;,
  0.162950;0.426440;,
  0.129420;0.426440;,
  0.129420;0.392910;,
  0.162950;0.392910;,
  0.162950;0.426440;,
  0.129420;0.426440;,
  0.129420;0.392910;,
  0.162950;0.392910;,
  0.162950;0.426440;,
  0.129420;0.426440;,
  0.162950;0.426440;,
  0.129420;0.426440;,
  0.129420;0.392910;,
  0.162950;0.392910;;
 }
}
