xof 0302txt 0064
template Header {
 <3D82AB43-62DA-11cf-AB39-0020AF71E433>
 WORD major;
 WORD minor;
 DWORD flags;
}

template Vector {
 <3D82AB5E-62DA-11cf-AB39-0020AF71E433>
 FLOAT x;
 FLOAT y;
 FLOAT z;
}

template Coords2d {
 <F6F23F44-7686-11cf-8F52-0040333594A3>
 FLOAT u;
 FLOAT v;
}

template Matrix4x4 {
 <F6F23F45-7686-11cf-8F52-0040333594A3>
 array FLOAT matrix[16];
}

template ColorRGBA {
 <35FF44E0-6C7C-11cf-8F52-0040333594A3>
 FLOAT red;
 FLOAT green;
 FLOAT blue;
 FLOAT alpha;
}

template ColorRGB {
 <D3E16E81-7835-11cf-8F52-0040333594A3>
 FLOAT red;
 FLOAT green;
 FLOAT blue;
}

template IndexedColor {
 <1630B820-7842-11cf-8F52-0040333594A3>
 DWORD index;
 ColorRGBA indexColor;
}

template Boolean {
 <4885AE61-78E8-11cf-8F52-0040333594A3>
 WORD truefalse;
}

template Boolean2d {
 <4885AE63-78E8-11cf-8F52-0040333594A3>
 Boolean u;
 Boolean v;
}

template MaterialWrap {
 <4885AE60-78E8-11cf-8F52-0040333594A3>
 Boolean u;
 Boolean v;
}

template TextureFilename {
 <A42790E1-7810-11cf-8F52-0040333594A3>
 STRING filename;
}

template Material {
 <3D82AB4D-62DA-11cf-AB39-0020AF71E433>
 ColorRGBA faceColor;
 FLOAT power;
 ColorRGB specularColor;
 ColorRGB emissiveColor;
 [...]
}

template MeshFace {
 <3D82AB5F-62DA-11cf-AB39-0020AF71E433>
 DWORD nFaceVertexIndices;
 array DWORD faceVertexIndices[nFaceVertexIndices];
}

template MeshFaceWraps {
 <4885AE62-78E8-11cf-8F52-0040333594A3>
 DWORD nFaceWrapValues;
 Boolean2d faceWrapValues;
}

template MeshTextureCoords {
 <F6F23F40-7686-11cf-8F52-0040333594A3>
 DWORD nTextureCoords;
 array Coords2d textureCoords[nTextureCoords];
}

template MeshMaterialList {
 <F6F23F42-7686-11cf-8F52-0040333594A3>
 DWORD nMaterials;
 DWORD nFaceIndexes;
 array DWORD faceIndexes[nFaceIndexes];
 [Material]
}

template MeshNormals {
 <F6F23F43-7686-11cf-8F52-0040333594A3>
 DWORD nNormals;
 array Vector normals[nNormals];
 DWORD nFaceNormals;
 array MeshFace faceNormals[nFaceNormals];
}

template MeshVertexColors {
 <1630B821-7842-11cf-8F52-0040333594A3>
 DWORD nVertexColors;
 array IndexedColor vertexColors[nVertexColors];
}

template Mesh {
 <3D82AB44-62DA-11cf-AB39-0020AF71E433>
 DWORD nVertices;
 array Vector vertices[nVertices];
 DWORD nFaces;
 array MeshFace faces[nFaces];
 [...]
}

Header{
1;
0;
1;
}

Mesh {
 40;
 -0.00861;-0.01111;-0.13674;,
 -0.00500;-0.01053;-0.13689;,
 -0.00431;-0.01481;-0.13676;,
 -0.00792;-0.01539;-0.13661;,
 -0.00500;-0.01053;-0.13689;,
 0.00585;0.00011;0.12688;,
 0.00683;-0.00599;0.12707;,
 -0.00431;-0.01481;-0.13676;,
 0.00585;0.00011;0.12688;,
 -0.00025;-0.00087;0.12714;,
 0.00073;-0.00696;0.12733;,
 0.00683;-0.00599;0.12707;,
 -0.00025;-0.00087;0.12714;,
 -0.00861;-0.01111;-0.13674;,
 -0.00792;-0.01539;-0.13661;,
 0.00073;-0.00696;0.12733;,
 -0.00500;-0.01053;-0.13689;,
 -0.00861;-0.01111;-0.13674;,
 -0.00792;-0.01539;-0.13661;,
 -0.00431;-0.01481;-0.13676;,
 -0.01042;0.00044;-0.13610;,
 -0.00681;0.00102;-0.13626;,
 -0.00611;-0.00320;-0.13553;,
 -0.00972;-0.00378;-0.13537;,
 -0.00681;0.00102;-0.13626;,
 -0.00190;0.04784;0.12373;,
 -0.00090;0.04183;0.12477;,
 -0.00611;-0.00320;-0.13553;,
 -0.00190;0.04784;0.12373;,
 -0.00799;0.04687;0.12399;,
 -0.00699;0.04086;0.12503;,
 -0.00090;0.04183;0.12477;,
 -0.00799;0.04687;0.12399;,
 -0.01042;0.00044;-0.13610;,
 -0.00972;-0.00378;-0.13537;,
 -0.00699;0.04086;0.12503;,
 -0.00681;0.00102;-0.13626;,
 -0.01042;0.00044;-0.13610;,
 -0.00972;-0.00378;-0.13537;,
 -0.00611;-0.00320;-0.13553;;
 
 12;
 4;0,1,2,3;,
 4;4,5,6,7;,
 4;8,9,10,11;,
 4;12,13,14,15;,
 4;12,5,16,17;,
 4;18,19,6,15;,
 4;20,21,22,23;,
 4;24,25,26,27;,
 4;28,29,30,31;,
 4;32,33,34,35;,
 4;32,25,36,37;,
 4;38,39,26,35;;
 
 MeshMaterialList {
  8;
  12;
  1,
  1,
  1,
  1,
  1,
  1,
  1,
  1,
  1,
  1,
  1,
  1;;
  Material {
   0.800000;0.800000;0.800000;1.000000;;
   5.000000;
   0.000000;0.000000;0.000000;;
   0.000000;0.000000;0.000000;;
   TextureFilename {
    "iztex01.png";
   }
  }
  Material {
   0.668000;0.633600;0.351200;1.000000;;
   5.000000;
   0.000000;0.000000;0.000000;;
   0.258850;0.245520;0.136090;;
   TextureFilename {
    "iztex01.png";
   }
  }
  Material {
   0.298400;0.125600;0.112800;1.000000;;
   18.000000;
   0.200000;0.200000;0.200000;;
   0.134280;0.056520;0.050760;;
   TextureFilename {
    "iztex01.png";
   }
  }
  Material {
   0.061410;0.011730;0.011730;1.000000;;
   30.000000;
   0.300000;0.300000;0.300000;;
   0.000000;0.000000;0.000000;;
   TextureFilename {
    "iztex01.png";
   }
  }
  Material {
   0.800000;0.166400;0.000000;1.000000;;
   5.000000;
   0.450000;0.450000;0.450000;;
   0.000000;0.000000;0.000000;;
   TextureFilename {
    "iztex01.png";
   }
  }
  Material {
   0.800000;0.800000;0.800000;1.000000;;
   5.000000;
   0.100000;0.100000;0.100000;;
   0.390000;0.390000;0.390000;;
   TextureFilename {
    "iztex01.png";
   }
  }
  Material {
   0.800000;0.800000;0.800000;1.000000;;
   26.000000;
   0.410000;0.410000;0.410000;;
   0.400000;0.400000;0.400000;;
   TextureFilename {
    "iztex01.png";
   }
  }
  Material {
   0.800000;0.800000;0.800000;0.300000;;
   54.000000;
   0.710000;0.710000;0.710000;;
   0.750000;0.750000;0.750000;;
   TextureFilename {
    "iztex01.png";
   }
  }
 }
 MeshNormals {
  12;
  -0.036785;-0.036102;-0.998671;,
  0.986479;0.157036;-0.046890;,
  0.036954;0.036093;0.998665;,
  -0.014511;-0.173067;-0.984803;,
  0.986566;0.156509;-0.046831;,
  0.014345;0.173108;0.984798;,
  -0.986828;-0.157399;0.037371;,
  -0.158786;0.986752;-0.033276;,
  0.158396;-0.987025;0.026317;,
  -0.986700;-0.158180;0.037445;,
  -0.162285;0.971651;-0.171925;,
  0.162213;-0.972853;0.165058;;
  12;
  4;0,0,0,0;,
  4;1,1,1,1;,
  4;2,2,2,2;,
  4;6,6,6,6;,
  4;7,7,7,7;,
  4;8,8,8,8;,
  4;3,3,3,3;,
  4;4,4,4,4;,
  4;5,5,5,5;,
  4;9,9,9,9;,
  4;10,10,10,10;,
  4;11,11,11,11;;
 }
 MeshTextureCoords {
  40;
  0.133440;0.378960;,
  0.170850;0.378960;,
  0.170850;0.416360;,
  0.133440;0.416360;,
  0.133440;0.378960;,
  0.170850;0.378960;,
  0.170850;0.416360;,
  0.133440;0.416360;,
  0.133440;0.378960;,
  0.170850;0.378960;,
  0.170850;0.416360;,
  0.133440;0.416360;,
  0.133440;0.378960;,
  0.170850;0.378960;,
  0.170850;0.416360;,
  0.133440;0.416360;,
  0.170850;0.416360;,
  0.133440;0.416360;,
  0.133440;0.378960;,
  0.170850;0.378960;,
  0.133440;0.378960;,
  0.170850;0.378960;,
  0.170850;0.416360;,
  0.133440;0.416360;,
  0.133440;0.378960;,
  0.170850;0.378960;,
  0.170850;0.416360;,
  0.133440;0.416360;,
  0.133440;0.378960;,
  0.170850;0.378960;,
  0.170850;0.416360;,
  0.133440;0.416360;,
  0.133440;0.378960;,
  0.170850;0.378960;,
  0.170850;0.416360;,
  0.133440;0.416360;,
  0.170850;0.416360;,
  0.133440;0.416360;,
  0.133440;0.378960;,
  0.170850;0.378960;;
 }
}
