xof 0302txt 0064
template Header {
 <3D82AB43-62DA-11cf-AB39-0020AF71E433>
 WORD major;
 WORD minor;
 DWORD flags;
}

template Vector {
 <3D82AB5E-62DA-11cf-AB39-0020AF71E433>
 FLOAT x;
 FLOAT y;
 FLOAT z;
}

template Coords2d {
 <F6F23F44-7686-11cf-8F52-0040333594A3>
 FLOAT u;
 FLOAT v;
}

template Matrix4x4 {
 <F6F23F45-7686-11cf-8F52-0040333594A3>
 array FLOAT matrix[16];
}

template ColorRGBA {
 <35FF44E0-6C7C-11cf-8F52-0040333594A3>
 FLOAT red;
 FLOAT green;
 FLOAT blue;
 FLOAT alpha;
}

template ColorRGB {
 <D3E16E81-7835-11cf-8F52-0040333594A3>
 FLOAT red;
 FLOAT green;
 FLOAT blue;
}

template IndexedColor {
 <1630B820-7842-11cf-8F52-0040333594A3>
 DWORD index;
 ColorRGBA indexColor;
}

template Boolean {
 <4885AE61-78E8-11cf-8F52-0040333594A3>
 WORD truefalse;
}

template Boolean2d {
 <4885AE63-78E8-11cf-8F52-0040333594A3>
 Boolean u;
 Boolean v;
}

template MaterialWrap {
 <4885AE60-78E8-11cf-8F52-0040333594A3>
 Boolean u;
 Boolean v;
}

template TextureFilename {
 <A42790E1-7810-11cf-8F52-0040333594A3>
 STRING filename;
}

template Material {
 <3D82AB4D-62DA-11cf-AB39-0020AF71E433>
 ColorRGBA faceColor;
 FLOAT power;
 ColorRGB specularColor;
 ColorRGB emissiveColor;
 [...]
}

template MeshFace {
 <3D82AB5F-62DA-11cf-AB39-0020AF71E433>
 DWORD nFaceVertexIndices;
 array DWORD faceVertexIndices[nFaceVertexIndices];
}

template MeshFaceWraps {
 <4885AE62-78E8-11cf-8F52-0040333594A3>
 DWORD nFaceWrapValues;
 Boolean2d faceWrapValues;
}

template MeshTextureCoords {
 <F6F23F40-7686-11cf-8F52-0040333594A3>
 DWORD nTextureCoords;
 array Coords2d textureCoords[nTextureCoords];
}

template MeshMaterialList {
 <F6F23F42-7686-11cf-8F52-0040333594A3>
 DWORD nMaterials;
 DWORD nFaceIndexes;
 array DWORD faceIndexes[nFaceIndexes];
 [Material]
}

template MeshNormals {
 <F6F23F43-7686-11cf-8F52-0040333594A3>
 DWORD nNormals;
 array Vector normals[nNormals];
 DWORD nFaceNormals;
 array MeshFace faceNormals[nFaceNormals];
}

template MeshVertexColors {
 <1630B821-7842-11cf-8F52-0040333594A3>
 DWORD nVertexColors;
 array IndexedColor vertexColors[nVertexColors];
}

template Mesh {
 <3D82AB44-62DA-11cf-AB39-0020AF71E433>
 DWORD nVertices;
 array Vector vertices[nVertices];
 DWORD nFaces;
 array MeshFace faces[nFaces];
 [...]
}

Header{
1;
0;
1;
}

Mesh {
 40;
 0.00039;0.00074;-0.13695;,
 0.00064;0.00439;-0.13697;,
 0.00497;0.00409;-0.13699;,
 0.00472;0.00044;-0.13697;,
 0.00064;0.00439;-0.13697;,
 0.00126;0.00705;0.12723;,
 0.00742;0.00662;0.12719;,
 0.00497;0.00409;-0.13699;,
 0.00126;0.00705;0.12723;,
 0.00083;0.00088;0.12726;,
 0.00699;0.00045;0.12723;,
 0.00742;0.00662;0.12719;,
 0.00083;0.00088;0.12726;,
 0.00039;0.00074;-0.13695;,
 0.00472;0.00044;-0.13697;,
 0.00699;0.00045;0.12723;,
 0.00064;0.00439;-0.13697;,
 0.00039;0.00074;-0.13695;,
 0.00472;0.00044;-0.13697;,
 0.00497;0.00409;-0.13699;,
 -0.00298;0.00087;-0.13795;,
 -0.00279;0.00452;-0.13796;,
 0.00154;0.00429;-0.13792;,
 0.00135;0.00064;-0.13791;,
 -0.00279;0.00452;-0.13796;,
 -0.00598;0.00667;0.12622;,
 0.00019;0.00635;0.12628;,
 0.00154;0.00429;-0.13792;,
 -0.00598;0.00667;0.12622;,
 -0.00630;0.00050;0.12624;,
 -0.00013;0.00018;0.12630;,
 0.00019;0.00635;0.12628;,
 -0.00630;0.00050;0.12624;,
 -0.00298;0.00087;-0.13795;,
 0.00135;0.00064;-0.13791;,
 -0.00013;0.00018;0.12630;,
 -0.00279;0.00452;-0.13796;,
 -0.00298;0.00087;-0.13795;,
 0.00135;0.00064;-0.13791;,
 0.00154;0.00429;-0.13792;;
 
 12;
 4;0,1,2,3;,
 4;4,5,6,7;,
 4;8,9,10,11;,
 4;12,13,14,15;,
 4;12,5,16,17;,
 4;18,19,6,15;,
 4;20,21,22,23;,
 4;24,25,26,27;,
 4;28,29,30,31;,
 4;32,33,34,35;,
 4;32,25,36,37;,
 4;38,39,26,35;;
 
 MeshMaterialList {
  8;
  12;
  1,
  1,
  1,
  1,
  1,
  1,
  1,
  1,
  1,
  1,
  1,
  1;;
  Material {
   0.800000;0.800000;0.800000;1.000000;;
   5.000000;
   0.000000;0.000000;0.000000;;
   0.000000;0.000000;0.000000;;
   TextureFilename {
    "iztex01.png";
   }
  }
  Material {
   0.668000;0.633600;0.351200;1.000000;;
   5.000000;
   0.000000;0.000000;0.000000;;
   0.258850;0.245520;0.136090;;
   TextureFilename {
    "iztex01.png";
   }
  }
  Material {
   0.298400;0.125600;0.112800;1.000000;;
   18.000000;
   0.200000;0.200000;0.200000;;
   0.134280;0.056520;0.050760;;
   TextureFilename {
    "iztex01.png";
   }
  }
  Material {
   0.061410;0.011730;0.011730;1.000000;;
   30.000000;
   0.300000;0.300000;0.300000;;
   0.000000;0.000000;0.000000;;
   TextureFilename {
    "iztex01.png";
   }
  }
  Material {
   0.800000;0.166400;0.000000;1.000000;;
   5.000000;
   0.450000;0.450000;0.450000;;
   0.000000;0.000000;0.000000;;
   TextureFilename {
    "iztex01.png";
   }
  }
  Material {
   0.800000;0.800000;0.800000;1.000000;;
   5.000000;
   0.100000;0.100000;0.100000;;
   0.390000;0.390000;0.390000;;
   TextureFilename {
    "iztex01.png";
   }
  }
  Material {
   0.800000;0.800000;0.800000;1.000000;;
   26.000000;
   0.410000;0.410000;0.410000;;
   0.400000;0.400000;0.400000;;
   TextureFilename {
    "iztex01.png";
   }
  }
  Material {
   0.800000;0.800000;0.800000;0.300000;;
   54.000000;
   0.710000;0.710000;0.710000;;
   0.750000;0.750000;0.750000;;
   TextureFilename {
    "iztex01.png";
   }
  }
 }
 MeshNormals {
  12;
  -0.005415;-0.004953;-0.999973;,
  0.069248;0.997547;-0.010196;,
  0.005471;0.005126;0.999972;,
  0.008795;-0.003263;-0.999956;,
  0.052085;0.998614;-0.007514;,
  -0.008869;0.003113;0.999956;,
  -0.069281;-0.997597;0.000664;,
  -0.997605;0.069145;0.001614;,
  0.997558;-0.069314;-0.008587;,
  -0.051978;-0.998646;-0.002020;,
  -0.998569;0.052005;-0.012464;,
  0.998632;-0.051999;0.005492;;
  12;
  4;0,0,0,0;,
  4;1,1,1,1;,
  4;2,2,2,2;,
  4;6,6,6,6;,
  4;7,7,7,7;,
  4;8,8,8,8;,
  4;3,3,3,3;,
  4;4,4,4,4;,
  4;5,5,5,5;,
  4;9,9,9,9;,
  4;10,10,10,10;,
  4;11,11,11,11;;
 }
 MeshTextureCoords {
  40;
  0.133440;0.378960;,
  0.170850;0.378960;,
  0.170850;0.416360;,
  0.133440;0.416360;,
  0.133440;0.378960;,
  0.170850;0.378960;,
  0.170850;0.416360;,
  0.133440;0.416360;,
  0.133440;0.378960;,
  0.170850;0.378960;,
  0.170850;0.416360;,
  0.133440;0.416360;,
  0.133440;0.378960;,
  0.170850;0.378960;,
  0.170850;0.416360;,
  0.133440;0.416360;,
  0.170850;0.416360;,
  0.133440;0.416360;,
  0.133440;0.378960;,
  0.170850;0.378960;,
  0.133440;0.378960;,
  0.170850;0.378960;,
  0.170850;0.416360;,
  0.133440;0.416360;,
  0.133440;0.378960;,
  0.170850;0.378960;,
  0.170850;0.416360;,
  0.133440;0.416360;,
  0.133440;0.378960;,
  0.170850;0.378960;,
  0.170850;0.416360;,
  0.133440;0.416360;,
  0.133440;0.378960;,
  0.170850;0.378960;,
  0.170850;0.416360;,
  0.133440;0.416360;,
  0.170850;0.416360;,
  0.133440;0.416360;,
  0.133440;0.378960;,
  0.170850;0.378960;;
 }
}
