xof 0302txt 0064
template Header {
 <3D82AB43-62DA-11cf-AB39-0020AF71E433>
 WORD major;
 WORD minor;
 DWORD flags;
}

template Vector {
 <3D82AB5E-62DA-11cf-AB39-0020AF71E433>
 FLOAT x;
 FLOAT y;
 FLOAT z;
}

template Coords2d {
 <F6F23F44-7686-11cf-8F52-0040333594A3>
 FLOAT u;
 FLOAT v;
}

template Matrix4x4 {
 <F6F23F45-7686-11cf-8F52-0040333594A3>
 array FLOAT matrix[16];
}

template ColorRGBA {
 <35FF44E0-6C7C-11cf-8F52-0040333594A3>
 FLOAT red;
 FLOAT green;
 FLOAT blue;
 FLOAT alpha;
}

template ColorRGB {
 <D3E16E81-7835-11cf-8F52-0040333594A3>
 FLOAT red;
 FLOAT green;
 FLOAT blue;
}

template IndexedColor {
 <1630B820-7842-11cf-8F52-0040333594A3>
 DWORD index;
 ColorRGBA indexColor;
}

template Boolean {
 <4885AE61-78E8-11cf-8F52-0040333594A3>
 WORD truefalse;
}

template Boolean2d {
 <4885AE63-78E8-11cf-8F52-0040333594A3>
 Boolean u;
 Boolean v;
}

template MaterialWrap {
 <4885AE60-78E8-11cf-8F52-0040333594A3>
 Boolean u;
 Boolean v;
}

template TextureFilename {
 <A42790E1-7810-11cf-8F52-0040333594A3>
 STRING filename;
}

template Material {
 <3D82AB4D-62DA-11cf-AB39-0020AF71E433>
 ColorRGBA faceColor;
 FLOAT power;
 ColorRGB specularColor;
 ColorRGB emissiveColor;
 [...]
}

template MeshFace {
 <3D82AB5F-62DA-11cf-AB39-0020AF71E433>
 DWORD nFaceVertexIndices;
 array DWORD faceVertexIndices[nFaceVertexIndices];
}

template MeshFaceWraps {
 <4885AE62-78E8-11cf-8F52-0040333594A3>
 DWORD nFaceWrapValues;
 Boolean2d faceWrapValues;
}

template MeshTextureCoords {
 <F6F23F40-7686-11cf-8F52-0040333594A3>
 DWORD nTextureCoords;
 array Coords2d textureCoords[nTextureCoords];
}

template MeshMaterialList {
 <F6F23F42-7686-11cf-8F52-0040333594A3>
 DWORD nMaterials;
 DWORD nFaceIndexes;
 array DWORD faceIndexes[nFaceIndexes];
 [Material]
}

template MeshNormals {
 <F6F23F43-7686-11cf-8F52-0040333594A3>
 DWORD nNormals;
 array Vector normals[nNormals];
 DWORD nFaceNormals;
 array MeshFace faceNormals[nFaceNormals];
}

template MeshVertexColors {
 <1630B821-7842-11cf-8F52-0040333594A3>
 DWORD nVertexColors;
 array IndexedColor vertexColors[nVertexColors];
}

template Mesh {
 <3D82AB44-62DA-11cf-AB39-0020AF71E433>
 DWORD nVertices;
 array Vector vertices[nVertices];
 DWORD nFaces;
 array MeshFace faces[nFaces];
 [...]
}

Header{
1;
0;
1;
}

Mesh {
 110;
 0.00000;0.13106;-0.19887;,
 0.11689;0.13106;-0.16089;,
 0.12653;0.12942;-0.17415;,
 0.00000;0.12942;-0.21526;,
 0.18914;0.13106;-0.06145;,
 0.20472;0.12942;-0.06652;,
 0.18914;0.13106;0.06145;,
 0.20472;0.12942;0.06652;,
 0.11689;0.13106;0.16089;,
 0.12653;0.12942;0.17415;,
 0.00000;0.13106;0.19887;,
 0.00000;0.12942;0.21526;,
 -0.11689;0.13106;0.16089;,
 -0.12653;0.12942;0.17415;,
 -0.18914;0.13106;0.06145;,
 -0.20472;0.12942;0.06652;,
 -0.18914;0.13106;-0.06145;,
 -0.20472;0.12942;-0.06652;,
 -0.11689;0.13106;-0.16089;,
 -0.12653;0.12942;-0.17415;,
 0.00000;0.12942;-0.21526;,
 0.12653;0.12942;-0.17415;,
 0.09866;0.08124;-0.13579;,
 0.00000;0.08124;-0.16785;,
 0.20472;0.12942;-0.06652;,
 0.15964;0.08124;-0.05187;,
 0.20472;0.12942;0.06652;,
 0.15964;0.08124;0.05187;,
 0.12653;0.12942;0.17415;,
 0.09866;0.08124;0.13579;,
 0.00000;0.12942;0.21526;,
 0.00000;0.08124;0.16785;,
 -0.12653;0.12942;0.17415;,
 -0.09866;0.08124;0.13579;,
 -0.20472;0.12942;0.06652;,
 -0.15964;0.08124;0.05187;,
 -0.20472;0.12942;-0.06652;,
 -0.15964;0.08124;-0.05187;,
 -0.12653;0.12942;-0.17415;,
 -0.09866;0.08124;-0.13579;,
 0.07551;0.04029;-0.10393;,
 0.00000;0.04029;-0.12847;,
 0.12218;0.04029;-0.03970;,
 0.12218;0.04029;0.03970;,
 0.07551;0.04029;0.10393;,
 0.00000;0.04029;0.12847;,
 -0.07551;0.04029;0.10393;,
 -0.12218;0.04029;0.03970;,
 -0.12218;0.04029;-0.03970;,
 -0.07551;0.04029;-0.10393;,
 0.04087;0.01292;-0.05625;,
 0.00000;0.01292;-0.06953;,
 0.06612;0.01292;-0.02148;,
 0.06612;0.01292;0.02148;,
 0.04087;0.01292;0.05625;,
 0.00000;0.01292;0.06953;,
 -0.04087;0.01292;0.05625;,
 -0.06612;0.01292;0.02148;,
 -0.06612;0.01292;-0.02148;,
 -0.04087;0.01292;-0.05625;,
 0.03840;-0.00017;-0.05285;,
 0.00000;-0.00017;-0.06532;,
 0.00000;-0.00017;-0.06532;,
 0.03840;-0.00017;-0.05285;,
 0.00000;-0.00018;-0.00000;,
 0.06213;-0.00017;-0.02019;,
 0.06213;-0.00017;-0.02019;,
 0.06213;-0.00017;0.02019;,
 0.06213;-0.00017;0.02019;,
 0.03840;-0.00017;0.05285;,
 0.03840;-0.00017;0.05285;,
 0.00000;-0.00017;0.06532;,
 0.00000;-0.00017;0.06532;,
 -0.03840;-0.00017;0.05285;,
 -0.03840;-0.00017;0.05285;,
 -0.06213;-0.00017;0.02019;,
 -0.06213;-0.00017;0.02019;,
 -0.06213;-0.00017;-0.02019;,
 -0.06213;-0.00017;-0.02019;,
 -0.03840;-0.00017;-0.05285;,
 -0.03840;-0.00017;-0.05285;,
 0.00000;0.12761;0.00000;,
 0.06087;0.11937;-0.08379;,
 0.00000;0.11937;-0.10357;,
 0.09850;0.11937;-0.03200;,
 0.09850;0.11937;0.03200;,
 0.06087;0.11937;0.08379;,
 0.00000;0.11937;0.10357;,
 -0.06087;0.11937;0.08379;,
 -0.09850;0.11937;0.03200;,
 -0.09850;0.11937;-0.03200;,
 -0.06087;0.11937;-0.08379;,
 0.00000;0.10807;-0.16279;,
 0.09569;0.10807;-0.13170;,
 0.15482;0.10807;-0.05030;,
 0.15482;0.10807;0.05030;,
 0.09569;0.10807;0.13170;,
 0.00000;0.10807;0.16279;,
 -0.09569;0.10807;0.13170;,
 -0.15482;0.10807;0.05030;,
 -0.15482;0.10807;-0.05030;,
 -0.09569;0.10807;-0.13170;,
 0.00000;0.11937;-0.10357;,
 0.06087;0.11937;-0.08379;,
 0.09850;0.11937;-0.03200;,
 0.09850;0.11937;0.03200;,
 -0.06087;0.11937;0.08379;,
 -0.09850;0.11937;0.03200;,
 -0.09850;0.11937;-0.03200;,
 -0.06087;0.11937;-0.08379;;
 
 90;
 4;0,1,2,3;,
 4;1,4,5,2;,
 4;4,6,7,5;,
 4;6,8,9,7;,
 4;8,10,11,9;,
 4;10,12,13,11;,
 4;12,14,15,13;,
 4;14,16,17,15;,
 4;16,18,19,17;,
 4;18,0,3,19;,
 4;20,21,22,23;,
 4;21,24,25,22;,
 4;24,26,27,25;,
 4;26,28,29,27;,
 4;28,30,31,29;,
 4;30,32,33,31;,
 4;32,34,35,33;,
 4;34,36,37,35;,
 4;36,38,39,37;,
 4;38,20,23,39;,
 4;23,22,40,41;,
 4;22,25,42,40;,
 4;25,27,43,42;,
 4;27,29,44,43;,
 4;29,31,45,44;,
 4;31,33,46,45;,
 4;33,35,47,46;,
 4;35,37,48,47;,
 4;37,39,49,48;,
 4;39,23,41,49;,
 4;41,40,50,51;,
 4;40,42,52,50;,
 4;42,43,53,52;,
 4;43,44,54,53;,
 4;44,45,55,54;,
 4;45,46,56,55;,
 4;46,47,57,56;,
 4;47,48,58,57;,
 4;48,49,59,58;,
 4;49,41,51,59;,
 4;60,61,51,50;,
 3;62,63,64;,
 4;65,60,50,52;,
 3;63,66,64;,
 4;67,65,52,53;,
 3;66,68,64;,
 4;69,67,53,54;,
 3;68,70,64;,
 4;71,69,54,55;,
 3;70,72,64;,
 4;73,71,55,56;,
 3;72,74,64;,
 4;75,73,56,57;,
 3;74,76,64;,
 4;77,75,57,58;,
 3;76,78,64;,
 4;79,77,58,59;,
 3;78,80,64;,
 4;61,79,59,51;,
 3;80,62,64;,
 3;81,82,83;,
 3;81,84,82;,
 3;81,85,84;,
 3;81,86,85;,
 3;81,87,86;,
 3;81,88,87;,
 3;81,89,88;,
 3;81,90,89;,
 3;81,91,90;,
 3;81,83,91;,
 4;92,93,1,0;,
 4;93,94,4,1;,
 4;94,95,6,4;,
 4;95,96,8,6;,
 4;96,97,10,8;,
 4;97,98,12,10;,
 4;98,99,14,12;,
 4;99,100,16,14;,
 4;100,101,18,16;,
 4;101,92,0,18;,
 4;102,103,93,92;,
 4;103,104,94,93;,
 4;104,105,95,94;,
 4;105,86,96,95;,
 4;86,87,97,96;,
 4;87,106,98,97;,
 4;106,107,99,98;,
 4;107,108,100,99;,
 4;108,109,101,100;,
 4;109,102,92,101;;
 
 MeshMaterialList {
  8;
  90;
  6,
  6,
  6,
  6,
  6,
  6,
  6,
  6,
  6,
  6,
  6,
  6,
  6,
  6,
  6,
  6,
  6,
  6,
  6,
  6,
  6,
  6,
  6,
  6,
  6,
  6,
  6,
  6,
  6,
  6,
  6,
  6,
  6,
  6,
  6,
  6,
  6,
  6,
  6,
  6,
  6,
  6,
  6,
  6,
  6,
  6,
  6,
  6,
  6,
  6,
  6,
  6,
  6,
  6,
  6,
  6,
  6,
  6,
  6,
  6,
  6,
  6,
  6,
  6,
  6,
  6,
  6,
  6,
  6,
  6,
  6,
  6,
  6,
  6,
  6,
  6,
  6,
  6,
  6,
  6,
  6,
  6,
  6,
  6,
  6,
  6,
  6,
  6,
  6,
  6;;
  Material {
   0.800000;0.800000;0.800000;1.000000;;
   5.000000;
   0.000000;0.000000;0.000000;;
   0.000000;0.000000;0.000000;;
   TextureFilename {
    "iztex01.png";
   }
  }
  Material {
   0.668000;0.633600;0.351200;1.000000;;
   5.000000;
   0.000000;0.000000;0.000000;;
   0.258850;0.245520;0.136090;;
   TextureFilename {
    "iztex01.png";
   }
  }
  Material {
   0.298400;0.125600;0.112800;1.000000;;
   18.000000;
   0.200000;0.200000;0.200000;;
   0.134280;0.056520;0.050760;;
   TextureFilename {
    "iztex01.png";
   }
  }
  Material {
   0.061410;0.011730;0.011730;1.000000;;
   30.000000;
   0.300000;0.300000;0.300000;;
   0.000000;0.000000;0.000000;;
   TextureFilename {
    "iztex01.png";
   }
  }
  Material {
   0.800000;0.166400;0.000000;1.000000;;
   5.000000;
   0.450000;0.450000;0.450000;;
   0.000000;0.000000;0.000000;;
   TextureFilename {
    "iztex01.png";
   }
  }
  Material {
   0.800000;0.800000;0.800000;1.000000;;
   5.000000;
   0.100000;0.100000;0.100000;;
   0.390000;0.390000;0.390000;;
   TextureFilename {
    "iztex01.png";
   }
  }
  Material {
   0.800000;0.800000;0.800000;1.000000;;
   26.000000;
   0.410000;0.410000;0.410000;;
   0.400000;0.400000;0.400000;;
   TextureFilename {
    "iztex01.png";
   }
  }
  Material {
   0.800000;0.800000;0.800000;0.300000;;
   54.000000;
   0.710000;0.710000;0.710000;;
   0.750000;0.750000;0.750000;;
   TextureFilename {
    "iztex01.png";
   }
  }
 }
 MeshNormals {
  92;
  0.000000;0.973357;0.229295;,
  -0.134778;0.973356;0.185505;,
  -0.218072;0.973357;0.070858;,
  -0.218072;0.973357;-0.070858;,
  -0.134778;0.973356;-0.185505;,
  0.000000;0.973357;-0.229295;,
  0.134778;0.973356;-0.185505;,
  0.218072;0.973357;-0.070858;,
  0.218072;0.973357;0.070858;,
  0.134778;0.973356;0.185505;,
  0.000000;0.995044;-0.099437;,
  0.058447;0.995044;-0.080446;,
  0.094575;0.995043;-0.030727;,
  0.094575;0.995043;0.030727;,
  0.058447;0.995044;0.080446;,
  0.000000;0.995044;0.099437;,
  -0.058447;0.995044;0.080446;,
  -0.094575;0.995043;0.030727;,
  -0.094575;0.995043;-0.030727;,
  -0.058447;0.995044;-0.080446;,
  0.000000;-0.697260;-0.716818;,
  0.421337;-0.697261;-0.579916;,
  0.681736;-0.697259;-0.221507;,
  0.681736;-0.697259;0.221507;,
  0.421337;-0.697261;0.579916;,
  0.000000;-0.697260;0.716818;,
  -0.421337;-0.697261;0.579916;,
  -0.681736;-0.697259;0.221507;,
  -0.681736;-0.697259;-0.221507;,
  -0.421337;-0.697261;-0.579916;,
  0.000000;-0.814942;-0.579542;,
  0.340647;-0.814943;-0.468857;,
  0.551178;-0.814943;-0.179086;,
  0.551178;-0.814943;0.179086;,
  0.340647;-0.814943;0.468857;,
  0.000000;-0.814942;0.579542;,
  -0.340647;-0.814943;0.468857;,
  -0.551178;-0.814943;0.179086;,
  -0.551178;-0.814943;-0.179086;,
  -0.340647;-0.814943;-0.468857;,
  0.000000;-0.667887;-0.744262;,
  0.437466;-0.667889;-0.602120;,
  0.707827;-0.667897;-0.229986;,
  0.707827;-0.667897;0.229986;,
  0.437466;-0.667889;0.602120;,
  0.000000;-0.667887;0.744262;,
  -0.437466;-0.667889;0.602120;,
  -0.707827;-0.667897;0.229986;,
  -0.707827;-0.667897;-0.229986;,
  -0.437466;-0.667889;-0.602120;,
  -0.000000;-0.817643;-0.575725;,
  0.338402;-0.817644;-0.465771;,
  0.547534;-0.817652;-0.177906;,
  0.547534;-0.817652;0.177906;,
  0.338402;-0.817644;0.465771;,
  -0.000000;-0.817643;0.575725;,
  -0.338402;-0.817644;0.465771;,
  -0.547534;-0.817652;0.177906;,
  -0.547534;-0.817652;-0.177906;,
  -0.338402;-0.817644;-0.465771;,
  0.000000;-1.000000;-0.000000;,
  0.000000;1.000000;0.000000;,
  0.000000;0.991044;-0.133539;,
  0.078493;0.991043;-0.108036;,
  0.127003;0.991044;-0.041267;,
  0.127003;0.991044;0.041267;,
  0.078493;0.991043;0.108036;,
  0.000000;0.991044;0.133539;,
  -0.078493;0.991043;0.108036;,
  -0.127003;0.991044;0.041267;,
  -0.127003;0.991044;-0.041267;,
  -0.078493;0.991043;-0.108036;,
  0.000000;0.982605;0.185710;,
  -0.109159;0.982604;0.150244;,
  -0.176624;0.982604;0.057389;,
  -0.176624;0.982604;-0.057389;,
  -0.109159;0.982604;-0.150244;,
  0.000000;0.982605;-0.185710;,
  0.109159;0.982604;-0.150244;,
  0.176624;0.982604;-0.057389;,
  0.176624;0.982604;0.057389;,
  0.109159;0.982604;0.150244;,
  0.000000;-0.701344;-0.712823;,
  0.418988;-0.701345;-0.576685;,
  0.677942;-0.701338;-0.220273;,
  0.677942;-0.701338;0.220273;,
  0.418988;-0.701345;0.576685;,
  0.000000;-0.701344;0.712823;,
  -0.418988;-0.701345;0.576685;,
  -0.677942;-0.701338;0.220273;,
  -0.677942;-0.701338;-0.220273;,
  -0.418988;-0.701345;-0.576685;;
  90;
  4;0,1,11,10;,
  4;1,2,12,11;,
  4;2,3,13,12;,
  4;3,4,14,13;,
  4;4,5,15,14;,
  4;5,6,16,15;,
  4;6,7,17,16;,
  4;7,8,18,17;,
  4;8,9,19,18;,
  4;9,0,10,19;,
  4;82,83,21,20;,
  4;83,84,22,21;,
  4;84,85,23,22;,
  4;85,86,24,23;,
  4;86,87,25,24;,
  4;87,88,26,25;,
  4;88,89,27,26;,
  4;89,90,28,27;,
  4;90,91,29,28;,
  4;91,82,20,29;,
  4;20,21,31,30;,
  4;21,22,32,31;,
  4;22,23,33,32;,
  4;23,24,34,33;,
  4;24,25,35,34;,
  4;25,26,36,35;,
  4;26,27,37,36;,
  4;27,28,38,37;,
  4;28,29,39,38;,
  4;29,20,30,39;,
  4;30,31,41,40;,
  4;31,32,42,41;,
  4;32,33,43,42;,
  4;33,34,44,43;,
  4;34,35,45,44;,
  4;35,36,46,45;,
  4;36,37,47,46;,
  4;37,38,48,47;,
  4;38,39,49,48;,
  4;39,30,40,49;,
  4;51,50,40,41;,
  3;50,51,60;,
  4;52,51,41,42;,
  3;51,52,60;,
  4;53,52,42,43;,
  3;52,53,60;,
  4;54,53,43,44;,
  3;53,54,60;,
  4;55,54,44,45;,
  3;54,55,60;,
  4;56,55,45,46;,
  3;55,56,60;,
  4;57,56,46,47;,
  3;56,57,60;,
  4;58,57,47,48;,
  3;57,58,60;,
  4;59,58,48,49;,
  3;58,59,60;,
  4;50,59,49,40;,
  3;59,50,60;,
  3;61,63,62;,
  3;61,64,63;,
  3;61,65,64;,
  3;61,66,65;,
  3;61,67,66;,
  3;61,68,67;,
  3;61,69,68;,
  3;61,70,69;,
  3;61,71,70;,
  3;61,62,71;,
  4;72,73,1,0;,
  4;73,74,2,1;,
  4;74,75,3,2;,
  4;75,76,4,3;,
  4;76,77,5,4;,
  4;77,78,6,5;,
  4;78,79,7,6;,
  4;79,80,8,7;,
  4;80,81,9,8;,
  4;81,72,0,9;,
  4;62,63,73,72;,
  4;63,64,74,73;,
  4;64,65,75,74;,
  4;65,66,76,75;,
  4;66,67,77,76;,
  4;67,68,78,77;,
  4;68,69,79,78;,
  4;69,70,80,79;,
  4;70,71,81,80;,
  4;71,62,72,81;;
 }
 MeshTextureCoords {
  110;
  0.108248;0.985670;,
  0.174289;0.973429;,
  0.178562;0.981299;,
  0.107079;0.994546;,
  0.220523;0.924710;,
  0.228604;0.928565;,
  0.229290;0.858119;,
  0.238093;0.856487;,
  0.197241;0.799093;,
  0.203405;0.792597;,
  0.136618;0.770176;,
  0.137787;0.761299;,
  0.070577;0.782417;,
  0.066304;0.774547;,
  0.024343;0.831137;,
  0.016262;0.827282;,
  0.015576;0.897728;,
  0.006773;0.899360;,
  0.047626;0.956753;,
  0.041461;0.963249;,
  0.284034;0.854419;,
  0.283329;0.804273;,
  0.309742;0.809899;,
  0.310394;0.856227;,
  0.282103;0.782356;,
  0.308610;0.789649;,
  0.280825;0.797037;,
  0.307429;0.803213;,
  0.279982;0.842709;,
  0.306651;0.845409;,
  0.279898;0.901928;,
  0.306572;0.900120;,
  0.280603;0.952073;,
  0.307224;0.946447;,
  0.281829;0.973990;,
  0.308357;0.966697;,
  0.283107;0.959309;,
  0.309538;0.953134;,
  0.283949;0.913637;,
  0.310316;0.910938;,
  0.331927;0.825918;,
  0.332426;0.861376;,
  0.331060;0.810420;,
  0.330156;0.820801;,
  0.329561;0.853096;,
  0.329501;0.894970;,
  0.330000;0.930429;,
  0.330867;0.945926;,
  0.331770;0.935545;,
  0.332366;0.903250;,
  0.346505;0.849893;,
  0.346775;0.869083;,
  0.346036;0.841505;,
  0.345547;0.847123;,
  0.345225;0.864602;,
  0.345192;0.887264;,
  0.345462;0.906453;,
  0.345932;0.914841;,
  0.346421;0.909223;,
  0.346743;0.891745;,
  0.357325;0.846693;,
  0.357625;0.868054;,
  0.950228;0.621840;,
  0.959992;0.621650;,
  0.945602;0.621286;,
  0.356802;0.837356;,
  0.964260;0.621320;,
  0.356258;0.843610;,
  0.961401;0.620975;,
  0.355899;0.863066;,
  0.952508;0.620748;,
  0.355863;0.888292;,
  0.940977;0.620725;,
  0.356163;0.909654;,
  0.931212;0.620915;,
  0.356686;0.918990;,
  0.926944;0.621246;,
  0.357230;0.912736;,
  0.929803;0.621590;,
  0.357589;0.893280;,
  0.938697;0.621818;,
  0.122433;0.877924;,
  0.149438;0.927661;,
  0.115046;0.934036;,
  0.173516;0.902289;,
  0.178081;0.867609;,
  0.161391;0.836870;,
  0.129820;0.821811;,
  0.095428;0.828186;,
  0.071351;0.853558;,
  0.066785;0.888238;,
  0.083475;0.918977;,
  0.110822;0.966121;,
  0.164880;0.956102;,
  0.202727;0.916221;,
  0.209903;0.861712;,
  0.183668;0.813395;,
  0.134045;0.789725;,
  0.079986;0.799745;,
  0.042140;0.839626;,
  0.034963;0.894135;,
  0.061198;0.942452;,
  0.115046;0.934035;,
  0.149438;0.927661;,
  0.173516;0.902289;,
  0.178081;0.867609;,
  0.095428;0.828186;,
  0.071351;0.853558;,
  0.066785;0.888238;,
  0.083475;0.918977;;
 }
}
