xof 0302txt 0064
template Header {
 <3D82AB43-62DA-11cf-AB39-0020AF71E433>
 WORD major;
 WORD minor;
 DWORD flags;
}

template Vector {
 <3D82AB5E-62DA-11cf-AB39-0020AF71E433>
 FLOAT x;
 FLOAT y;
 FLOAT z;
}

template Coords2d {
 <F6F23F44-7686-11cf-8F52-0040333594A3>
 FLOAT u;
 FLOAT v;
}

template Matrix4x4 {
 <F6F23F45-7686-11cf-8F52-0040333594A3>
 array FLOAT matrix[16];
}

template ColorRGBA {
 <35FF44E0-6C7C-11cf-8F52-0040333594A3>
 FLOAT red;
 FLOAT green;
 FLOAT blue;
 FLOAT alpha;
}

template ColorRGB {
 <D3E16E81-7835-11cf-8F52-0040333594A3>
 FLOAT red;
 FLOAT green;
 FLOAT blue;
}

template IndexedColor {
 <1630B820-7842-11cf-8F52-0040333594A3>
 DWORD index;
 ColorRGBA indexColor;
}

template Boolean {
 <4885AE61-78E8-11cf-8F52-0040333594A3>
 WORD truefalse;
}

template Boolean2d {
 <4885AE63-78E8-11cf-8F52-0040333594A3>
 Boolean u;
 Boolean v;
}

template MaterialWrap {
 <4885AE60-78E8-11cf-8F52-0040333594A3>
 Boolean u;
 Boolean v;
}

template TextureFilename {
 <A42790E1-7810-11cf-8F52-0040333594A3>
 STRING filename;
}

template Material {
 <3D82AB4D-62DA-11cf-AB39-0020AF71E433>
 ColorRGBA faceColor;
 FLOAT power;
 ColorRGB specularColor;
 ColorRGB emissiveColor;
 [...]
}

template MeshFace {
 <3D82AB5F-62DA-11cf-AB39-0020AF71E433>
 DWORD nFaceVertexIndices;
 array DWORD faceVertexIndices[nFaceVertexIndices];
}

template MeshFaceWraps {
 <4885AE62-78E8-11cf-8F52-0040333594A3>
 DWORD nFaceWrapValues;
 Boolean2d faceWrapValues;
}

template MeshTextureCoords {
 <F6F23F40-7686-11cf-8F52-0040333594A3>
 DWORD nTextureCoords;
 array Coords2d textureCoords[nTextureCoords];
}

template MeshMaterialList {
 <F6F23F42-7686-11cf-8F52-0040333594A3>
 DWORD nMaterials;
 DWORD nFaceIndexes;
 array DWORD faceIndexes[nFaceIndexes];
 [Material]
}

template MeshNormals {
 <F6F23F43-7686-11cf-8F52-0040333594A3>
 DWORD nNormals;
 array Vector normals[nNormals];
 DWORD nFaceNormals;
 array MeshFace faceNormals[nFaceNormals];
}

template MeshVertexColors {
 <1630B821-7842-11cf-8F52-0040333594A3>
 DWORD nVertexColors;
 array IndexedColor vertexColors[nVertexColors];
}

template Mesh {
 <3D82AB44-62DA-11cf-AB39-0020AF71E433>
 DWORD nVertices;
 array Vector vertices[nVertices];
 DWORD nFaces;
 array MeshFace faces[nFaces];
 [...]
}

Header{
1;
0;
1;
}

Mesh {
 190;
 0.00217;0.30510;-0.09593;,
 0.05856;0.30510;-0.07761;,
 0.05856;0.16235;-0.07761;,
 0.00217;0.16235;-0.09593;,
 0.09340;0.30510;-0.02964;,
 0.09340;0.16235;-0.02964;,
 0.09340;0.30510;0.02964;,
 0.09340;0.16235;0.02964;,
 0.05856;0.30510;0.07761;,
 0.05856;0.16235;0.07761;,
 0.00217;0.30510;0.09593;,
 0.00217;0.16235;0.09593;,
 -0.05422;0.30510;0.07761;,
 -0.05422;0.16235;0.07761;,
 -0.08906;0.30510;0.02964;,
 -0.08906;0.16235;0.02964;,
 -0.08906;0.30510;-0.02964;,
 -0.08906;0.16235;-0.02964;,
 -0.05422;0.30510;-0.07761;,
 -0.05422;0.16235;-0.07761;,
 0.05856;0.01959;-0.07761;,
 0.00217;0.01959;-0.09593;,
 0.09340;0.01959;-0.02964;,
 0.09340;0.01959;0.02964;,
 0.05856;0.01959;0.07761;,
 0.00217;0.01959;0.09593;,
 -0.05422;0.01959;0.07761;,
 -0.08906;0.01959;0.02964;,
 -0.08906;0.01959;-0.02964;,
 -0.05422;0.01959;-0.07761;,
 0.00217;0.01959;0.00000;,
 0.00217;0.01959;-0.09593;,
 0.05856;0.01959;-0.07761;,
 0.09340;0.01959;-0.02964;,
 0.09340;0.01959;0.02964;,
 0.09340;0.01959;0.02964;,
 0.05856;0.01959;0.07761;,
 0.00217;0.01959;0.09593;,
 -0.05422;0.01959;0.07761;,
 -0.08906;0.01959;0.02964;,
 -0.08906;0.01959;-0.02964;,
 -0.05422;0.01959;-0.07761;,
 0.00217;0.31259;0.00000;,
 0.05856;0.30510;-0.07761;,
 0.00217;0.30510;-0.09593;,
 0.09340;0.30510;-0.02964;,
 0.09340;0.30510;0.02964;,
 0.05856;0.30510;0.07761;,
 0.00217;0.30510;0.09593;,
 -0.05422;0.30510;0.07761;,
 -0.08906;0.30510;0.02964;,
 -0.08906;0.30510;-0.02964;,
 -0.05422;0.30510;-0.07761;,
 0.00217;0.00224;0.00000;,
 0.00217;0.00224;-0.10759;,
 0.06541;0.00224;-0.08704;,
 0.10449;0.00224;-0.03325;,
 0.10449;0.00224;0.03325;,
 0.10449;0.00224;0.03325;,
 0.06541;0.00224;0.08704;,
 0.00217;0.00224;0.10759;,
 -0.06107;0.00224;0.08704;,
 -0.10015;0.00224;0.03325;,
 -0.10015;0.00224;-0.03325;,
 -0.06107;0.00224;-0.08704;,
 0.00217;0.37198;-0.09310;,
 0.05689;0.37198;-0.07532;,
 0.06541;0.36922;-0.08704;,
 0.00217;0.36922;-0.10759;,
 0.09071;0.37198;-0.02877;,
 0.10449;0.36922;-0.03325;,
 0.09071;0.37198;0.02877;,
 0.10449;0.36922;0.03325;,
 0.05689;0.37198;0.07532;,
 0.06541;0.36922;0.08704;,
 0.00217;0.37198;0.09310;,
 0.00217;0.36922;0.10759;,
 -0.05255;0.37198;0.07532;,
 -0.06107;0.36922;0.08704;,
 -0.08638;0.37198;0.02877;,
 -0.10015;0.36922;0.03325;,
 -0.08638;0.37198;-0.02877;,
 -0.10015;0.36922;-0.03325;,
 -0.05255;0.37198;-0.07532;,
 -0.06107;0.36922;-0.08704;,
 0.00217;0.01425;-0.09310;,
 0.05689;0.01425;-0.07532;,
 0.05689;0.37198;-0.07532;,
 0.00217;0.37198;-0.09310;,
 0.00217;0.01425;0.00000;,
 0.05689;0.01425;-0.07532;,
 0.00217;0.01425;-0.09310;,
 0.09071;0.01425;-0.02877;,
 0.09071;0.37198;-0.02877;,
 0.09071;0.01425;-0.02877;,
 0.09071;0.01425;0.02877;,
 0.09071;0.37198;0.02877;,
 0.09071;0.01425;0.02877;,
 0.05689;0.01425;0.07532;,
 0.05689;0.37198;0.07532;,
 0.05689;0.01425;0.07532;,
 0.00217;0.01425;0.09310;,
 0.00217;0.37198;0.09310;,
 0.00217;0.01425;0.09310;,
 -0.05255;0.01425;0.07532;,
 -0.05255;0.37198;0.07532;,
 -0.05255;0.01425;0.07532;,
 -0.08638;0.01425;0.02877;,
 -0.08638;0.37198;0.02877;,
 -0.08638;0.01425;0.02877;,
 -0.08638;0.01425;-0.02877;,
 -0.08638;0.37198;-0.02877;,
 -0.08638;0.01425;-0.02877;,
 -0.05255;0.01425;-0.07532;,
 -0.05255;0.37198;-0.07532;,
 -0.05255;0.01425;-0.07532;,
 0.15969;0.31136;-0.01045;,
 0.15298;0.30333;-0.01478;,
 0.10281;0.30570;-0.01478;,
 0.10245;0.31614;-0.01045;,
 0.16240;0.31476;0.00000;,
 0.10227;0.32047;0.00000;,
 0.15969;0.31136;0.01045;,
 0.10245;0.31614;0.01045;,
 0.15298;0.30333;0.01478;,
 0.10281;0.30570;0.01478;,
 0.14602;0.29551;0.01045;,
 0.10305;0.29525;0.01045;,
 0.14307;0.29234;0.00000;,
 0.10312;0.29092;0.00000;,
 0.14602;0.29551;-0.01045;,
 0.10305;0.29525;-0.01045;,
 0.15298;0.30333;-0.01478;,
 0.10281;0.30570;-0.01478;,
 0.18040;0.27044;-0.01045;,
 0.16995;0.27178;-0.01478;,
 0.18473;0.26989;0.00000;,
 0.18040;0.27044;0.01045;,
 0.16995;0.27178;0.01478;,
 0.15950;0.27311;0.01045;,
 0.15517;0.27366;0.00000;,
 0.15950;0.27311;-0.01045;,
 0.16995;0.27178;-0.01478;,
 0.18867;0.16182;-0.01045;,
 0.17822;0.16466;-0.01478;,
 0.19300;0.16064;0.00000;,
 0.18867;0.16182;0.01045;,
 0.17822;0.16466;0.01478;,
 0.16777;0.16751;0.01045;,
 0.16344;0.16868;0.00000;,
 0.16777;0.16751;-0.01045;,
 0.17822;0.16466;-0.01478;,
 0.15485;0.11791;-0.01045;,
 0.10262;0.10957;-0.01045;,
 0.10288;0.12002;-0.01478;,
 0.15062;0.12763;-0.01478;,
 0.15640;0.11378;0.00000;,
 0.10251;0.10524;0.00000;,
 0.15485;0.11791;0.01045;,
 0.10262;0.10957;0.01045;,
 0.15062;0.12763;0.01478;,
 0.10288;0.12002;0.01478;,
 0.14571;0.13697;0.01045;,
 0.10313;0.13047;0.01045;,
 0.14348;0.14071;0.00000;,
 0.10324;0.13480;0.00000;,
 0.14571;0.13697;-0.01045;,
 0.10313;0.13047;-0.01045;,
 0.15062;0.12763;-0.01478;,
 0.10288;0.12002;-0.01478;,
 0.06541;0.00224;-0.08704;,
 0.00217;0.00224;-0.10759;,
 0.00217;0.36922;-0.10759;,
 0.06541;0.36922;-0.08704;,
 0.10449;0.00224;-0.03325;,
 0.10449;0.36922;-0.03325;,
 0.10449;0.00224;0.03325;,
 0.10449;0.36922;0.03325;,
 0.06541;0.00224;0.08704;,
 0.06541;0.36922;0.08704;,
 0.00217;0.00224;0.10759;,
 0.00217;0.36922;0.10759;,
 -0.06107;0.00224;0.08704;,
 -0.06107;0.36922;0.08704;,
 -0.10015;0.00224;0.03325;,
 -0.10015;0.36922;0.03325;,
 -0.10015;0.00224;-0.03325;,
 -0.10015;0.36922;-0.03325;,
 -0.06107;0.00224;-0.08704;,
 -0.06107;0.36922;-0.08704;;
 
 130;
 4;0,1,2,3;,
 4;1,4,5,2;,
 4;4,6,7,5;,
 4;6,8,9,7;,
 4;8,10,11,9;,
 4;10,12,13,11;,
 4;12,14,15,13;,
 4;14,16,17,15;,
 4;16,18,19,17;,
 4;18,0,3,19;,
 4;3,2,20,21;,
 4;2,5,22,20;,
 4;5,7,23,22;,
 4;7,9,24,23;,
 4;9,11,25,24;,
 4;11,13,26,25;,
 4;13,15,27,26;,
 4;15,17,28,27;,
 4;17,19,29,28;,
 4;19,3,21,29;,
 3;30,31,32;,
 3;30,32,33;,
 3;30,33,34;,
 3;30,35,36;,
 3;30,36,37;,
 3;30,37,38;,
 3;30,38,39;,
 3;30,39,40;,
 3;30,40,41;,
 3;30,41,31;,
 3;42,43,44;,
 3;42,45,43;,
 3;42,46,45;,
 3;42,47,46;,
 3;42,48,47;,
 3;42,49,48;,
 3;42,50,49;,
 3;42,51,50;,
 3;42,52,51;,
 3;42,44,52;,
 3;53,54,55;,
 3;53,55,56;,
 3;53,56,57;,
 3;53,58,59;,
 3;53,59,60;,
 3;53,60,61;,
 3;53,61,62;,
 3;53,62,63;,
 3;53,63,64;,
 3;53,64,54;,
 4;65,66,67,68;,
 4;66,69,70,67;,
 4;69,71,72,70;,
 4;71,73,74,72;,
 4;73,75,76,74;,
 4;75,77,78,76;,
 4;77,79,80,78;,
 4;79,81,82,80;,
 4;81,83,84,82;,
 4;83,65,68,84;,
 4;85,86,87,88;,
 3;89,90,91;,
 4;86,92,93,87;,
 3;89,94,90;,
 4;92,95,96,93;,
 3;89,97,94;,
 4;95,98,99,96;,
 3;89,100,97;,
 4;98,101,102,99;,
 3;89,103,100;,
 4;101,104,105,102;,
 3;89,106,103;,
 4;104,107,108,105;,
 3;89,109,106;,
 4;107,110,111,108;,
 3;89,112,109;,
 4;110,113,114,111;,
 3;89,115,112;,
 4;113,85,88,114;,
 3;89,91,115;,
 4;116,117,118,119;,
 4;120,116,119,121;,
 4;122,120,121,123;,
 4;124,122,123,125;,
 4;126,124,125,127;,
 4;128,126,127,129;,
 4;130,128,129,131;,
 4;132,130,131,133;,
 4;134,135,117,116;,
 4;136,134,116,120;,
 4;137,136,120,122;,
 4;138,137,122,124;,
 4;139,138,124,126;,
 4;140,139,126,128;,
 4;141,140,128,130;,
 4;142,141,130,132;,
 4;143,144,135,134;,
 4;145,143,134,136;,
 4;146,145,136,137;,
 4;147,146,137,138;,
 4;148,147,138,139;,
 4;149,148,139,140;,
 4;150,149,140,141;,
 4;151,150,141,142;,
 4;152,153,154,155;,
 4;152,155,144,143;,
 4;156,157,153,152;,
 4;156,152,143,145;,
 4;158,159,157,156;,
 4;158,156,145,146;,
 4;160,161,159,158;,
 4;160,158,146,147;,
 4;162,163,161,160;,
 4;162,160,147,148;,
 4;164,165,163,162;,
 4;164,162,148,149;,
 4;166,167,165,164;,
 4;166,164,149,150;,
 4;168,169,167,166;,
 4;168,166,150,151;,
 4;170,171,172,173;,
 4;174,170,173,175;,
 4;176,174,175,177;,
 4;178,176,177,179;,
 4;180,178,179,181;,
 4;182,180,181,183;,
 4;184,182,183,185;,
 4;186,184,185,187;,
 4;188,186,187,189;,
 4;171,188,189,172;;
 
 MeshMaterialList {
  8;
  130;
  5,
  5,
  5,
  5,
  5,
  5,
  5,
  5,
  5,
  5,
  5,
  5,
  5,
  5,
  5,
  5,
  5,
  5,
  5,
  5,
  5,
  5,
  5,
  5,
  5,
  5,
  5,
  5,
  5,
  5,
  5,
  5,
  5,
  5,
  5,
  5,
  5,
  5,
  5,
  5,
  7,
  7,
  7,
  7,
  7,
  7,
  7,
  7,
  7,
  7,
  7,
  7,
  7,
  7,
  7,
  7,
  7,
  7,
  7,
  7,
  7,
  7,
  7,
  7,
  7,
  7,
  7,
  7,
  7,
  7,
  7,
  7,
  7,
  7,
  7,
  7,
  7,
  7,
  7,
  7,
  7,
  7,
  7,
  7,
  7,
  7,
  7,
  7,
  7,
  7,
  7,
  7,
  7,
  7,
  7,
  7,
  7,
  7,
  7,
  7,
  7,
  7,
  7,
  7,
  7,
  7,
  7,
  7,
  7,
  7,
  7,
  7,
  7,
  7,
  7,
  7,
  7,
  7,
  7,
  7,
  7,
  7,
  7,
  7,
  7,
  7,
  7,
  7,
  7,
  7;;
  Material {
   0.800000;0.800000;0.800000;1.000000;;
   5.000000;
   0.000000;0.000000;0.000000;;
   0.000000;0.000000;0.000000;;
   TextureFilename {
    "iztex01.png";
   }
  }
  Material {
   0.668000;0.633600;0.351200;1.000000;;
   5.000000;
   0.000000;0.000000;0.000000;;
   0.258850;0.245520;0.136090;;
   TextureFilename {
    "iztex01.png";
   }
  }
  Material {
   0.298400;0.125600;0.112800;1.000000;;
   18.000000;
   0.200000;0.200000;0.200000;;
   0.134280;0.056520;0.050760;;
   TextureFilename {
    "iztex01.png";
   }
  }
  Material {
   0.061410;0.011730;0.011730;1.000000;;
   30.000000;
   0.300000;0.300000;0.300000;;
   0.000000;0.000000;0.000000;;
   TextureFilename {
    "iztex01.png";
   }
  }
  Material {
   0.800000;0.166400;0.000000;1.000000;;
   5.000000;
   0.450000;0.450000;0.450000;;
   0.000000;0.000000;0.000000;;
   TextureFilename {
    "iztex01.png";
   }
  }
  Material {
   0.800000;0.800000;0.800000;1.000000;;
   5.000000;
   0.100000;0.100000;0.100000;;
   0.390000;0.390000;0.390000;;
   TextureFilename {
    "iztex01.png";
   }
  }
  Material {
   0.800000;0.800000;0.800000;1.000000;;
   26.000000;
   0.410000;0.410000;0.410000;;
   0.400000;0.400000;0.400000;;
   TextureFilename {
    "iztex01.png";
   }
  }
  Material {
   0.800000;0.800000;0.800000;0.300000;;
   54.000000;
   0.710000;0.710000;0.710000;;
   0.750000;0.750000;0.750000;;
   TextureFilename {
    "iztex01.png";
   }
  }
 }
 MeshNormals {
  122;
  -0.000000;0.000000;-1.000000;,
  0.587785;0.000000;-0.809017;,
  0.951056;0.000000;-0.309018;,
  0.951056;0.000000;0.309018;,
  0.587785;0.000000;0.809017;,
  -0.000000;0.000000;1.000000;,
  -0.587785;0.000000;0.809017;,
  -0.951056;0.000000;0.309018;,
  -0.951056;0.000000;-0.309018;,
  -0.587785;0.000000;-0.809017;,
  0.000000;-0.724617;-0.689152;,
  0.405073;-0.724617;-0.557536;,
  0.655422;-0.724617;-0.212960;,
  0.655422;-0.724617;0.212960;,
  0.405073;-0.724617;0.557536;,
  0.000000;-0.724617;0.689152;,
  -0.405073;-0.724617;0.557536;,
  -0.655422;-0.724617;0.212960;,
  -0.655422;-0.724617;-0.212960;,
  -0.405073;-0.724617;-0.557536;,
  0.000000;-1.000000;-0.000000;,
  -0.000000;1.000000;0.000000;,
  -0.000000;0.695796;-0.718239;,
  0.422171;0.695796;-0.581068;,
  0.683086;0.695796;-0.221949;,
  0.683086;0.695796;0.221949;,
  0.422171;0.695796;0.581068;,
  -0.000000;0.695796;0.718239;,
  -0.422171;0.695796;0.581068;,
  -0.683086;0.695796;0.221949;,
  -0.683086;0.695796;-0.221949;,
  -0.422171;0.695796;-0.581068;,
  0.000002;0.652853;-0.757484;,
  0.445243;0.652851;-0.612817;,
  0.720415;0.652849;-0.234075;,
  0.720415;0.652849;0.234075;,
  0.445243;0.652851;0.612817;,
  0.000002;0.652853;0.757484;,
  -0.445241;0.652851;0.612818;,
  -0.720415;0.652849;0.234075;,
  -0.720415;0.652849;-0.234075;,
  -0.445241;0.652852;-0.612818;,
  0.000002;-0.724617;-0.689151;,
  0.405076;-0.724617;-0.557534;,
  0.655423;-0.724617;-0.212958;,
  0.655423;-0.724617;0.212958;,
  0.405076;-0.724617;0.557534;,
  0.000002;-0.724617;0.689151;,
  -0.405075;-0.724617;0.557534;,
  -0.655423;-0.724617;0.212958;,
  -0.655423;-0.724617;-0.212958;,
  -0.405075;-0.724617;-0.557534;,
  0.000000;-1.000000;-0.000000;,
  -0.000002;0.788668;0.614819;,
  -0.361381;0.788668;0.497400;,
  -0.584724;0.788671;0.189991;,
  -0.584724;0.788671;-0.189991;,
  -0.361381;0.788668;-0.497400;,
  -0.000002;0.788668;-0.614819;,
  0.361379;0.788668;-0.497401;,
  0.584724;0.788671;-0.189991;,
  0.584724;0.788671;0.189991;,
  0.361379;0.788668;0.497401;,
  0.000000;1.000000;0.000000;,
  -0.000002;0.724618;0.689151;,
  -0.405074;0.724616;0.557536;,
  -0.655421;0.724617;0.212962;,
  -0.655421;0.724617;-0.212962;,
  -0.405074;0.724616;-0.557536;,
  -0.000002;0.724618;-0.689151;,
  0.405072;0.724617;-0.557537;,
  0.655421;0.724617;-0.212962;,
  0.655421;0.724617;0.212962;,
  0.405072;0.724617;0.557537;,
  0.009878;-0.005455;-0.999936;,
  0.059949;0.728395;-0.682530;,
  0.088901;0.996041;0.000000;,
  0.059949;0.728395;0.682530;,
  0.009878;-0.005455;0.999936;,
  0.005150;-0.740821;0.671682;,
  0.020619;-0.999787;-0.000000;,
  0.005150;-0.740821;-0.671682;,
  0.000349;0.002402;-0.999997;,
  0.111723;-0.701597;-0.703761;,
  0.157120;-0.987580;-0.000000;,
  0.111723;-0.701597;0.703761;,
  0.000349;0.002402;0.999997;,
  -0.107411;0.707903;0.698094;,
  -0.148227;0.988953;0.000000;,
  -0.107411;0.707903;-0.698094;,
  0.007280;-0.006202;-0.999954;,
  0.384741;0.569432;-0.726444;,
  0.563670;0.826000;0.000000;,
  0.384741;0.569432;0.726444;,
  0.007280;-0.006202;0.999954;,
  -0.336232;-0.603143;0.723302;,
  -0.475464;-0.879735;0.000000;,
  -0.336232;-0.603143;-0.723302;,
  0.002300;-0.003561;-0.999991;,
  0.691312;0.196353;-0.695365;,
  0.963258;0.268579;0.000000;,
  0.691312;0.196353;0.695365;,
  0.002300;-0.003561;0.999991;,
  -0.680002;-0.222159;0.698744;,
  -0.949293;-0.314392;0.000000;,
  -0.680002;-0.222159;-0.698744;,
  0.000099;-0.002333;-0.999997;,
  0.665603;-0.201795;-0.718506;,
  0.957137;-0.289634;-0.000000;,
  0.665603;-0.201795;0.718506;,
  0.000099;-0.002333;0.999997;,
  -0.667866;0.189541;0.719742;,
  -0.962953;0.269670;0.000000;,
  -0.667866;0.189541;-0.719742;,
  0.000293;-0.001013;-0.999999;,
  0.356830;-0.594299;-0.720750;,
  0.511216;-0.859452;-0.000000;,
  0.356830;-0.594299;0.720750;,
  0.000293;-0.001013;0.999999;,
  -0.360474;0.588369;0.723796;,
  -0.521643;0.853164;0.000000;,
  -0.360474;0.588369;-0.723796;;
  130;
  4;22,23,1,0;,
  4;23,24,2,1;,
  4;24,25,3,2;,
  4;25,26,4,3;,
  4;26,27,5,4;,
  4;27,28,6,5;,
  4;28,29,7,6;,
  4;29,30,8,7;,
  4;30,31,9,8;,
  4;31,22,0,9;,
  4;0,1,11,10;,
  4;1,2,12,11;,
  4;2,3,13,12;,
  4;3,4,14,13;,
  4;4,5,15,14;,
  4;5,6,16,15;,
  4;6,7,17,16;,
  4;7,8,18,17;,
  4;8,9,19,18;,
  4;9,0,10,19;,
  3;20,10,11;,
  3;20,11,12;,
  3;20,12,13;,
  3;20,13,14;,
  3;20,14,15;,
  3;20,15,16;,
  3;20,16,17;,
  3;20,17,18;,
  3;20,18,19;,
  3;20,19,10;,
  3;21,23,22;,
  3;21,24,23;,
  3;21,25,24;,
  3;21,26,25;,
  3;21,27,26;,
  3;21,28,27;,
  3;21,29,28;,
  3;21,30,29;,
  3;21,31,30;,
  3;21,22,31;,
  3;52,42,43;,
  3;52,43,44;,
  3;52,44,45;,
  3;52,45,46;,
  3;52,46,47;,
  3;52,47,48;,
  3;52,48,49;,
  3;52,49,50;,
  3;52,50,51;,
  3;52,51,42;,
  4;53,54,33,32;,
  4;54,55,34,33;,
  4;55,56,35,34;,
  4;56,57,36,35;,
  4;57,58,37,36;,
  4;58,59,38,37;,
  4;59,60,39,38;,
  4;60,61,40,39;,
  4;61,62,41,40;,
  4;62,53,32,41;,
  4;64,65,54,53;,
  3;63,65,64;,
  4;65,66,55,54;,
  3;63,66,65;,
  4;66,67,56,55;,
  3;63,67,66;,
  4;67,68,57,56;,
  3;63,68,67;,
  4;68,69,58,57;,
  3;63,69,68;,
  4;69,70,59,58;,
  3;63,70,69;,
  4;70,71,60,59;,
  3;63,71,70;,
  4;71,72,61,60;,
  3;63,72,71;,
  4;72,73,62,61;,
  3;63,73,72;,
  4;73,64,53,62;,
  3;63,64,73;,
  4;91,90,74,75;,
  4;92,91,75,76;,
  4;93,92,76,77;,
  4;94,93,77,78;,
  4;95,94,78,79;,
  4;96,95,79,80;,
  4;97,96,80,81;,
  4;90,97,81,74;,
  4;99,98,90,91;,
  4;100,99,91,92;,
  4;101,100,92,93;,
  4;102,101,93,94;,
  4;103,102,94,95;,
  4;104,103,95,96;,
  4;105,104,96,97;,
  4;98,105,97,90;,
  4;107,106,98,99;,
  4;108,107,99,100;,
  4;109,108,100,101;,
  4;110,109,101,102;,
  4;111,110,102,103;,
  4;112,111,103,104;,
  4;113,112,104,105;,
  4;106,113,105,98;,
  4;115,83,82,114;,
  4;115,114,106,107;,
  4;116,84,83,115;,
  4;116,115,107,108;,
  4;117,85,84,116;,
  4;117,116,108,109;,
  4;118,86,85,117;,
  4;118,117,109,110;,
  4;119,87,86,118;,
  4;119,118,110,111;,
  4;120,88,87,119;,
  4;120,119,111,112;,
  4;121,89,88,120;,
  4;121,120,112,113;,
  4;114,82,89,121;,
  4;114,121,113,106;,
  4;43,42,32,33;,
  4;44,43,33,34;,
  4;45,44,34,35;,
  4;46,45,35,36;,
  4;47,46,36,37;,
  4;48,47,37,38;,
  4;49,48,38,39;,
  4;50,49,39,40;,
  4;51,50,40,41;,
  4;42,51,41,32;;
 }
 MeshTextureCoords {
  190;
  0.009210;0.599210;,
  0.001550;0.599210;,
  0.001550;0.669040;,
  0.009210;0.669040;,
  0.041230;0.599210;,
  0.041230;0.669040;,
  0.069880;0.599210;,
  0.069880;0.669040;,
  0.093050;0.599210;,
  0.093050;0.669040;,
  0.104260;0.599210;,
  0.104260;0.669040;,
  0.093050;0.599210;,
  0.093050;0.669040;,
  0.069880;0.599210;,
  0.069880;0.669040;,
  0.041230;0.599210;,
  0.041230;0.669040;,
  0.018060;0.599210;,
  0.018060;0.669040;,
  0.001550;0.738870;,
  0.009210;0.738870;,
  0.041230;0.738870;,
  0.069880;0.738870;,
  0.093050;0.738870;,
  0.104260;0.738870;,
  0.093050;0.738870;,
  0.069880;0.738870;,
  0.041230;0.738870;,
  0.018060;0.738870;,
  0.054080;0.672130;,
  0.016370;0.700190;,
  0.007670;0.672680;,
  0.015730;0.644960;,
  0.039020;0.627600;,
  0.039030;0.627610;,
  0.068080;0.627280;,
  0.094170;0.644070;,
  0.101080;0.671580;,
  0.092430;0.699300;,
  0.069120;0.716640;,
  0.040070;0.716980;,
  0.071060;0.612040;,
  0.062050;0.605250;,
  0.067730;0.601200;,
  0.059820;0.611890;,
  0.061880;0.618590;,
  0.067440;0.622790;,
  0.074390;0.622880;,
  0.080060;0.618830;,
  0.082300;0.612190;,
  0.080240;0.605490;,
  0.074670;0.601290;,
  0.056550;0.558100;,
  0.020990;0.564470;,
  0.012790;0.558220;,
  0.020390;0.551930;,
  0.042350;0.547990;,
  0.042360;0.547990;,
  0.069750;0.547920;,
  0.094350;0.551730;,
  0.100870;0.557970;,
  0.092710;0.564260;,
  0.070730;0.568200;,
  0.043340;0.568280;,
  0.097380;0.524200;,
  0.101360;0.523710;,
  0.107810;0.523990;,
  0.103200;0.524550;,
  0.089530;0.523260;,
  0.094130;0.523470;,
  0.066400;0.523040;,
  0.067400;0.523210;,
  0.040810;0.523120;,
  0.037830;0.523300;,
  0.022540;0.523470;,
  0.016710;0.523710;,
  0.018550;0.523960;,
  0.012110;0.524280;,
  0.030380;0.524410;,
  0.025780;0.524800;,
  0.053510;0.524630;,
  0.052510;0.525060;,
  0.079110;0.524550;,
  0.082090;0.524960;,
  0.016320;0.546590;,
  0.025540;0.546540;,
  0.025540;0.525700;,
  0.016320;0.525750;,
  0.072560;0.544460;,
  0.064070;0.542920;,
  0.069420;0.542000;,
  0.047470;0.546510;,
  0.047470;0.525660;,
  0.061960;0.544420;,
  0.073770;0.546510;,
  0.073770;0.525670;,
  0.063910;0.545940;,
  0.094370;0.546540;,
  0.094370;0.525700;,
  0.069150;0.546900;,
  0.101420;0.546600;,
  0.101420;0.525760;,
  0.075700;0.546920;,
  0.092210;0.546650;,
  0.092210;0.525810;,
  0.081050;0.546000;,
  0.070270;0.546680;,
  0.070270;0.525840;,
  0.083160;0.544490;,
  0.043980;0.546680;,
  0.043980;0.525840;,
  0.081220;0.542970;,
  0.023380;0.546640;,
  0.023380;0.525800;,
  0.075970;0.542020;,
  0.021990;0.530750;,
  0.010570;0.530830;,
  0.010570;0.524300;,
  0.021990;0.524300;,
  0.033410;0.530710;,
  0.033410;0.524300;,
  0.044830;0.530750;,
  0.044830;0.524300;,
  0.056250;0.530830;,
  0.056250;0.524300;,
  0.067670;0.530910;,
  0.067670;0.524300;,
  0.079080;0.530950;,
  0.079080;0.524300;,
  0.090500;0.530910;,
  0.090500;0.524300;,
  0.101920;0.530830;,
  0.101920;0.524300;,
  0.021990;0.538340;,
  0.010570;0.538140;,
  0.033410;0.538420;,
  0.044830;0.538340;,
  0.056250;0.538140;,
  0.067670;0.537940;,
  0.079080;0.537850;,
  0.090500;0.537940;,
  0.101920;0.538140;,
  0.021990;0.553030;,
  0.010570;0.552600;,
  0.033410;0.553210;,
  0.044830;0.553030;,
  0.056250;0.552600;,
  0.067670;0.552170;,
  0.079080;0.551990;,
  0.090500;0.552170;,
  0.101920;0.552600;,
  0.021990;0.559630;,
  0.021990;0.565300;,
  0.010570;0.565300;,
  0.010570;0.559390;,
  0.033410;0.559730;,
  0.033410;0.565300;,
  0.044830;0.559630;,
  0.044830;0.565300;,
  0.056250;0.559390;,
  0.056250;0.565300;,
  0.067670;0.559150;,
  0.067670;0.565300;,
  0.079080;0.559050;,
  0.079080;0.565300;,
  0.090500;0.559150;,
  0.090500;0.565300;,
  0.101920;0.559390;,
  0.101920;0.565300;,
  0.007020;0.573240;,
  0.014240;0.573240;,
  0.014240;0.525700;,
  0.007020;0.525700;,
  0.044430;0.573240;,
  0.044430;0.525700;,
  0.071450;0.573240;,
  0.071450;0.525700;,
  0.093300;0.573240;,
  0.093300;0.525700;,
  0.103870;0.573240;,
  0.103870;0.525700;,
  0.093300;0.573240;,
  0.093300;0.525700;,
  0.071450;0.573240;,
  0.071450;0.525700;,
  0.044430;0.573240;,
  0.044430;0.525700;,
  0.022580;0.573240;,
  0.022580;0.525700;;
 }
}
