xof 0302txt 0064
template Header {
 <3D82AB43-62DA-11cf-AB39-0020AF71E433>
 WORD major;
 WORD minor;
 DWORD flags;
}

template Vector {
 <3D82AB5E-62DA-11cf-AB39-0020AF71E433>
 FLOAT x;
 FLOAT y;
 FLOAT z;
}

template Coords2d {
 <F6F23F44-7686-11cf-8F52-0040333594A3>
 FLOAT u;
 FLOAT v;
}

template Matrix4x4 {
 <F6F23F45-7686-11cf-8F52-0040333594A3>
 array FLOAT matrix[16];
}

template ColorRGBA {
 <35FF44E0-6C7C-11cf-8F52-0040333594A3>
 FLOAT red;
 FLOAT green;
 FLOAT blue;
 FLOAT alpha;
}

template ColorRGB {
 <D3E16E81-7835-11cf-8F52-0040333594A3>
 FLOAT red;
 FLOAT green;
 FLOAT blue;
}

template IndexedColor {
 <1630B820-7842-11cf-8F52-0040333594A3>
 DWORD index;
 ColorRGBA indexColor;
}

template Boolean {
 <4885AE61-78E8-11cf-8F52-0040333594A3>
 WORD truefalse;
}

template Boolean2d {
 <4885AE63-78E8-11cf-8F52-0040333594A3>
 Boolean u;
 Boolean v;
}

template MaterialWrap {
 <4885AE60-78E8-11cf-8F52-0040333594A3>
 Boolean u;
 Boolean v;
}

template TextureFilename {
 <A42790E1-7810-11cf-8F52-0040333594A3>
 STRING filename;
}

template Material {
 <3D82AB4D-62DA-11cf-AB39-0020AF71E433>
 ColorRGBA faceColor;
 FLOAT power;
 ColorRGB specularColor;
 ColorRGB emissiveColor;
 [...]
}

template MeshFace {
 <3D82AB5F-62DA-11cf-AB39-0020AF71E433>
 DWORD nFaceVertexIndices;
 array DWORD faceVertexIndices[nFaceVertexIndices];
}

template MeshFaceWraps {
 <4885AE62-78E8-11cf-8F52-0040333594A3>
 DWORD nFaceWrapValues;
 Boolean2d faceWrapValues;
}

template MeshTextureCoords {
 <F6F23F40-7686-11cf-8F52-0040333594A3>
 DWORD nTextureCoords;
 array Coords2d textureCoords[nTextureCoords];
}

template MeshMaterialList {
 <F6F23F42-7686-11cf-8F52-0040333594A3>
 DWORD nMaterials;
 DWORD nFaceIndexes;
 array DWORD faceIndexes[nFaceIndexes];
 [Material]
}

template MeshNormals {
 <F6F23F43-7686-11cf-8F52-0040333594A3>
 DWORD nNormals;
 array Vector normals[nNormals];
 DWORD nFaceNormals;
 array MeshFace faceNormals[nFaceNormals];
}

template MeshVertexColors {
 <1630B821-7842-11cf-8F52-0040333594A3>
 DWORD nVertexColors;
 array IndexedColor vertexColors[nVertexColors];
}

template Mesh {
 <3D82AB44-62DA-11cf-AB39-0020AF71E433>
 DWORD nVertices;
 array Vector vertices[nVertices];
 DWORD nFaces;
 array MeshFace faces[nFaces];
 [...]
}

Header{
1;
0;
1;
}

Mesh {
 137;
 0.00217;0.00224;0.00000;,
 0.00217;0.00224;-0.10759;,
 0.06541;0.00224;-0.08704;,
 0.10449;0.00224;-0.03325;,
 0.10449;0.00224;0.03325;,
 0.10449;0.00224;0.03325;,
 0.06541;0.00224;0.08704;,
 0.00217;0.00224;0.10759;,
 -0.06107;0.00224;0.08704;,
 -0.10015;0.00224;0.03325;,
 -0.10015;0.00224;-0.03325;,
 -0.06107;0.00224;-0.08704;,
 0.00217;0.37198;-0.09310;,
 0.05689;0.37198;-0.07532;,
 0.06541;0.36922;-0.08704;,
 0.00217;0.36922;-0.10759;,
 0.09071;0.37198;-0.02877;,
 0.10449;0.36922;-0.03325;,
 0.09071;0.37198;0.02877;,
 0.10449;0.36922;0.03325;,
 0.05689;0.37198;0.07532;,
 0.06541;0.36922;0.08704;,
 0.00217;0.37198;0.09310;,
 0.00217;0.36922;0.10759;,
 -0.05255;0.37198;0.07532;,
 -0.06107;0.36922;0.08704;,
 -0.08638;0.37198;0.02877;,
 -0.10015;0.36922;0.03325;,
 -0.08638;0.37198;-0.02877;,
 -0.10015;0.36922;-0.03325;,
 -0.05255;0.37198;-0.07532;,
 -0.06107;0.36922;-0.08704;,
 0.00217;0.01425;-0.09310;,
 0.05689;0.01425;-0.07532;,
 0.05689;0.37198;-0.07532;,
 0.00217;0.37198;-0.09310;,
 0.00217;0.01425;0.00000;,
 0.05689;0.01425;-0.07532;,
 0.00217;0.01425;-0.09310;,
 0.09071;0.01425;-0.02877;,
 0.09071;0.37198;-0.02877;,
 0.09071;0.01425;-0.02877;,
 0.09071;0.01425;0.02877;,
 0.09071;0.37198;0.02877;,
 0.09071;0.01425;0.02877;,
 0.05689;0.01425;0.07532;,
 0.05689;0.37198;0.07532;,
 0.05689;0.01425;0.07532;,
 0.00217;0.01425;0.09310;,
 0.00217;0.37198;0.09310;,
 0.00217;0.01425;0.09310;,
 -0.05255;0.01425;0.07532;,
 -0.05255;0.37198;0.07532;,
 -0.05255;0.01425;0.07532;,
 -0.08638;0.01425;0.02877;,
 -0.08638;0.37198;0.02877;,
 -0.08638;0.01425;0.02877;,
 -0.08638;0.01425;-0.02877;,
 -0.08638;0.37198;-0.02877;,
 -0.08638;0.01425;-0.02877;,
 -0.05255;0.01425;-0.07532;,
 -0.05255;0.37198;-0.07532;,
 -0.05255;0.01425;-0.07532;,
 0.15969;0.31136;-0.01045;,
 0.15298;0.30333;-0.01478;,
 0.10281;0.30570;-0.01478;,
 0.10245;0.31614;-0.01045;,
 0.16240;0.31476;0.00000;,
 0.10227;0.32047;0.00000;,
 0.15969;0.31136;0.01045;,
 0.10245;0.31614;0.01045;,
 0.15298;0.30333;0.01478;,
 0.10281;0.30570;0.01478;,
 0.14602;0.29551;0.01045;,
 0.10305;0.29525;0.01045;,
 0.14307;0.29234;0.00000;,
 0.10312;0.29092;0.00000;,
 0.14602;0.29551;-0.01045;,
 0.10305;0.29525;-0.01045;,
 0.15298;0.30333;-0.01478;,
 0.10281;0.30570;-0.01478;,
 0.18040;0.27044;-0.01045;,
 0.16995;0.27178;-0.01478;,
 0.18473;0.26989;0.00000;,
 0.18040;0.27044;0.01045;,
 0.16995;0.27178;0.01478;,
 0.15950;0.27311;0.01045;,
 0.15517;0.27366;0.00000;,
 0.15950;0.27311;-0.01045;,
 0.16995;0.27178;-0.01478;,
 0.18867;0.16182;-0.01045;,
 0.17822;0.16466;-0.01478;,
 0.19300;0.16064;0.00000;,
 0.18867;0.16182;0.01045;,
 0.17822;0.16466;0.01478;,
 0.16777;0.16751;0.01045;,
 0.16344;0.16868;0.00000;,
 0.16777;0.16751;-0.01045;,
 0.17822;0.16466;-0.01478;,
 0.15485;0.11791;-0.01045;,
 0.10262;0.10957;-0.01045;,
 0.10288;0.12002;-0.01478;,
 0.15062;0.12763;-0.01478;,
 0.15640;0.11378;0.00000;,
 0.10251;0.10524;0.00000;,
 0.15485;0.11791;0.01045;,
 0.10262;0.10957;0.01045;,
 0.15062;0.12763;0.01478;,
 0.10288;0.12002;0.01478;,
 0.14571;0.13697;0.01045;,
 0.10313;0.13047;0.01045;,
 0.14348;0.14071;0.00000;,
 0.10324;0.13480;0.00000;,
 0.14571;0.13697;-0.01045;,
 0.10313;0.13047;-0.01045;,
 0.15062;0.12763;-0.01478;,
 0.10288;0.12002;-0.01478;,
 0.06541;0.00224;-0.08704;,
 0.00217;0.00224;-0.10759;,
 0.00217;0.36922;-0.10759;,
 0.06541;0.36922;-0.08704;,
 0.10449;0.00224;-0.03325;,
 0.10449;0.36922;-0.03325;,
 0.10449;0.00224;0.03325;,
 0.10449;0.36922;0.03325;,
 0.06541;0.00224;0.08704;,
 0.06541;0.36922;0.08704;,
 0.00217;0.00224;0.10759;,
 0.00217;0.36922;0.10759;,
 -0.06107;0.00224;0.08704;,
 -0.06107;0.36922;0.08704;,
 -0.10015;0.00224;0.03325;,
 -0.10015;0.36922;0.03325;,
 -0.10015;0.00224;-0.03325;,
 -0.10015;0.36922;-0.03325;,
 -0.06107;0.00224;-0.08704;,
 -0.06107;0.36922;-0.08704;;
 
 90;
 3;0,1,2;,
 3;0,2,3;,
 3;0,3,4;,
 3;0,5,6;,
 3;0,6,7;,
 3;0,7,8;,
 3;0,8,9;,
 3;0,9,10;,
 3;0,10,11;,
 3;0,11,1;,
 4;12,13,14,15;,
 4;13,16,17,14;,
 4;16,18,19,17;,
 4;18,20,21,19;,
 4;20,22,23,21;,
 4;22,24,25,23;,
 4;24,26,27,25;,
 4;26,28,29,27;,
 4;28,30,31,29;,
 4;30,12,15,31;,
 4;32,33,34,35;,
 3;36,37,38;,
 4;33,39,40,34;,
 3;36,41,37;,
 4;39,42,43,40;,
 3;36,44,41;,
 4;42,45,46,43;,
 3;36,47,44;,
 4;45,48,49,46;,
 3;36,50,47;,
 4;48,51,52,49;,
 3;36,53,50;,
 4;51,54,55,52;,
 3;36,56,53;,
 4;54,57,58,55;,
 3;36,59,56;,
 4;57,60,61,58;,
 3;36,62,59;,
 4;60,32,35,61;,
 3;36,38,62;,
 4;63,64,65,66;,
 4;67,63,66,68;,
 4;69,67,68,70;,
 4;71,69,70,72;,
 4;73,71,72,74;,
 4;75,73,74,76;,
 4;77,75,76,78;,
 4;79,77,78,80;,
 4;81,82,64,63;,
 4;83,81,63,67;,
 4;84,83,67,69;,
 4;85,84,69,71;,
 4;86,85,71,73;,
 4;87,86,73,75;,
 4;88,87,75,77;,
 4;89,88,77,79;,
 4;90,91,82,81;,
 4;92,90,81,83;,
 4;93,92,83,84;,
 4;94,93,84,85;,
 4;95,94,85,86;,
 4;96,95,86,87;,
 4;97,96,87,88;,
 4;98,97,88,89;,
 4;99,100,101,102;,
 4;99,102,91,90;,
 4;103,104,100,99;,
 4;103,99,90,92;,
 4;105,106,104,103;,
 4;105,103,92,93;,
 4;107,108,106,105;,
 4;107,105,93,94;,
 4;109,110,108,107;,
 4;109,107,94,95;,
 4;111,112,110,109;,
 4;111,109,95,96;,
 4;113,114,112,111;,
 4;113,111,96,97;,
 4;115,116,114,113;,
 4;115,113,97,98;,
 4;117,118,119,120;,
 4;121,117,120,122;,
 4;123,121,122,124;,
 4;125,123,124,126;,
 4;127,125,126,128;,
 4;129,127,128,130;,
 4;131,129,130,132;,
 4;133,131,132,134;,
 4;135,133,134,136;,
 4;118,135,136,119;;
 
 MeshMaterialList {
  8;
  90;
  7,
  7,
  7,
  7,
  7,
  7,
  7,
  7,
  7,
  7,
  7,
  7,
  7,
  7,
  7,
  7,
  7,
  7,
  7,
  7,
  7,
  7,
  7,
  7,
  7,
  7,
  7,
  7,
  7,
  7,
  7,
  7,
  7,
  7,
  7,
  7,
  7,
  7,
  7,
  7,
  7,
  7,
  7,
  7,
  7,
  7,
  7,
  7,
  7,
  7,
  7,
  7,
  7,
  7,
  7,
  7,
  7,
  7,
  7,
  7,
  7,
  7,
  7,
  7,
  7,
  7,
  7,
  7,
  7,
  7,
  7,
  7,
  7,
  7,
  7,
  7,
  7,
  7,
  7,
  7,
  7,
  7,
  7,
  7,
  7,
  7,
  7,
  7,
  7,
  7;;
  Material {
   0.800000;0.800000;0.800000;1.000000;;
   5.000000;
   0.000000;0.000000;0.000000;;
   0.000000;0.000000;0.000000;;
   TextureFilename {
    "iztex01.png";
   }
  }
  Material {
   0.668000;0.633600;0.351200;1.000000;;
   5.000000;
   0.000000;0.000000;0.000000;;
   0.258850;0.245520;0.136090;;
   TextureFilename {
    "iztex01.png";
   }
  }
  Material {
   0.298400;0.125600;0.112800;1.000000;;
   18.000000;
   0.200000;0.200000;0.200000;;
   0.134280;0.056520;0.050760;;
   TextureFilename {
    "iztex01.png";
   }
  }
  Material {
   0.061410;0.011730;0.011730;1.000000;;
   30.000000;
   0.300000;0.300000;0.300000;;
   0.000000;0.000000;0.000000;;
   TextureFilename {
    "iztex01.png";
   }
  }
  Material {
   0.800000;0.166400;0.000000;1.000000;;
   5.000000;
   0.450000;0.450000;0.450000;;
   0.000000;0.000000;0.000000;;
   TextureFilename {
    "iztex01.png";
   }
  }
  Material {
   0.800000;0.800000;0.800000;1.000000;;
   5.000000;
   0.100000;0.100000;0.100000;;
   0.390000;0.390000;0.390000;;
   TextureFilename {
    "iztex01.png";
   }
  }
  Material {
   0.800000;0.800000;0.800000;1.000000;;
   26.000000;
   0.410000;0.410000;0.410000;;
   0.400000;0.400000;0.400000;;
   TextureFilename {
    "iztex01.png";
   }
  }
  Material {
   0.800000;0.800000;0.800000;0.300000;;
   54.000000;
   0.710000;0.710000;0.710000;;
   0.750000;0.750000;0.750000;;
   TextureFilename {
    "iztex01.png";
   }
  }
 }
 MeshNormals {
  90;
  0.000002;0.652853;-0.757484;,
  0.445243;0.652851;-0.612817;,
  0.720415;0.652849;-0.234075;,
  0.720415;0.652849;0.234075;,
  0.445243;0.652851;0.612817;,
  0.000002;0.652853;0.757484;,
  -0.445241;0.652851;0.612818;,
  -0.720415;0.652849;0.234075;,
  -0.720415;0.652849;-0.234075;,
  -0.445241;0.652852;-0.612818;,
  0.000002;-0.724617;-0.689151;,
  0.405076;-0.724617;-0.557534;,
  0.655423;-0.724617;-0.212958;,
  0.655423;-0.724617;0.212958;,
  0.405076;-0.724617;0.557534;,
  0.000002;-0.724617;0.689151;,
  -0.405075;-0.724617;0.557534;,
  -0.655423;-0.724617;0.212958;,
  -0.655423;-0.724617;-0.212958;,
  -0.405075;-0.724617;-0.557534;,
  0.000000;-1.000000;-0.000000;,
  -0.000002;0.788668;0.614819;,
  -0.361381;0.788668;0.497400;,
  -0.584724;0.788671;0.189991;,
  -0.584724;0.788671;-0.189991;,
  -0.361381;0.788668;-0.497400;,
  -0.000002;0.788668;-0.614819;,
  0.361379;0.788668;-0.497401;,
  0.584724;0.788671;-0.189991;,
  0.584724;0.788671;0.189991;,
  0.361379;0.788668;0.497401;,
  0.000000;1.000000;0.000000;,
  -0.000002;0.724618;0.689151;,
  -0.405074;0.724616;0.557536;,
  -0.655421;0.724617;0.212962;,
  -0.655421;0.724617;-0.212962;,
  -0.405074;0.724616;-0.557536;,
  -0.000002;0.724618;-0.689151;,
  0.405072;0.724617;-0.557537;,
  0.655421;0.724617;-0.212962;,
  0.655421;0.724617;0.212962;,
  0.405072;0.724617;0.557537;,
  0.009878;-0.005455;-0.999936;,
  0.059949;0.728395;-0.682530;,
  0.088901;0.996041;0.000000;,
  0.059949;0.728395;0.682530;,
  0.009878;-0.005455;0.999936;,
  0.005150;-0.740821;0.671682;,
  0.020619;-0.999787;-0.000000;,
  0.005150;-0.740821;-0.671682;,
  0.000349;0.002402;-0.999997;,
  0.111723;-0.701597;-0.703761;,
  0.157120;-0.987580;-0.000000;,
  0.111723;-0.701597;0.703761;,
  0.000349;0.002402;0.999997;,
  -0.107411;0.707903;0.698094;,
  -0.148227;0.988953;0.000000;,
  -0.107411;0.707903;-0.698094;,
  0.007280;-0.006202;-0.999954;,
  0.384741;0.569432;-0.726444;,
  0.563670;0.826000;0.000000;,
  0.384741;0.569432;0.726444;,
  0.007280;-0.006202;0.999954;,
  -0.336232;-0.603143;0.723302;,
  -0.475464;-0.879735;0.000000;,
  -0.336232;-0.603143;-0.723302;,
  0.002300;-0.003561;-0.999991;,
  0.691312;0.196353;-0.695365;,
  0.963258;0.268579;0.000000;,
  0.691312;0.196353;0.695365;,
  0.002300;-0.003561;0.999991;,
  -0.680002;-0.222159;0.698744;,
  -0.949293;-0.314392;0.000000;,
  -0.680002;-0.222159;-0.698744;,
  0.000099;-0.002333;-0.999997;,
  0.665603;-0.201795;-0.718506;,
  0.957137;-0.289634;-0.000000;,
  0.665603;-0.201795;0.718506;,
  0.000099;-0.002333;0.999997;,
  -0.667866;0.189541;0.719742;,
  -0.962953;0.269670;0.000000;,
  -0.667866;0.189541;-0.719742;,
  0.000293;-0.001013;-0.999999;,
  0.356830;-0.594299;-0.720750;,
  0.511216;-0.859452;-0.000000;,
  0.356830;-0.594299;0.720750;,
  0.000293;-0.001013;0.999999;,
  -0.360474;0.588369;0.723796;,
  -0.521643;0.853164;0.000000;,
  -0.360474;0.588369;-0.723796;;
  90;
  3;20,10,11;,
  3;20,11,12;,
  3;20,12,13;,
  3;20,13,14;,
  3;20,14,15;,
  3;20,15,16;,
  3;20,16,17;,
  3;20,17,18;,
  3;20,18,19;,
  3;20,19,10;,
  4;21,22,1,0;,
  4;22,23,2,1;,
  4;23,24,3,2;,
  4;24,25,4,3;,
  4;25,26,5,4;,
  4;26,27,6,5;,
  4;27,28,7,6;,
  4;28,29,8,7;,
  4;29,30,9,8;,
  4;30,21,0,9;,
  4;32,33,22,21;,
  3;31,33,32;,
  4;33,34,23,22;,
  3;31,34,33;,
  4;34,35,24,23;,
  3;31,35,34;,
  4;35,36,25,24;,
  3;31,36,35;,
  4;36,37,26,25;,
  3;31,37,36;,
  4;37,38,27,26;,
  3;31,38,37;,
  4;38,39,28,27;,
  3;31,39,38;,
  4;39,40,29,28;,
  3;31,40,39;,
  4;40,41,30,29;,
  3;31,41,40;,
  4;41,32,21,30;,
  3;31,32,41;,
  4;59,58,42,43;,
  4;60,59,43,44;,
  4;61,60,44,45;,
  4;62,61,45,46;,
  4;63,62,46,47;,
  4;64,63,47,48;,
  4;65,64,48,49;,
  4;58,65,49,42;,
  4;67,66,58,59;,
  4;68,67,59,60;,
  4;69,68,60,61;,
  4;70,69,61,62;,
  4;71,70,62,63;,
  4;72,71,63,64;,
  4;73,72,64,65;,
  4;66,73,65,58;,
  4;75,74,66,67;,
  4;76,75,67,68;,
  4;77,76,68,69;,
  4;78,77,69,70;,
  4;79,78,70,71;,
  4;80,79,71,72;,
  4;81,80,72,73;,
  4;74,81,73,66;,
  4;83,51,50,82;,
  4;83,82,74,75;,
  4;84,52,51,83;,
  4;84,83,75,76;,
  4;85,53,52,84;,
  4;85,84,76,77;,
  4;86,54,53,85;,
  4;86,85,77,78;,
  4;87,55,54,86;,
  4;87,86,78,79;,
  4;88,56,55,87;,
  4;88,87,79,80;,
  4;89,57,56,88;,
  4;89,88,80,81;,
  4;82,50,57,89;,
  4;82,89,81,74;,
  4;11,10,0,1;,
  4;12,11,1,2;,
  4;13,12,2,3;,
  4;14,13,3,4;,
  4;15,14,4,5;,
  4;16,15,5,6;,
  4;17,16,6,7;,
  4;18,17,7,8;,
  4;19,18,8,9;,
  4;10,19,9,0;;
 }
 MeshTextureCoords {
  137;
  0.056550;0.558100;,
  0.020990;0.564470;,
  0.012790;0.558220;,
  0.020390;0.551930;,
  0.042350;0.547990;,
  0.042360;0.547990;,
  0.069750;0.547920;,
  0.094350;0.551730;,
  0.100870;0.557970;,
  0.092710;0.564260;,
  0.070730;0.568200;,
  0.043340;0.568280;,
  0.097380;0.524200;,
  0.101360;0.523710;,
  0.107810;0.523990;,
  0.103200;0.524550;,
  0.089530;0.523260;,
  0.094130;0.523470;,
  0.066400;0.523040;,
  0.067400;0.523210;,
  0.040810;0.523120;,
  0.037830;0.523300;,
  0.022540;0.523470;,
  0.016710;0.523710;,
  0.018550;0.523960;,
  0.012110;0.524280;,
  0.030380;0.524410;,
  0.025780;0.524800;,
  0.053510;0.524630;,
  0.052510;0.525060;,
  0.079110;0.524550;,
  0.082090;0.524960;,
  0.016320;0.546590;,
  0.025540;0.546540;,
  0.025540;0.525700;,
  0.016320;0.525750;,
  0.072560;0.544460;,
  0.064070;0.542920;,
  0.069420;0.542000;,
  0.047470;0.546510;,
  0.047470;0.525660;,
  0.061960;0.544420;,
  0.073770;0.546510;,
  0.073770;0.525670;,
  0.063910;0.545940;,
  0.094370;0.546540;,
  0.094370;0.525700;,
  0.069150;0.546900;,
  0.101420;0.546600;,
  0.101420;0.525760;,
  0.075700;0.546920;,
  0.092210;0.546650;,
  0.092210;0.525810;,
  0.081050;0.546000;,
  0.070270;0.546680;,
  0.070270;0.525840;,
  0.083160;0.544490;,
  0.043980;0.546680;,
  0.043980;0.525840;,
  0.081220;0.542970;,
  0.023380;0.546640;,
  0.023380;0.525800;,
  0.075970;0.542020;,
  0.021990;0.530750;,
  0.010570;0.530830;,
  0.010570;0.524300;,
  0.021990;0.524300;,
  0.033410;0.530710;,
  0.033410;0.524300;,
  0.044830;0.530750;,
  0.044830;0.524300;,
  0.056250;0.530830;,
  0.056250;0.524300;,
  0.067670;0.530910;,
  0.067670;0.524300;,
  0.079080;0.530950;,
  0.079080;0.524300;,
  0.090500;0.530910;,
  0.090500;0.524300;,
  0.101920;0.530830;,
  0.101920;0.524300;,
  0.021990;0.538340;,
  0.010570;0.538140;,
  0.033410;0.538420;,
  0.044830;0.538340;,
  0.056250;0.538140;,
  0.067670;0.537940;,
  0.079080;0.537850;,
  0.090500;0.537940;,
  0.101920;0.538140;,
  0.021990;0.553030;,
  0.010570;0.552600;,
  0.033410;0.553210;,
  0.044830;0.553030;,
  0.056250;0.552600;,
  0.067670;0.552170;,
  0.079080;0.551990;,
  0.090500;0.552170;,
  0.101920;0.552600;,
  0.021990;0.559630;,
  0.021990;0.565300;,
  0.010570;0.565300;,
  0.010570;0.559390;,
  0.033410;0.559730;,
  0.033410;0.565300;,
  0.044830;0.559630;,
  0.044830;0.565300;,
  0.056250;0.559390;,
  0.056250;0.565300;,
  0.067670;0.559150;,
  0.067670;0.565300;,
  0.079080;0.559050;,
  0.079080;0.565300;,
  0.090500;0.559150;,
  0.090500;0.565300;,
  0.101920;0.559390;,
  0.101920;0.565300;,
  0.007020;0.573240;,
  0.014240;0.573240;,
  0.014240;0.525700;,
  0.007020;0.525700;,
  0.044430;0.573240;,
  0.044430;0.525700;,
  0.071450;0.573240;,
  0.071450;0.525700;,
  0.093300;0.573240;,
  0.093300;0.525700;,
  0.103870;0.573240;,
  0.103870;0.525700;,
  0.093300;0.573240;,
  0.093300;0.525700;,
  0.071450;0.573240;,
  0.071450;0.525700;,
  0.044430;0.573240;,
  0.044430;0.525700;,
  0.022580;0.573240;,
  0.022580;0.525700;;
 }
}
